logs/failed_test_3.log
Chronologic VCS simulator copyright 1991-2020
Contains Synopsys proprietary information.
Compiler version R-2020.12-SP2; Runtime version R-2020.12-SP2;  Jun  8 22:59 2026
UVM_INFO /mnt/vol_NFS_rh003/tools/vcs/R-2020.12-SP2/etc/uvm-1.2/base/uvm_root.svh(402) @ 0: reporter [UVM/RELNOTES] 
----------------------------------------------------------------
UVM-1.2.Synopsys
(C) 2007-2014 Mentor Graphics Corporation
(C) 2007-2014 Cadence Design Systems, Inc.
(C) 2006-2014 Synopsys, Inc.
(C) 2011-2013 Cypress Semiconductor Corp.
(C) 2013-2014 NVIDIA Corporation
----------------------------------------------------------------

  ***********       IMPORTANT RELEASE NOTES         ************

  You are using a version of the UVM library that has been compiled
  with `UVM_NO_DEPRECATED undefined.
  See http://www.eda.org/svdb/view.php?id=3313 for more details.

  You are using a version of the UVM library that has been compiled
  with `UVM_OBJECT_DO_NOT_NEED_CONSTRUCTOR undefined.
  See http://www.eda.org/svdb/view.php?id=3770 for more details.

      (Specify +UVM_NO_RELNOTES to turn off this notice)

UVM_INFO tb_top.sv(133) @ 0: reporter [TB_TOP] All interfaces set in config_db
UVM_INFO tb_top.sv(146) @ 0: reporter [TB_TOP] RAL model created and set in config_db
UVM_INFO @ 0: reporter [RNTST] Running test test_general...
UVM_INFO aligner_env.sv(74) @ 0: uvm_test_top.env [aligner_env] Environment connected
UVM_INFO aligner_env.sv(78) @ 0: uvm_test_top.env [aligner_env] Simulation started
-------------------------------------------------------------------------------------------
Name                     Type                      Size  Value                             
-------------------------------------------------------------------------------------------
regmodel                 cfs_aligner_regs          -     @367                              
  ctrl                   cfs_aligner_regs__ctrl    -     @370                              
    size                 uvm_reg_field             ...    RW ctrl[2:0]=3'h1                
    reserved0            uvm_reg_field             ...    RO ctrl[7:3]=5'h00               
    offset               uvm_reg_field             ...    RW ctrl[9:8]=2'h0                
    reserved1            uvm_reg_field             ...    RO ctrl[15:10]=6'h00             
    clr                  uvm_reg_field             ...    WO ctrl[16:16]=1'h0              
    reserved2            uvm_reg_field             ...    RO ctrl[31:17]=15'h0000          
  status                 cfs_aligner_regs__status  -     @378                              
    cnt_drop             uvm_reg_field             ...    RO status[7:0]=8'h00             
    rx_lvl               uvm_reg_field             ...    RO status[11:8]=4'h0             
    reserved0            uvm_reg_field             ...    RO status[15:12]=4'h0            
    tx_lvl               uvm_reg_field             ...    RO status[19:16]=4'h0            
    reserved1            uvm_reg_field             ...    RO status[31:20]=12'h000         
  irqen                  cfs_aligner_regs__irqen   -     @385                              
    rx_fifo_empty        uvm_reg_field             ...    RW irqen[0:0]=1'h1               
    rx_fifo_full         uvm_reg_field             ...    RW irqen[1:1]=1'h1               
    tx_fifo_empty        uvm_reg_field             ...    RW irqen[2:2]=1'h1               
    tx_fifo_full         uvm_reg_field             ...    RW irqen[3:3]=1'h1               
    max_drop             uvm_reg_field             ...    RW irqen[4:4]=1'h1               
    reserved             uvm_reg_field             ...    RO irqen[31:5]=27'h0000000       
  irq                    cfs_aligner_regs__irq     -     @393                              
    rx_fifo_empty        uvm_reg_field             ...    W1C irq[0:0]=1'h0                
    rx_fifo_full         uvm_reg_field             ...    W1C irq[1:1]=1'h0                
    tx_fifo_empty        uvm_reg_field             ...    W1C irq[2:2]=1'h0                
    tx_fifo_full         uvm_reg_field             ...    W1C irq[3:3]=1'h0                
    max_drop             uvm_reg_field             ...    W1C irq[4:4]=1'h0                
    reserved             uvm_reg_field             ...    RO irq[31:5]=27'h0000000         
  reg_map                uvm_reg_map               -     @369                              
    endian                                         ...   UVM_NO_ENDIAN                     
    effective sequencer  apb_sequencer             ...   uvm_test_top.env.apb_agt.sequencer
    ctrl                 cfs_aligner_regs__ctrl    ...   @370 +'h0                         
    status               cfs_aligner_regs__status  ...   @378 +'hc                         
    irqen                cfs_aligner_regs__irqen   ...   @385 +'hf0                        
    irq                  cfs_aligner_regs__irq     ...   @393 +'hf4                        
-------------------------------------------------------------------------------------------
UVM_INFO test_general.sv(316) @ 0: uvm_test_top [test_general] 
==================================================
  TEST GENERAL CONFIGURATION
==================================================
  SEMILLA            = 465325443
  TEST_MODE          = FULL
  APB_NUM_TRANS      = 406
  MD_NUM_PKTS        = 56
  MD_PESO_LEGAL      = 86%
  CTRL_SIZE          = 3
  CTRL_OFFSET        = 2
  MD_PATRON          = DECR
  TIMEOUT_MS         = 168
==================================================
UVM_INFO tb_top.sv(116) @ 190000: reporter [TB_TOP] Reset deasserted
UVM_INFO md_componentes.sv(31) @ 210000: uvm_test_top.env.rx_agt.driver [RX_DRV] Reset liberado
UVM_INFO scoreboard.sv(127) @ 270000: uvm_test_top.env.sb [scoreboard] Config actualizada: offset=2 size=3 (pending_bytes=0 flushed)
UVM_INFO test_general.sv(118) @ 270000: uvm_test_top [test_general] CTRL configurado: size=3 offset=2
UVM_INFO test_general.sv(131) @ 350000: uvm_test_top [test_general] IRQEN configurado (todas las interrupciones habilitadas)
UVM_INFO test_general.sv(144) @ 350000: uvm_test_top [test_general] Drenando pipeline del DUT...
UVM_INFO test_general.sv(154) @ 430000: uvm_test_top [test_general] Pipeline drenado OK
UVM_INFO scoreboard.sv(122) @ 430000: uvm_test_top.env.sb [scoreboard] Scoreboard ARMADO — verificación activa
UVM_INFO test_general.sv(166) @ 430000: uvm_test_top [test_general] Iniciando 406 transacciones APB
UVM_WARNING apb_componentes.sv(142) @ 530000: uvm_test_top.env.apb_agt.driver [apb_driver] APB WRITE at addr 0x0 returned error (pslverr=1)
UVM_INFO scoreboard.sv(127) @ 770000: uvm_test_top.env.sb [scoreboard] Config actualizada: offset=2 size=2 (pending_bytes=0 flushed)
UVM_INFO test_general.sv(251) @ 930000: uvm_test_top [test_general] Iniciando MD: 48 legales, 8 ilegales, patrón=DECR
UVM_INFO scoreboard.sv(143) @ 950000: uvm_test_top.env.sb [scoreboard] [RX] #1: data=0x00000000 off=2 size=1 err=0 should_drop=0
UVM_INFO md_componentes.sv(41) @ 970000: uvm_test_top.env.rx_agt.driver [RX_DRV] [RX] data=0x00000000 offset=2 size=1 valid=1 err=1
UVM_INFO md_sequences.sv(127) @ 970000: uvm_test_top.env.rx_agt.sequencer@@rx_seq [rx_mixed_seq] Enviado LEGAL: off=2 size=1 data=0x00000000
UVM_INFO md_componentes.sv(227) @ 990000: uvm_test_top.env.irq_mon [IRQ_MON] [IRQ] @ 990000
UVM_INFO scoreboard.sv(223) @ 990000: uvm_test_top.env.sb [scoreboard] [IRQ #1] @ 990000
UVM_INFO scoreboard.sv(143) @ 1010000: uvm_test_top.env.sb [scoreboard] [RX] #2: data=0xffffffff off=3 size=1 err=0 should_drop=0
UVM_INFO md_componentes.sv(41) @ 1030000: uvm_test_top.env.rx_agt.driver [RX_DRV] [RX] data=0xffffffff offset=3 size=1 valid=1 err=1
UVM_INFO md_sequences.sv(127) @ 1030000: uvm_test_top.env.rx_agt.sequencer@@rx_seq [rx_mixed_seq] Enviado LEGAL: off=3 size=1 data=0xffffffff
UVM_INFO md_componentes.sv(227) @ 1050000: uvm_test_top.env.irq_mon [IRQ_MON] [IRQ] @ 1050000
UVM_INFO scoreboard.sv(223) @ 1050000: uvm_test_top.env.sb [scoreboard] [IRQ #2] @ 1050000
UVM_INFO scoreboard.sv(143) @ 1070000: uvm_test_top.env.sb [scoreboard] [RX] #3: data=0xfffffffe off=3 size=1 err=0 should_drop=0
UVM_INFO scoreboard.sv(187) @ 1070000: uvm_test_top.env.sb [scoreboard] [TX] data=0xff000000 off=2 size=2
UVM_ERROR scoreboard.sv(202) @ 1070000: uvm_test_top.env.sb [scoreboard] TX DATA MISMATCH:
  Esperado: 0x0000ff00 (size=2)
  Recibido: 0xff000000 (size=2)
UVM_INFO md_componentes.sv(227) @ 1090000: uvm_test_top.env.irq_mon [IRQ_MON] [IRQ] @ 1090000
UVM_INFO scoreboard.sv(223) @ 1090000: uvm_test_top.env.sb [scoreboard] [IRQ #3] @ 1090000
UVM_INFO md_componentes.sv(41) @ 1090000: uvm_test_top.env.rx_agt.driver [RX_DRV] [RX] data=0xfffffffe offset=3 size=1 valid=1 err=0
UVM_INFO md_sequences.sv(127) @ 1090000: uvm_test_top.env.rx_agt.sequencer@@rx_seq [rx_mixed_seq] Enviado LEGAL: off=3 size=1 data=0xfffffffe
UVM_INFO scoreboard.sv(143) @ 1130000: uvm_test_top.env.sb [scoreboard] [RX] #4: data=0xfffffffd off=0 size=4 err=0 should_drop=0
UVM_INFO md_componentes.sv(41) @ 1150000: uvm_test_top.env.rx_agt.driver [RX_DRV] [RX] data=0xfffffffd offset=0 size=4 valid=1 err=1
UVM_INFO md_sequences.sv(127) @ 1150000: uvm_test_top.env.rx_agt.sequencer@@rx_seq [rx_mixed_seq] Enviado LEGAL: off=0 size=4 data=0xfffffffd
UVM_INFO md_componentes.sv(227) @ 1170000: uvm_test_top.env.irq_mon [IRQ_MON] [IRQ] @ 1170000
UVM_INFO scoreboard.sv(223) @ 1170000: uvm_test_top.env.sb [scoreboard] [IRQ #4] @ 1170000
UVM_INFO scoreboard.sv(143) @ 1190000: uvm_test_top.env.sb [scoreboard] [RX] #5: data=0xfffffffc off=3 size=1 err=0 should_drop=0
UVM_INFO scoreboard.sv(187) @ 1190000: uvm_test_top.env.sb [scoreboard] [TX] data=0xfdff0000 off=2 size=2
UVM_ERROR scoreboard.sv(202) @ 1190000: uvm_test_top.env.sb [scoreboard] TX DATA MISMATCH:
  Esperado: 0x0000fdff (size=2)
  Recibido: 0xfdff0000 (size=2)
UVM_INFO scoreboard.sv(187) @ 1210000: uvm_test_top.env.sb [scoreboard] [TX] data=0xffff0000 off=2 size=2
UVM_ERROR scoreboard.sv(202) @ 1210000: uvm_test_top.env.sb [scoreboard] TX DATA MISMATCH:
  Esperado: 0x0000ffff (size=2)
  Recibido: 0xffff0000 (size=2)
UVM_INFO md_componentes.sv(41) @ 1210000: uvm_test_top.env.rx_agt.driver [RX_DRV] [RX] data=0xfffffffc offset=3 size=1 valid=1 err=0
UVM_INFO md_sequences.sv(127) @ 1210000: uvm_test_top.env.rx_agt.sequencer@@rx_seq [rx_mixed_seq] Enviado LEGAL: off=3 size=1 data=0xfffffffc
UVM_INFO md_componentes.sv(227) @ 1230000: uvm_test_top.env.irq_mon [IRQ_MON] [IRQ] @ 1230000
UVM_INFO scoreboard.sv(223) @ 1230000: uvm_test_top.env.sb [scoreboard] [IRQ #5] @ 1230000
UVM_INFO scoreboard.sv(127) @ 1250000: uvm_test_top.env.sb [scoreboard] Config actualizada: offset=2 size=3 (pending_bytes=0 flushed)
UVM_INFO scoreboard.sv(143) @ 1250000: uvm_test_top.env.sb [scoreboard] [RX] #6: data=0xfffffffb off=0 size=1 err=0 should_drop=0
UVM_INFO scoreboard.sv(187) @ 1250000: uvm_test_top.env.sb [scoreboard] [TX] data=0xffff0000 off=2 size=2
UVM_ERROR scoreboard.sv(202) @ 1250000: uvm_test_top.env.sb [scoreboard] TX DATA MISMATCH:
  Esperado: 0x0000ffff (size=2)
  Recibido: 0xffff0000 (size=2)
UVM_INFO md_componentes.sv(227) @ 1270000: uvm_test_top.env.irq_mon [IRQ_MON] [IRQ] @ 1270000
UVM_INFO scoreboard.sv(223) @ 1270000: uvm_test_top.env.sb [scoreboard] [IRQ #6] @ 1270000
UVM_INFO md_componentes.sv(41) @ 1270000: uvm_test_top.env.rx_agt.driver [RX_DRV] [RX] data=0xfffffffb offset=0 size=1 valid=1 err=0
UVM_INFO md_sequences.sv(127) @ 1270000: uvm_test_top.env.rx_agt.sequencer@@rx_seq [rx_mixed_seq] Enviado LEGAL: off=0 size=1 data=0xfffffffb
UVM_INFO scoreboard.sv(143) @ 1310000: uvm_test_top.env.sb [scoreboard] [RX] #7: data=0xfffffffa off=0 size=2 err=0 should_drop=0
UVM_INFO md_componentes.sv(41) @ 1330000: uvm_test_top.env.rx_agt.driver [RX_DRV] [RX] data=0xfffffffa offset=0 size=2 valid=1 err=0
UVM_INFO md_sequences.sv(127) @ 1330000: uvm_test_top.env.rx_agt.sequencer@@rx_seq [rx_mixed_seq] Enviado LEGAL: off=0 size=2 data=0xfffffffa
UVM_INFO md_componentes.sv(227) @ 1350000: uvm_test_top.env.irq_mon [IRQ_MON] [IRQ] @ 1350000
UVM_INFO scoreboard.sv(223) @ 1350000: uvm_test_top.env.sb [scoreboard] [IRQ #7] @ 1350000
UVM_INFO scoreboard.sv(143) @ 1370000: uvm_test_top.env.sb [scoreboard] [RX] #8: data=0xfffffff9 off=2 size=4 err=1 should_drop=1
UVM_INFO scoreboard.sv(156) @ 1370000: uvm_test_top.env.sb [scoreboard] DROP OK: RX#8 off=2 size=4
UVM_INFO scoreboard.sv(187) @ 1370000: uvm_test_top.env.sb [scoreboard] [TX] data=0xfafb0000 off=2 size=3
UVM_ERROR scoreboard.sv(202) @ 1370000: uvm_test_top.env.sb [scoreboard] TX DATA MISMATCH:
  Esperado: 0x00fffafb (size=3)
  Recibido: 0xfafb0000 (size=3)
UVM_INFO md_componentes.sv(227) @ 1390000: uvm_test_top.env.irq_mon [IRQ_MON] [IRQ] @ 1390000
UVM_INFO scoreboard.sv(223) @ 1390000: uvm_test_top.env.sb [scoreboard] [IRQ #8] @ 1390000
UVM_INFO md_componentes.sv(41) @ 1390000: uvm_test_top.env.rx_agt.driver [RX_DRV] [RX] data=0xfffffff9 offset=2 size=4 valid=1 err=0
UVM_INFO md_sequences.sv(144) @ 1390000: uvm_test_top.env.rx_agt.sequencer@@rx_seq [rx_mixed_seq] Enviado ILEGAL: off=2 size=4 data=0xfffffff9
UVM_INFO scoreboard.sv(143) @ 1430000: uvm_test_top.env.sb [scoreboard] [RX] #9: data=0xfffffff8 off=2 size=3 err=0 should_drop=0
UVM_INFO md_componentes.sv(41) @ 1450000: uvm_test_top.env.rx_agt.driver [RX_DRV] [RX] data=0xfffffff8 offset=2 size=3 valid=1 err=1
UVM_INFO md_sequences.sv(127) @ 1450000: uvm_test_top.env.rx_agt.sequencer@@rx_seq [rx_mixed_seq] Enviado LEGAL: off=2 size=3 data=0xfffffff8
UVM_INFO md_componentes.sv(227) @ 1470000: uvm_test_top.env.irq_mon [IRQ_MON] [IRQ] @ 1470000
UVM_INFO scoreboard.sv(223) @ 1470000: uvm_test_top.env.sb [scoreboard] [IRQ #9] @ 1470000
UVM_INFO scoreboard.sv(143) @ 1490000: uvm_test_top.env.sb [scoreboard] [RX] #10: data=0xfffffff7 off=1 size=1 err=0 should_drop=0
UVM_INFO scoreboard.sv(187) @ 1490000: uvm_test_top.env.sb [scoreboard] [TX] data=0xffff0000 off=2 size=3
UVM_ERROR scoreboard.sv(202) @ 1490000: uvm_test_top.env.sb [scoreboard] TX DATA MISMATCH:
  Esperado: 0x00ffffff (size=3)
  Recibido: 0xffff0000 (size=3)
UVM_INFO md_componentes.sv(227) @ 1510000: uvm_test_top.env.irq_mon [IRQ_MON] [IRQ] @ 1510000
UVM_INFO scoreboard.sv(223) @ 1510000: uvm_test_top.env.sb [scoreboard] [IRQ #10] @ 1510000
UVM_INFO md_componentes.sv(41) @ 1510000: uvm_test_top.env.rx_agt.driver [RX_DRV] [RX] data=0xfffffff7 offset=1 size=1 valid=1 err=0
UVM_INFO md_sequences.sv(127) @ 1510000: uvm_test_top.env.rx_agt.sequencer@@rx_seq [rx_mixed_seq] Enviado LEGAL: off=1 size=1 data=0xfffffff7
UVM_INFO scoreboard.sv(143) @ 1550000: uvm_test_top.env.sb [scoreboard] [RX] #11: data=0xfffffff6 off=2 size=1 err=0 should_drop=0
UVM_INFO md_componentes.sv(41) @ 1570000: uvm_test_top.env.rx_agt.driver [RX_DRV] [RX] data=0xfffffff6 offset=2 size=1 valid=1 err=0
UVM_INFO md_sequences.sv(127) @ 1570000: uvm_test_top.env.rx_agt.sequencer@@rx_seq [rx_mixed_seq] Enviado LEGAL: off=2 size=1 data=0xfffffff6
UVM_INFO scoreboard.sv(143) @ 1610000: uvm_test_top.env.sb [scoreboard] [RX] #12: data=0xfffffff5 off=0 size=2 err=0 should_drop=0
UVM_INFO md_componentes.sv(41) @ 1630000: uvm_test_top.env.rx_agt.driver [RX_DRV] [RX] data=0xfffffff5 offset=0 size=2 valid=1 err=0
UVM_INFO md_sequences.sv(127) @ 1630000: uvm_test_top.env.rx_agt.sequencer@@rx_seq [rx_mixed_seq] Enviado LEGAL: off=0 size=2 data=0xfffffff5
UVM_INFO scoreboard.sv(127) @ 1650000: uvm_test_top.env.sb [scoreboard] Config actualizada: offset=2 size=1 (pending_bytes=0 flushed)
UVM_INFO scoreboard.sv(143) @ 1670000: uvm_test_top.env.sb [scoreboard] [RX] #13: data=0xfffffff4 off=0 size=2 err=0 should_drop=0
UVM_INFO scoreboard.sv(187) @ 1670000: uvm_test_top.env.sb [scoreboard] [TX] data=0xffff0000 off=2 size=3
UVM_ERROR scoreboard.sv(202) @ 1670000: uvm_test_top.env.sb [scoreboard] TX DATA MISMATCH:
  Esperado: 0x00fff5ff (size=3)
  Recibido: 0xffff0000 (size=3)
UVM_INFO scoreboard.sv(187) @ 1690000: uvm_test_top.env.sb [scoreboard] [TX] data=0x00ff0000 off=2 size=1
UVM_ERROR scoreboard.sv(202) @ 1690000: uvm_test_top.env.sb [scoreboard] TX DATA MISMATCH:
  Esperado: 0x000000f4 (size=1)
  Recibido: 0x00ff0000 (size=1)
UVM_INFO md_componentes.sv(41) @ 1690000: uvm_test_top.env.rx_agt.driver [RX_DRV] [RX] data=0xfffffff4 offset=0 size=2 valid=1 err=1
UVM_INFO md_sequences.sv(127) @ 1690000: uvm_test_top.env.rx_agt.sequencer@@rx_seq [rx_mixed_seq] Enviado LEGAL: off=0 size=2 data=0xfffffff4
UVM_INFO md_componentes.sv(227) @ 1710000: uvm_test_top.env.irq_mon [IRQ_MON] [IRQ] @ 1710000
UVM_INFO scoreboard.sv(223) @ 1710000: uvm_test_top.env.sb [scoreboard] [IRQ #11] @ 1710000
UVM_INFO scoreboard.sv(143) @ 1730000: uvm_test_top.env.sb [scoreboard] [RX] #14: data=0xfffffff3 off=3 size=1 err=0 should_drop=0
UVM_INFO scoreboard.sv(187) @ 1730000: uvm_test_top.env.sb [scoreboard] [TX] data=0x00f40000 off=2 size=1
UVM_ERROR scoreboard.sv(202) @ 1730000: uvm_test_top.env.sb [scoreboard] TX DATA MISMATCH:
  Esperado: 0x000000ff (size=1)
  Recibido: 0x00f40000 (size=1)
UVM_INFO scoreboard.sv(187) @ 1750000: uvm_test_top.env.sb [scoreboard] [TX] data=0x00ff0000 off=2 size=1
UVM_ERROR scoreboard.sv(202) @ 1750000: uvm_test_top.env.sb [scoreboard] TX DATA MISMATCH:
  Esperado: 0x000000ff (size=1)
  Recibido: 0x00ff0000 (size=1)
UVM_INFO md_componentes.sv(41) @ 1750000: uvm_test_top.env.rx_agt.driver [RX_DRV] [RX] data=0xfffffff3 offset=3 size=1 valid=1 err=0
UVM_INFO md_sequences.sv(127) @ 1750000: uvm_test_top.env.rx_agt.sequencer@@rx_seq [rx_mixed_seq] Enviado LEGAL: off=3 size=1 data=0xfffffff3
UVM_INFO md_componentes.sv(227) @ 1770000: uvm_test_top.env.irq_mon [IRQ_MON] [IRQ] @ 1770000
UVM_INFO scoreboard.sv(223) @ 1770000: uvm_test_top.env.sb [scoreboard] [IRQ #12] @ 1770000
UVM_INFO scoreboard.sv(143) @ 1790000: uvm_test_top.env.sb [scoreboard] [RX] #15: data=0xfffffff2 off=0 size=4 err=0 should_drop=0
UVM_INFO scoreboard.sv(187) @ 1790000: uvm_test_top.env.sb [scoreboard] [TX] data=0x00ff0000 off=2 size=1
UVM_ERROR scoreboard.sv(202) @ 1790000: uvm_test_top.env.sb [scoreboard] TX DATA MISMATCH:
  Esperado: 0x000000f2 (size=1)
  Recibido: 0x00ff0000 (size=1)
UVM_INFO md_componentes.sv(227) @ 1810000: uvm_test_top.env.irq_mon [IRQ_MON] [IRQ] @ 1810000
UVM_INFO scoreboard.sv(223) @ 1810000: uvm_test_top.env.sb [scoreboard] [IRQ #13] @ 1810000
UVM_INFO md_componentes.sv(41) @ 1810000: uvm_test_top.env.rx_agt.driver [RX_DRV] [RX] data=0xfffffff2 offset=0 size=4 valid=1 err=0
UVM_INFO md_sequences.sv(127) @ 1810000: uvm_test_top.env.rx_agt.sequencer@@rx_seq [rx_mixed_seq] Enviado LEGAL: off=0 size=4 data=0xfffffff2
UVM_INFO scoreboard.sv(143) @ 1850000: uvm_test_top.env.sb [scoreboard] [RX] #16: data=0xfffffff1 off=1 size=1 err=0 should_drop=0
UVM_INFO scoreboard.sv(187) @ 1850000: uvm_test_top.env.sb [scoreboard] [TX] data=0x00f20000 off=2 size=1
UVM_ERROR scoreboard.sv(202) @ 1850000: uvm_test_top.env.sb [scoreboard] TX DATA MISMATCH:
  Esperado: 0x000000ff (size=1)
  Recibido: 0x00f20000 (size=1)
UVM_INFO scoreboard.sv(187) @ 1870000: uvm_test_top.env.sb [scoreboard] [TX] data=0x00ff0000 off=2 size=1
UVM_ERROR scoreboard.sv(202) @ 1870000: uvm_test_top.env.sb [scoreboard] TX DATA MISMATCH:
  Esperado: 0x000000ff (size=1)
  Recibido: 0x00ff0000 (size=1)
UVM_INFO md_componentes.sv(41) @ 1870000: uvm_test_top.env.rx_agt.driver [RX_DRV] [RX] data=0xfffffff1 offset=1 size=1 valid=1 err=0
UVM_INFO md_sequences.sv(127) @ 1870000: uvm_test_top.env.rx_agt.sequencer@@rx_seq [rx_mixed_seq] Enviado LEGAL: off=1 size=1 data=0xfffffff1
UVM_INFO scoreboard.sv(187) @ 1890000: uvm_test_top.env.sb [scoreboard] [TX] data=0x00ff0000 off=2 size=1
UVM_ERROR scoreboard.sv(202) @ 1890000: uvm_test_top.env.sb [scoreboard] TX DATA MISMATCH:
  Esperado: 0x000000ff (size=1)
  Recibido: 0x00ff0000 (size=1)
UVM_INFO scoreboard.sv(143) @ 1910000: uvm_test_top.env.sb [scoreboard] [RX] #17: data=0xfffffff0 off=1 size=1 err=0 should_drop=0
UVM_INFO scoreboard.sv(187) @ 1910000: uvm_test_top.env.sb [scoreboard] [TX] data=0x00ff0000 off=2 size=1
UVM_ERROR scoreboard.sv(202) @ 1910000: uvm_test_top.env.sb [scoreboard] TX DATA MISMATCH:
  Esperado: 0x000000ff (size=1)
  Recibido: 0x00ff0000 (size=1)
UVM_INFO scoreboard.sv(187) @ 1930000: uvm_test_top.env.sb [scoreboard] [TX] data=0x00ff0000 off=2 size=1
UVM_ERROR scoreboard.sv(202) @ 1930000: uvm_test_top.env.sb [scoreboard] TX DATA MISMATCH:
  Esperado: 0x000000ff (size=1)
  Recibido: 0x00ff0000 (size=1)
UVM_INFO md_componentes.sv(41) @ 1930000: uvm_test_top.env.rx_agt.driver [RX_DRV] [RX] data=0xfffffff0 offset=1 size=1 valid=1 err=0
UVM_INFO md_sequences.sv(127) @ 1930000: uvm_test_top.env.rx_agt.sequencer@@rx_seq [rx_mixed_seq] Enviado LEGAL: off=1 size=1 data=0xfffffff0
UVM_INFO md_componentes.sv(227) @ 1950000: uvm_test_top.env.irq_mon [IRQ_MON] [IRQ] @ 1950000
UVM_INFO scoreboard.sv(223) @ 1950000: uvm_test_top.env.sb [scoreboard] [IRQ #14] @ 1950000
UVM_INFO scoreboard.sv(143) @ 1970000: uvm_test_top.env.sb [scoreboard] [RX] #18: data=0xffffffef off=2 size=3 err=0 should_drop=0
UVM_INFO scoreboard.sv(187) @ 1970000: uvm_test_top.env.sb [scoreboard] [TX] data=0x00ff0000 off=2 size=1
UVM_ERROR scoreboard.sv(202) @ 1970000: uvm_test_top.env.sb [scoreboard] TX DATA MISMATCH:
  Esperado: 0x000000ff (size=1)
  Recibido: 0x00ff0000 (size=1)
UVM_INFO md_componentes.sv(227) @ 1990000: uvm_test_top.env.irq_mon [IRQ_MON] [IRQ] @ 1990000
UVM_INFO scoreboard.sv(223) @ 1990000: uvm_test_top.env.sb [scoreboard] [IRQ #15] @ 1990000
UVM_INFO md_componentes.sv(41) @ 1990000: uvm_test_top.env.rx_agt.driver [RX_DRV] [RX] data=0xffffffef offset=2 size=3 valid=1 err=1
UVM_INFO md_sequences.sv(127) @ 1990000: uvm_test_top.env.rx_agt.sequencer@@rx_seq [rx_mixed_seq] Enviado LEGAL: off=2 size=3 data=0xffffffef
UVM_INFO scoreboard.sv(143) @ 2030000: uvm_test_top.env.sb [scoreboard] [RX] #19: data=0xffffffee off=2 size=1 err=0 should_drop=0
UVM_INFO scoreboard.sv(187) @ 2030000: uvm_test_top.env.sb [scoreboard] [TX] data=0x00ff0000 off=2 size=1
UVM_ERROR scoreboard.sv(202) @ 2030000: uvm_test_top.env.sb [scoreboard] TX DATA MISMATCH:
  Esperado: 0x000000ff (size=1)
  Recibido: 0x00ff0000 (size=1)
UVM_INFO scoreboard.sv(127) @ 2050000: uvm_test_top.env.sb [scoreboard] Config actualizada: offset=0 size=1 (pending_bytes=0 flushed)
UVM_INFO scoreboard.sv(187) @ 2050000: uvm_test_top.env.sb [scoreboard] [TX] data=0x00ff0000 off=2 size=1
UVM_ERROR scoreboard.sv(202) @ 2050000: uvm_test_top.env.sb [scoreboard] TX DATA MISMATCH:
  Esperado: 0x000000ff (size=1)
  Recibido: 0x00ff0000 (size=1)
UVM_INFO md_componentes.sv(41) @ 2050000: uvm_test_top.env.rx_agt.driver [RX_DRV] [RX] data=0xffffffee offset=2 size=1 valid=1 err=1
UVM_INFO md_sequences.sv(127) @ 2050000: uvm_test_top.env.rx_agt.sequencer@@rx_seq [rx_mixed_seq] Enviado LEGAL: off=2 size=1 data=0xffffffee
UVM_INFO scoreboard.sv(187) @ 2070000: uvm_test_top.env.sb [scoreboard] [TX] data=0x00000000 off=2 size=1
UVM_WARNING scoreboard.sv(193) @ 2070000: uvm_test_top.env.sb [scoreboard] TX sin esperado en cola (residual de cambio CTRL): data=0x00000000 size=1 — ignorado
UVM_INFO scoreboard.sv(143) @ 2090000: uvm_test_top.env.sb [scoreboard] [RX] #20: data=0xffffffed off=2 size=3 err=0 should_drop=0
UVM_INFO scoreboard.sv(187) @ 2090000: uvm_test_top.env.sb [scoreboard] [TX] data=0x000000ff off=0 size=1
UVM_INFO scoreboard.sv(214) @ 2090000: uvm_test_top.env.sb [scoreboard] TX MATCH OK: data=0x000000ff size=1
UVM_INFO md_componentes.sv(227) @ 2110000: uvm_test_top.env.irq_mon [IRQ_MON] [IRQ] @ 2110000
UVM_INFO scoreboard.sv(223) @ 2110000: uvm_test_top.env.sb [scoreboard] [IRQ #16] @ 2110000
UVM_INFO md_componentes.sv(41) @ 2110000: uvm_test_top.env.rx_agt.driver [RX_DRV] [RX] data=0xffffffed offset=2 size=3 valid=1 err=0
UVM_INFO md_sequences.sv(127) @ 2110000: uvm_test_top.env.rx_agt.sequencer@@rx_seq [rx_mixed_seq] Enviado LEGAL: off=2 size=3 data=0xffffffed
UVM_INFO scoreboard.sv(143) @ 2150000: uvm_test_top.env.sb [scoreboard] [RX] #21: data=0xffffffec off=1 size=4 err=1 should_drop=1
UVM_INFO scoreboard.sv(156) @ 2150000: uvm_test_top.env.sb [scoreboard] DROP OK: RX#21 off=1 size=4
UVM_INFO scoreboard.sv(187) @ 2150000: uvm_test_top.env.sb [scoreboard] [TX] data=0x000000ff off=0 size=1
UVM_INFO scoreboard.sv(214) @ 2150000: uvm_test_top.env.sb [scoreboard] TX MATCH OK: data=0x000000ff size=1
UVM_INFO scoreboard.sv(187) @ 2170000: uvm_test_top.env.sb [scoreboard] [TX] data=0x000000ff off=0 size=1
UVM_WARNING scoreboard.sv(193) @ 2170000: uvm_test_top.env.sb [scoreboard] TX sin esperado en cola (residual de cambio CTRL): data=0x000000ff size=1 — ignorado
UVM_INFO md_componentes.sv(41) @ 2170000: uvm_test_top.env.rx_agt.driver [RX_DRV] [RX] data=0xffffffec offset=1 size=4 valid=1 err=0
UVM_INFO md_sequences.sv(144) @ 2170000: uvm_test_top.env.rx_agt.sequencer@@rx_seq [rx_mixed_seq] Enviado ILEGAL: off=1 size=4 data=0xffffffec
UVM_INFO scoreboard.sv(187) @ 2190000: uvm_test_top.env.sb [scoreboard] [TX] data=0x00000000 off=0 size=1
UVM_WARNING scoreboard.sv(193) @ 2190000: uvm_test_top.env.sb [scoreboard] TX sin esperado en cola (residual de cambio CTRL): data=0x00000000 size=1 — ignorado
UVM_INFO md_componentes.sv(227) @ 2210000: uvm_test_top.env.irq_mon [IRQ_MON] [IRQ] @ 2210000
UVM_INFO scoreboard.sv(223) @ 2210000: uvm_test_top.env.sb [scoreboard] [IRQ #17] @ 2210000
UVM_INFO scoreboard.sv(143) @ 2210000: uvm_test_top.env.sb [scoreboard] [RX] #22: data=0xffffffeb off=1 size=1 err=0 should_drop=0
UVM_WARNING apb_componentes.sv(142) @ 2230000: uvm_test_top.env.apb_agt.driver [apb_driver] APB WRITE at addr 0x0 returned error (pslverr=1)
UVM_INFO md_componentes.sv(41) @ 2230000: uvm_test_top.env.rx_agt.driver [RX_DRV] [RX] data=0xffffffeb offset=1 size=1 valid=1 err=0
UVM_INFO md_sequences.sv(127) @ 2230000: uvm_test_top.env.rx_agt.sequencer@@rx_seq [rx_mixed_seq] Enviado LEGAL: off=1 size=1 data=0xffffffeb
UVM_INFO scoreboard.sv(143) @ 2270000: uvm_test_top.env.sb [scoreboard] [RX] #23: data=0xffffffea off=2 size=1 err=0 should_drop=0
UVM_INFO scoreboard.sv(187) @ 2270000: uvm_test_top.env.sb [scoreboard] [TX] data=0x000000ff off=0 size=1
UVM_INFO scoreboard.sv(214) @ 2270000: uvm_test_top.env.sb [scoreboard] TX MATCH OK: data=0x000000ff size=1
