logs/failed_test_5.log
Chronologic VCS simulator copyright 1991-2020
Contains Synopsys proprietary information.
Compiler version R-2020.12-SP2; Runtime version R-2020.12-SP2;  Jun 14 18:38 2026
UVM_INFO /mnt/vol_NFS_rh003/tools/vcs/R-2020.12-SP2/etc/uvm-1.2/base/uvm_root.svh(402) @ 0: reporter [UVM/RELNOTES] 
----------------------------------------------------------------
UVM-1.2.Synopsys
(C) 2007-2014 Mentor Graphics Corporation
(C) 2007-2014 Cadence Design Systems, Inc.
(C) 2006-2014 Synopsys, Inc.
(C) 2011-2013 Cypress Semiconductor Corp.
(C) 2013-2014 NVIDIA Corporation
----------------------------------------------------------------

  ***********       IMPORTANT RELEASE NOTES         ************

  You are using a version of the UVM library that has been compiled
  with `UVM_NO_DEPRECATED undefined.
  See http://www.eda.org/svdb/view.php?id=3313 for more details.

  You are using a version of the UVM library that has been compiled
  with `UVM_OBJECT_DO_NOT_NEED_CONSTRUCTOR undefined.
  See http://www.eda.org/svdb/view.php?id=3770 for more details.

      (Specify +UVM_NO_RELNOTES to turn off this notice)

UVM_INFO tb_top.sv(133) @ 0: reporter [TB_TOP] All interfaces set in config_db
UVM_INFO tb_top.sv(146) @ 0: reporter [TB_TOP] RAL model created and set in config_db
UVM_INFO @ 0: reporter [RNTST] Running test test_general...
UVM_INFO aligner_env.sv(74) @ 0: uvm_test_top.env [aligner_env] Environment connected
UVM_INFO aligner_env.sv(78) @ 0: uvm_test_top.env [aligner_env] Simulation started
-------------------------------------------------------------------------------------------
Name                     Type                      Size  Value                             
-------------------------------------------------------------------------------------------
regmodel                 cfs_aligner_regs          -     @367                              
  ctrl                   cfs_aligner_regs__ctrl    -     @370                              
    size                 uvm_reg_field             ...    RW ctrl[2:0]=3'h1                
    reserved0            uvm_reg_field             ...    RO ctrl[7:3]=5'h00               
    offset               uvm_reg_field             ...    RW ctrl[9:8]=2'h0                
    reserved1            uvm_reg_field             ...    RO ctrl[15:10]=6'h00             
    clr                  uvm_reg_field             ...    WO ctrl[16:16]=1'h0              
    reserved2            uvm_reg_field             ...    RO ctrl[31:17]=15'h0000          
  status                 cfs_aligner_regs__status  -     @378                              
    cnt_drop             uvm_reg_field             ...    RO status[7:0]=8'h00             
    rx_lvl               uvm_reg_field             ...    RO status[11:8]=4'h0             
    reserved0            uvm_reg_field             ...    RO status[15:12]=4'h0            
    tx_lvl               uvm_reg_field             ...    RO status[19:16]=4'h0            
    reserved1            uvm_reg_field             ...    RO status[31:20]=12'h000         
  irqen                  cfs_aligner_regs__irqen   -     @385                              
    rx_fifo_empty        uvm_reg_field             ...    RW irqen[0:0]=1'h1               
    rx_fifo_full         uvm_reg_field             ...    RW irqen[1:1]=1'h1               
    tx_fifo_empty        uvm_reg_field             ...    RW irqen[2:2]=1'h1               
    tx_fifo_full         uvm_reg_field             ...    RW irqen[3:3]=1'h1               
    max_drop             uvm_reg_field             ...    RW irqen[4:4]=1'h1               
    reserved             uvm_reg_field             ...    RO irqen[31:5]=27'h0000000       
  irq                    cfs_aligner_regs__irq     -     @393                              
    rx_fifo_empty        uvm_reg_field             ...    W1C irq[0:0]=1'h0                
    rx_fifo_full         uvm_reg_field             ...    W1C irq[1:1]=1'h0                
    tx_fifo_empty        uvm_reg_field             ...    W1C irq[2:2]=1'h0                
    tx_fifo_full         uvm_reg_field             ...    W1C irq[3:3]=1'h0                
    max_drop             uvm_reg_field             ...    W1C irq[4:4]=1'h0                
    reserved             uvm_reg_field             ...    RO irq[31:5]=27'h0000000         
  reg_map                uvm_reg_map               -     @369                              
    endian                                         ...   UVM_NO_ENDIAN                     
    effective sequencer  apb_sequencer             ...   uvm_test_top.env.apb_agt.sequencer
    ctrl                 cfs_aligner_regs__ctrl    ...   @370 +'h0                         
    status               cfs_aligner_regs__status  ...   @378 +'hc                         
    irqen                cfs_aligner_regs__irqen   ...   @385 +'hf0                        
    irq                  cfs_aligner_regs__irq     ...   @393 +'hf4                        
-------------------------------------------------------------------------------------------
UVM_INFO test_general.sv(316) @ 0: uvm_test_top [test_general] 
==================================================
  TEST GENERAL CONFIGURATION
==================================================
  SEMILLA            = 337365400
  TEST_MODE          = MD_ONLY
  APB_NUM_TRANS      = 337
  MD_NUM_PKTS        = 212
  MD_PESO_LEGAL      = 71%
  CTRL_SIZE          = 1
  CTRL_OFFSET        = 0
  MD_PATRON          = RANDOM
  TIMEOUT_MS         = 472
==================================================
UVM_INFO tb_top.sv(116) @ 190000: reporter [TB_TOP] Reset deasserted
UVM_INFO md_componentes.sv(31) @ 210000: uvm_test_top.env.rx_agt.driver [RX_DRV] Reset liberado
UVM_INFO scoreboard.sv(127) @ 270000: uvm_test_top.env.sb [scoreboard] Config actualizada: offset=0 size=1 (pending_bytes=0 flushed)
UVM_INFO test_general.sv(118) @ 270000: uvm_test_top [test_general] CTRL configurado: size=1 offset=0
UVM_INFO test_general.sv(131) @ 350000: uvm_test_top [test_general] IRQEN configurado (todas las interrupciones habilitadas)
UVM_INFO test_general.sv(144) @ 350000: uvm_test_top [test_general] Drenando pipeline del DUT...
UVM_INFO test_general.sv(154) @ 430000: uvm_test_top [test_general] Pipeline drenado OK
UVM_INFO scoreboard.sv(122) @ 430000: uvm_test_top.env.sb [scoreboard] Scoreboard ARMADO — verificación activa
UVM_INFO test_general.sv(251) @ 430000: uvm_test_top [test_general] Iniciando MD: 150 legales, 62 ilegales, patrón=RANDOM
UVM_INFO scoreboard.sv(143) @ 450000: uvm_test_top.env.sb [scoreboard] [RX] #1: data=0x5ee83f1f off=2 size=2 err=0 should_drop=0
UVM_INFO md_componentes.sv(41) @ 470000: uvm_test_top.env.rx_agt.driver [RX_DRV] [RX] data=0x5ee83f1f offset=2 size=2 valid=1 err=1
UVM_INFO md_sequences.sv(127) @ 470000: uvm_test_top.env.rx_agt.sequencer@@rx_seq [rx_mixed_seq] Enviado LEGAL: off=2 size=2 data=0x5ee83f1f
UVM_INFO md_componentes.sv(229) @ 490000: uvm_test_top.env.irq_mon [IRQ_MON] [IRQ] @ 490000
UVM_INFO scoreboard.sv(223) @ 490000: uvm_test_top.env.sb [scoreboard] [IRQ #1] @ 490000
UVM_INFO scoreboard.sv(187) @ 510000: uvm_test_top.env.sb [scoreboard] [TX] data=0x000000e8 off=0 size=1
UVM_INFO scoreboard.sv(214) @ 510000: uvm_test_top.env.sb [scoreboard] TX MATCH OK: data=0x000000e8 size=1
UVM_INFO md_componentes.sv(41) @ 510000: uvm_test_top.env.rx_agt.driver [RX_DRV] [RX] data=0xc039fd02 offset=0 size=3 valid=0 err=0
UVM_INFO md_sequences.sv(144) @ 510000: uvm_test_top.env.rx_agt.sequencer@@rx_seq [rx_mixed_seq] Enviado ILEGAL: off=0 size=3 data=0xc039fd02
UVM_INFO scoreboard.sv(187) @ 530000: uvm_test_top.env.sb [scoreboard] [TX] data=0x0000005e off=0 size=1
UVM_INFO scoreboard.sv(214) @ 530000: uvm_test_top.env.sb [scoreboard] TX MATCH OK: data=0x0000005e size=1
UVM_INFO md_componentes.sv(229) @ 550000: uvm_test_top.env.irq_mon [IRQ_MON] [IRQ] @ 550000
UVM_INFO scoreboard.sv(223) @ 550000: uvm_test_top.env.sb [scoreboard] [IRQ #2] @ 550000
UVM_INFO scoreboard.sv(143) @ 550000: uvm_test_top.env.sb [scoreboard] [RX] #2: data=0x574a1fa0 off=2 size=1 err=0 should_drop=0
UVM_INFO md_componentes.sv(41) @ 570000: uvm_test_top.env.rx_agt.driver [RX_DRV] [RX] data=0x574a1fa0 offset=2 size=1 valid=1 err=1
UVM_INFO md_sequences.sv(127) @ 570000: uvm_test_top.env.rx_agt.sequencer@@rx_seq [rx_mixed_seq] Enviado LEGAL: off=2 size=1 data=0x574a1fa0
UVM_INFO md_componentes.sv(229) @ 590000: uvm_test_top.env.irq_mon [IRQ_MON] [IRQ] @ 590000
UVM_INFO scoreboard.sv(223) @ 590000: uvm_test_top.env.sb [scoreboard] [IRQ #3] @ 590000
UVM_INFO scoreboard.sv(143) @ 610000: uvm_test_top.env.sb [scoreboard] [RX] #3: data=0x1ae00e4b off=2 size=3 err=0 should_drop=0
UVM_INFO scoreboard.sv(187) @ 610000: uvm_test_top.env.sb [scoreboard] [TX] data=0x0000004a off=0 size=1
UVM_INFO scoreboard.sv(214) @ 610000: uvm_test_top.env.sb [scoreboard] TX MATCH OK: data=0x0000004a size=1
UVM_INFO md_componentes.sv(229) @ 630000: uvm_test_top.env.irq_mon [IRQ_MON] [IRQ] @ 630000
UVM_INFO scoreboard.sv(223) @ 630000: uvm_test_top.env.sb [scoreboard] [IRQ #4] @ 630000
UVM_INFO md_componentes.sv(41) @ 630000: uvm_test_top.env.rx_agt.driver [RX_DRV] [RX] data=0x1ae00e4b offset=2 size=3 valid=1 err=0
UVM_INFO md_sequences.sv(127) @ 630000: uvm_test_top.env.rx_agt.sequencer@@rx_seq [rx_mixed_seq] Enviado LEGAL: off=2 size=3 data=0x1ae00e4b
UVM_INFO scoreboard.sv(143) @ 670000: uvm_test_top.env.sb [scoreboard] [RX] #4: data=0x83e1e540 off=0 size=1 err=0 should_drop=0
UVM_INFO scoreboard.sv(187) @ 670000: uvm_test_top.env.sb [scoreboard] [TX] data=0x000000e0 off=0 size=1
UVM_INFO scoreboard.sv(214) @ 670000: uvm_test_top.env.sb [scoreboard] TX MATCH OK: data=0x000000e0 size=1
UVM_INFO scoreboard.sv(187) @ 690000: uvm_test_top.env.sb [scoreboard] [TX] data=0x0000001a off=0 size=1
UVM_INFO scoreboard.sv(214) @ 690000: uvm_test_top.env.sb [scoreboard] TX MATCH OK: data=0x0000001a size=1
UVM_INFO md_componentes.sv(41) @ 690000: uvm_test_top.env.rx_agt.driver [RX_DRV] [RX] data=0x83e1e540 offset=0 size=1 valid=1 err=1
UVM_INFO md_sequences.sv(127) @ 690000: uvm_test_top.env.rx_agt.sequencer@@rx_seq [rx_mixed_seq] Enviado LEGAL: off=0 size=1 data=0x83e1e540
UVM_INFO md_componentes.sv(229) @ 710000: uvm_test_top.env.irq_mon [IRQ_MON] [IRQ] @ 710000
UVM_INFO scoreboard.sv(223) @ 710000: uvm_test_top.env.sb [scoreboard] [IRQ #5] @ 710000
UVM_INFO scoreboard.sv(187) @ 710000: uvm_test_top.env.sb [scoreboard] [TX] data=0x00000000 off=0 size=1
UVM_ERROR scoreboard.sv(202) @ 710000: uvm_test_top.env.sb [scoreboard] TX DATA MISMATCH:
  Esperado: 0x00000040 (size=1)
  Recibido: 0x00000000 (size=1)
UVM_INFO scoreboard.sv(143) @ 730000: uvm_test_top.env.sb [scoreboard] [RX] #5: data=0xc2087db9 off=3 size=2 err=1 should_drop=1
UVM_INFO scoreboard.sv(156) @ 730000: uvm_test_top.env.sb [scoreboard] DROP OK: RX#5 off=3 size=2
UVM_INFO scoreboard.sv(187) @ 730000: uvm_test_top.env.sb [scoreboard] [TX] data=0x00000040 off=0 size=1
UVM_WARNING scoreboard.sv(193) @ 730000: uvm_test_top.env.sb [scoreboard] TX sin esperado en cola (residual de cambio CTRL): data=0x00000040 size=1 — ignorado
UVM_INFO md_componentes.sv(229) @ 750000: uvm_test_top.env.irq_mon [IRQ_MON] [IRQ] @ 750000
UVM_INFO scoreboard.sv(223) @ 750000: uvm_test_top.env.sb [scoreboard] [IRQ #6] @ 750000
UVM_INFO md_componentes.sv(41) @ 750000: uvm_test_top.env.rx_agt.driver [RX_DRV] [RX] data=0xc2087db9 offset=3 size=2 valid=1 err=0
UVM_INFO md_sequences.sv(144) @ 750000: uvm_test_top.env.rx_agt.sequencer@@rx_seq [rx_mixed_seq] Enviado ILEGAL: off=3 size=2 data=0xc2087db9
UVM_INFO scoreboard.sv(143) @ 790000: uvm_test_top.env.sb [scoreboard] [RX] #6: data=0x495aa426 off=2 size=3 err=0 should_drop=0
UVM_INFO md_componentes.sv(41) @ 810000: uvm_test_top.env.rx_agt.driver [RX_DRV] [RX] data=0x495aa426 offset=2 size=3 valid=1 err=0
UVM_INFO md_sequences.sv(127) @ 810000: uvm_test_top.env.rx_agt.sequencer@@rx_seq [rx_mixed_seq] Enviado LEGAL: off=2 size=3 data=0x495aa426
UVM_INFO md_componentes.sv(229) @ 830000: uvm_test_top.env.irq_mon [IRQ_MON] [IRQ] @ 830000
UVM_INFO scoreboard.sv(223) @ 830000: uvm_test_top.env.sb [scoreboard] [IRQ #7] @ 830000
UVM_INFO scoreboard.sv(143) @ 850000: uvm_test_top.env.sb [scoreboard] [RX] #7: data=0x58d852f4 off=0 size=2 err=0 should_drop=0
UVM_INFO scoreboard.sv(187) @ 850000: uvm_test_top.env.sb [scoreboard] [TX] data=0x0000005a off=0 size=1
UVM_INFO scoreboard.sv(214) @ 850000: uvm_test_top.env.sb [scoreboard] TX MATCH OK: data=0x0000005a size=1
UVM_INFO scoreboard.sv(187) @ 870000: uvm_test_top.env.sb [scoreboard] [TX] data=0x00000049 off=0 size=1
UVM_INFO scoreboard.sv(214) @ 870000: uvm_test_top.env.sb [scoreboard] TX MATCH OK: data=0x00000049 size=1
UVM_INFO md_componentes.sv(41) @ 870000: uvm_test_top.env.rx_agt.driver [RX_DRV] [RX] data=0x58d852f4 offset=0 size=2 valid=1 err=0
UVM_INFO md_sequences.sv(127) @ 870000: uvm_test_top.env.rx_agt.sequencer@@rx_seq [rx_mixed_seq] Enviado LEGAL: off=0 size=2 data=0x58d852f4
UVM_INFO md_componentes.sv(229) @ 890000: uvm_test_top.env.irq_mon [IRQ_MON] [IRQ] @ 890000
UVM_INFO scoreboard.sv(223) @ 890000: uvm_test_top.env.sb [scoreboard] [IRQ #8] @ 890000
UVM_INFO scoreboard.sv(187) @ 890000: uvm_test_top.env.sb [scoreboard] [TX] data=0x00000000 off=0 size=1
UVM_ERROR scoreboard.sv(202) @ 890000: uvm_test_top.env.sb [scoreboard] TX DATA MISMATCH:
  Esperado: 0x000000f4 (size=1)
  Recibido: 0x00000000 (size=1)
UVM_INFO scoreboard.sv(143) @ 910000: uvm_test_top.env.sb [scoreboard] [RX] #8: data=0xd9ebbaab off=0 size=1 err=0 should_drop=0
UVM_INFO scoreboard.sv(187) @ 910000: uvm_test_top.env.sb [scoreboard] [TX] data=0x000000f4 off=0 size=1
UVM_ERROR scoreboard.sv(202) @ 910000: uvm_test_top.env.sb [scoreboard] TX DATA MISMATCH:
  Esperado: 0x00000052 (size=1)
  Recibido: 0x000000f4 (size=1)
UVM_INFO scoreboard.sv(187) @ 930000: uvm_test_top.env.sb [scoreboard] [TX] data=0x00000052 off=0 size=1
UVM_ERROR scoreboard.sv(202) @ 930000: uvm_test_top.env.sb [scoreboard] TX DATA MISMATCH:
  Esperado: 0x000000ab (size=1)
  Recibido: 0x00000052 (size=1)
UVM_INFO md_componentes.sv(41) @ 930000: uvm_test_top.env.rx_agt.driver [RX_DRV] [RX] data=0xd9ebbaab offset=0 size=1 valid=1 err=0
UVM_INFO md_sequences.sv(127) @ 930000: uvm_test_top.env.rx_agt.sequencer@@rx_seq [rx_mixed_seq] Enviado LEGAL: off=0 size=1 data=0xd9ebbaab
UVM_INFO md_componentes.sv(229) @ 950000: uvm_test_top.env.irq_mon [IRQ_MON] [IRQ] @ 950000
UVM_INFO scoreboard.sv(223) @ 950000: uvm_test_top.env.sb [scoreboard] [IRQ #9] @ 950000
UVM_INFO scoreboard.sv(143) @ 970000: uvm_test_top.env.sb [scoreboard] [RX] #9: data=0x77a00164 off=1 size=4 err=1 should_drop=1
UVM_INFO scoreboard.sv(156) @ 970000: uvm_test_top.env.sb [scoreboard] DROP OK: RX#9 off=1 size=4
UVM_INFO scoreboard.sv(187) @ 970000: uvm_test_top.env.sb [scoreboard] [TX] data=0x000000ab off=0 size=1
UVM_WARNING scoreboard.sv(193) @ 970000: uvm_test_top.env.sb [scoreboard] TX sin esperado en cola (residual de cambio CTRL): data=0x000000ab size=1 — ignorado
UVM_INFO md_componentes.sv(229) @ 990000: uvm_test_top.env.irq_mon [IRQ_MON] [IRQ] @ 990000
UVM_INFO scoreboard.sv(223) @ 990000: uvm_test_top.env.sb [scoreboard] [IRQ #10] @ 990000
UVM_INFO md_componentes.sv(41) @ 990000: uvm_test_top.env.rx_agt.driver [RX_DRV] [RX] data=0x77a00164 offset=1 size=4 valid=1 err=0
UVM_INFO md_sequences.sv(144) @ 990000: uvm_test_top.env.rx_agt.sequencer@@rx_seq [rx_mixed_seq] Enviado ILEGAL: off=1 size=4 data=0x77a00164
UVM_INFO scoreboard.sv(143) @ 1030000: uvm_test_top.env.sb [scoreboard] [RX] #10: data=0xbf41f4e4 off=2 size=2 err=0 should_drop=0
UVM_INFO md_componentes.sv(41) @ 1050000: uvm_test_top.env.rx_agt.driver [RX_DRV] [RX] data=0xbf41f4e4 offset=2 size=2 valid=1 err=1
UVM_INFO md_sequences.sv(127) @ 1050000: uvm_test_top.env.rx_agt.sequencer@@rx_seq [rx_mixed_seq] Enviado LEGAL: off=2 size=2 data=0xbf41f4e4
UVM_INFO md_componentes.sv(229) @ 1070000: uvm_test_top.env.irq_mon [IRQ_MON] [IRQ] @ 1070000
UVM_INFO scoreboard.sv(223) @ 1070000: uvm_test_top.env.sb [scoreboard] [IRQ #11] @ 1070000
UVM_INFO scoreboard.sv(143) @ 1090000: uvm_test_top.env.sb [scoreboard] [RX] #11: data=0xd46b0b5d off=2 size=2 err=0 should_drop=0
UVM_INFO scoreboard.sv(187) @ 1090000: uvm_test_top.env.sb [scoreboard] [TX] data=0x00000041 off=0 size=1
UVM_INFO scoreboard.sv(214) @ 1090000: uvm_test_top.env.sb [scoreboard] TX MATCH OK: data=0x00000041 size=1
UVM_INFO scoreboard.sv(187) @ 1110000: uvm_test_top.env.sb [scoreboard] [TX] data=0x000000bf off=0 size=1
UVM_INFO scoreboard.sv(214) @ 1110000: uvm_test_top.env.sb [scoreboard] TX MATCH OK: data=0x000000bf size=1
UVM_INFO md_componentes.sv(41) @ 1110000: uvm_test_top.env.rx_agt.driver [RX_DRV] [RX] data=0xd46b0b5d offset=2 size=2 valid=1 err=0
UVM_INFO md_sequences.sv(127) @ 1110000: uvm_test_top.env.rx_agt.sequencer@@rx_seq [rx_mixed_seq] Enviado LEGAL: off=2 size=2 data=0xd46b0b5d
UVM_INFO md_componentes.sv(229) @ 1130000: uvm_test_top.env.irq_mon [IRQ_MON] [IRQ] @ 1130000
UVM_INFO scoreboard.sv(223) @ 1130000: uvm_test_top.env.sb [scoreboard] [IRQ #12] @ 1130000
UVM_INFO scoreboard.sv(143) @ 1150000: uvm_test_top.env.sb [scoreboard] [RX] #12: data=0xa9b4e799 off=0 size=4 err=0 should_drop=0
UVM_INFO scoreboard.sv(187) @ 1150000: uvm_test_top.env.sb [scoreboard] [TX] data=0x0000006b off=0 size=1
UVM_INFO scoreboard.sv(214) @ 1150000: uvm_test_top.env.sb [scoreboard] TX MATCH OK: data=0x0000006b size=1
UVM_INFO scoreboard.sv(187) @ 1170000: uvm_test_top.env.sb [scoreboard] [TX] data=0x000000d4 off=0 size=1
UVM_INFO scoreboard.sv(214) @ 1170000: uvm_test_top.env.sb [scoreboard] TX MATCH OK: data=0x000000d4 size=1
UVM_INFO md_componentes.sv(41) @ 1170000: uvm_test_top.env.rx_agt.driver [RX_DRV] [RX] data=0xa9b4e799 offset=0 size=4 valid=1 err=0
UVM_INFO md_sequences.sv(127) @ 1170000: uvm_test_top.env.rx_agt.sequencer@@rx_seq [rx_mixed_seq] Enviado LEGAL: off=0 size=4 data=0xa9b4e799
UVM_INFO md_componentes.sv(229) @ 1190000: uvm_test_top.env.irq_mon [IRQ_MON] [IRQ] @ 1190000
UVM_INFO scoreboard.sv(223) @ 1190000: uvm_test_top.env.sb [scoreboard] [IRQ #13] @ 1190000
UVM_INFO scoreboard.sv(143) @ 1210000: uvm_test_top.env.sb [scoreboard] [RX] #13: data=0xbac6406d off=2 size=1 err=0 should_drop=0
UVM_INFO scoreboard.sv(187) @ 1210000: uvm_test_top.env.sb [scoreboard] [TX] data=0x00000099 off=0 size=1
UVM_INFO scoreboard.sv(214) @ 1210000: uvm_test_top.env.sb [scoreboard] TX MATCH OK: data=0x00000099 size=1
UVM_INFO scoreboard.sv(187) @ 1230000: uvm_test_top.env.sb [scoreboard] [TX] data=0x000000e7 off=0 size=1
UVM_INFO scoreboard.sv(214) @ 1230000: uvm_test_top.env.sb [scoreboard] TX MATCH OK: data=0x000000e7 size=1
UVM_INFO md_componentes.sv(41) @ 1230000: uvm_test_top.env.rx_agt.driver [RX_DRV] [RX] data=0xbac6406d offset=2 size=1 valid=1 err=0
UVM_INFO md_sequences.sv(127) @ 1230000: uvm_test_top.env.rx_agt.sequencer@@rx_seq [rx_mixed_seq] Enviado LEGAL: off=2 size=1 data=0xbac6406d
UVM_INFO scoreboard.sv(187) @ 1250000: uvm_test_top.env.sb [scoreboard] [TX] data=0x000000b4 off=0 size=1
UVM_INFO scoreboard.sv(214) @ 1250000: uvm_test_top.env.sb [scoreboard] TX MATCH OK: data=0x000000b4 size=1
UVM_INFO md_componentes.sv(229) @ 1270000: uvm_test_top.env.irq_mon [IRQ_MON] [IRQ] @ 1270000
UVM_INFO scoreboard.sv(223) @ 1270000: uvm_test_top.env.sb [scoreboard] [IRQ #14] @ 1270000
UVM_INFO scoreboard.sv(143) @ 1270000: uvm_test_top.env.sb [scoreboard] [RX] #14: data=0xad86ec87 off=2 size=4 err=1 should_drop=1
UVM_INFO scoreboard.sv(156) @ 1270000: uvm_test_top.env.sb [scoreboard] DROP OK: RX#14 off=2 size=4
UVM_INFO scoreboard.sv(187) @ 1270000: uvm_test_top.env.sb [scoreboard] [TX] data=0x000000a9 off=0 size=1
UVM_INFO scoreboard.sv(214) @ 1270000: uvm_test_top.env.sb [scoreboard] TX MATCH OK: data=0x000000a9 size=1
UVM_INFO scoreboard.sv(187) @ 1290000: uvm_test_top.env.sb [scoreboard] [TX] data=0x000000c6 off=0 size=1
UVM_INFO scoreboard.sv(214) @ 1290000: uvm_test_top.env.sb [scoreboard] TX MATCH OK: data=0x000000c6 size=1
UVM_INFO md_componentes.sv(41) @ 1290000: uvm_test_top.env.rx_agt.driver [RX_DRV] [RX] data=0xad86ec87 offset=2 size=4 valid=1 err=0
UVM_INFO md_sequences.sv(144) @ 1290000: uvm_test_top.env.rx_agt.sequencer@@rx_seq [rx_mixed_seq] Enviado ILEGAL: off=2 size=4 data=0xad86ec87
UVM_INFO md_componentes.sv(229) @ 1310000: uvm_test_top.env.irq_mon [IRQ_MON] [IRQ] @ 1310000
UVM_INFO scoreboard.sv(223) @ 1310000: uvm_test_top.env.sb [scoreboard] [IRQ #15] @ 1310000
UVM_INFO scoreboard.sv(143) @ 1330000: uvm_test_top.env.sb [scoreboard] [RX] #15: data=0x13e862af off=2 size=4 err=1 should_drop=1
UVM_INFO scoreboard.sv(156) @ 1330000: uvm_test_top.env.sb [scoreboard] DROP OK: RX#15 off=2 size=4
UVM_INFO md_componentes.sv(41) @ 1350000: uvm_test_top.env.rx_agt.driver [RX_DRV] [RX] data=0x13e862af offset=2 size=4 valid=1 err=1
UVM_INFO md_sequences.sv(144) @ 1350000: uvm_test_top.env.rx_agt.sequencer@@rx_seq [rx_mixed_seq] Enviado ILEGAL: off=2 size=4 data=0x13e862af
UVM_INFO scoreboard.sv(143) @ 1390000: uvm_test_top.env.sb [scoreboard] [RX] #16: data=0x2f29d77e off=3 size=3 err=1 should_drop=1
UVM_INFO scoreboard.sv(156) @ 1390000: uvm_test_top.env.sb [scoreboard] DROP OK: RX#16 off=3 size=3
UVM_INFO md_componentes.sv(41) @ 1410000: uvm_test_top.env.rx_agt.driver [RX_DRV] [RX] data=0x2f29d77e offset=3 size=3 valid=1 err=0
UVM_INFO md_sequences.sv(144) @ 1410000: uvm_test_top.env.rx_agt.sequencer@@rx_seq [rx_mixed_seq] Enviado ILEGAL: off=3 size=3 data=0x2f29d77e
UVM_INFO scoreboard.sv(143) @ 1450000: uvm_test_top.env.sb [scoreboard] [RX] #17: data=0xdee7a33c off=2 size=2 err=0 should_drop=0
UVM_INFO md_componentes.sv(41) @ 1470000: uvm_test_top.env.rx_agt.driver [RX_DRV] [RX] data=0xdee7a33c offset=2 size=2 valid=1 err=1
UVM_INFO md_sequences.sv(127) @ 1470000: uvm_test_top.env.rx_agt.sequencer@@rx_seq [rx_mixed_seq] Enviado LEGAL: off=2 size=2 data=0xdee7a33c
UVM_INFO md_componentes.sv(229) @ 1490000: uvm_test_top.env.irq_mon [IRQ_MON] [IRQ] @ 1490000
UVM_INFO scoreboard.sv(223) @ 1490000: uvm_test_top.env.sb [scoreboard] [IRQ #16] @ 1490000
UVM_INFO scoreboard.sv(143) @ 1510000: uvm_test_top.env.sb [scoreboard] [RX] #18: data=0x1d489b8d off=1 size=4 err=1 should_drop=1
UVM_INFO scoreboard.sv(156) @ 1510000: uvm_test_top.env.sb [scoreboard] DROP OK: RX#18 off=1 size=4
UVM_INFO scoreboard.sv(187) @ 1510000: uvm_test_top.env.sb [scoreboard] [TX] data=0x000000e7 off=0 size=1
UVM_INFO scoreboard.sv(214) @ 1510000: uvm_test_top.env.sb [scoreboard] TX MATCH OK: data=0x000000e7 size=1
UVM_INFO scoreboard.sv(187) @ 1530000: uvm_test_top.env.sb [scoreboard] [TX] data=0x000000de off=0 size=1
UVM_INFO scoreboard.sv(214) @ 1530000: uvm_test_top.env.sb [scoreboard] TX MATCH OK: data=0x000000de size=1
UVM_INFO md_componentes.sv(41) @ 1530000: uvm_test_top.env.rx_agt.driver [RX_DRV] [RX] data=0x1d489b8d offset=1 size=4 valid=1 err=0
UVM_INFO md_sequences.sv(144) @ 1530000: uvm_test_top.env.rx_agt.sequencer@@rx_seq [rx_mixed_seq] Enviado ILEGAL: off=1 size=4 data=0x1d489b8d
UVM_INFO md_componentes.sv(229) @ 1550000: uvm_test_top.env.irq_mon [IRQ_MON] [IRQ] @ 1550000
UVM_INFO scoreboard.sv(223) @ 1550000: uvm_test_top.env.sb [scoreboard] [IRQ #17] @ 1550000
UVM_INFO scoreboard.sv(143) @ 1570000: uvm_test_top.env.sb [scoreboard] [RX] #19: data=0xf17cd786 off=0 size=1 err=0 should_drop=0
UVM_INFO md_componentes.sv(41) @ 1590000: uvm_test_top.env.rx_agt.driver [RX_DRV] [RX] data=0xf17cd786 offset=0 size=1 valid=1 err=0
UVM_INFO md_sequences.sv(127) @ 1590000: uvm_test_top.env.rx_agt.sequencer@@rx_seq [rx_mixed_seq] Enviado LEGAL: off=0 size=1 data=0xf17cd786
UVM_INFO md_componentes.sv(229) @ 1610000: uvm_test_top.env.irq_mon [IRQ_MON] [IRQ] @ 1610000
UVM_INFO scoreboard.sv(223) @ 1610000: uvm_test_top.env.sb [scoreboard] [IRQ #18] @ 1610000
UVM_INFO scoreboard.sv(143) @ 1630000: uvm_test_top.env.sb [scoreboard] [RX] #20: data=0xf10dd993 off=0 size=4 err=0 should_drop=0
UVM_INFO scoreboard.sv(187) @ 1630000: uvm_test_top.env.sb [scoreboard] [TX] data=0x00000086 off=0 size=1
UVM_INFO scoreboard.sv(214) @ 1630000: uvm_test_top.env.sb [scoreboard] TX MATCH OK: data=0x00000086 size=1
UVM_INFO md_componentes.sv(229) @ 1650000: uvm_test_top.env.irq_mon [IRQ_MON] [IRQ] @ 1650000
UVM_INFO scoreboard.sv(223) @ 1650000: uvm_test_top.env.sb [scoreboard] [IRQ #19] @ 1650000
UVM_INFO md_componentes.sv(41) @ 1650000: uvm_test_top.env.rx_agt.driver [RX_DRV] [RX] data=0xf10dd993 offset=0 size=4 valid=1 err=0
UVM_INFO md_sequences.sv(127) @ 1650000: uvm_test_top.env.rx_agt.sequencer@@rx_seq [rx_mixed_seq] Enviado LEGAL: off=0 size=4 data=0xf10dd993
UVM_INFO scoreboard.sv(143) @ 1690000: uvm_test_top.env.sb [scoreboard] [RX] #21: data=0x47e9f11f off=3 size=1 err=0 should_drop=0
UVM_INFO scoreboard.sv(187) @ 1690000: uvm_test_top.env.sb [scoreboard] [TX] data=0x00000093 off=0 size=1
UVM_INFO scoreboard.sv(214) @ 1690000: uvm_test_top.env.sb [scoreboard] TX MATCH OK: data=0x00000093 size=1
UVM_INFO scoreboard.sv(187) @ 1710000: uvm_test_top.env.sb [scoreboard] [TX] data=0x000000d9 off=0 size=1
UVM_INFO scoreboard.sv(214) @ 1710000: uvm_test_top.env.sb [scoreboard] TX MATCH OK: data=0x000000d9 size=1
UVM_INFO md_componentes.sv(41) @ 1710000: uvm_test_top.env.rx_agt.driver [RX_DRV] [RX] data=0x47e9f11f offset=3 size=1 valid=1 err=0
UVM_INFO md_sequences.sv(127) @ 1710000: uvm_test_top.env.rx_agt.sequencer@@rx_seq [rx_mixed_seq] Enviado LEGAL: off=3 size=1 data=0x47e9f11f
UVM_INFO scoreboard.sv(187) @ 1730000: uvm_test_top.env.sb [scoreboard] [TX] data=0x0000000d off=0 size=1
UVM_INFO scoreboard.sv(214) @ 1730000: uvm_test_top.env.sb [scoreboard] TX MATCH OK: data=0x0000000d size=1
UVM_INFO md_componentes.sv(229) @ 1750000: uvm_test_top.env.irq_mon [IRQ_MON] [IRQ] @ 1750000
UVM_INFO scoreboard.sv(223) @ 1750000: uvm_test_top.env.sb [scoreboard] [IRQ #20] @ 1750000
UVM_INFO scoreboard.sv(143) @ 1750000: uvm_test_top.env.sb [scoreboard] [RX] #22: data=0xb90f9e5d off=2 size=1 err=0 should_drop=0
UVM_INFO scoreboard.sv(187) @ 1750000: uvm_test_top.env.sb [scoreboard] [TX] data=0x000000f1 off=0 size=1
UVM_INFO scoreboard.sv(214) @ 1750000: uvm_test_top.env.sb [scoreboard] TX MATCH OK: data=0x000000f1 size=1
