logs/failed_test_1.log
Chronologic VCS simulator copyright 1991-2020
Contains Synopsys proprietary information.
Compiler version R-2020.12-SP2; Runtime version R-2020.12-SP2;  Jun  8 22:35 2026
UVM_INFO /mnt/vol_NFS_rh003/tools/vcs/R-2020.12-SP2/etc/uvm-1.2/base/uvm_root.svh(402) @ 0: reporter [UVM/RELNOTES] 
----------------------------------------------------------------
UVM-1.2.Synopsys
(C) 2007-2014 Mentor Graphics Corporation
(C) 2007-2014 Cadence Design Systems, Inc.
(C) 2006-2014 Synopsys, Inc.
(C) 2011-2013 Cypress Semiconductor Corp.
(C) 2013-2014 NVIDIA Corporation
----------------------------------------------------------------

  ***********       IMPORTANT RELEASE NOTES         ************

  You are using a version of the UVM library that has been compiled
  with `UVM_NO_DEPRECATED undefined.
  See http://www.eda.org/svdb/view.php?id=3313 for more details.

  You are using a version of the UVM library that has been compiled
  with `UVM_OBJECT_DO_NOT_NEED_CONSTRUCTOR undefined.
  See http://www.eda.org/svdb/view.php?id=3770 for more details.

      (Specify +UVM_NO_RELNOTES to turn off this notice)

UVM_INFO tb_top.sv(133) @ 0: reporter [TB_TOP] All interfaces set in config_db
UVM_INFO tb_top.sv(146) @ 0: reporter [TB_TOP] RAL model created and set in config_db
UVM_INFO @ 0: reporter [RNTST] Running test test_general...
UVM_INFO aligner_env.sv(74) @ 0: uvm_test_top.env [aligner_env] Environment connected
UVM_INFO aligner_env.sv(78) @ 0: uvm_test_top.env [aligner_env] Simulation started
-------------------------------------------------------------------------------------------
Name                     Type                      Size  Value                             
-------------------------------------------------------------------------------------------
regmodel                 cfs_aligner_regs          -     @367                              
  ctrl                   cfs_aligner_regs__ctrl    -     @370                              
    size                 uvm_reg_field             ...    RW ctrl[2:0]=3'h1                
    reserved0            uvm_reg_field             ...    RO ctrl[7:3]=5'h00               
    offset               uvm_reg_field             ...    RW ctrl[9:8]=2'h0                
    reserved1            uvm_reg_field             ...    RO ctrl[15:10]=6'h00             
    clr                  uvm_reg_field             ...    WO ctrl[16:16]=1'h0              
    reserved2            uvm_reg_field             ...    RO ctrl[31:17]=15'h0000          
  status                 cfs_aligner_regs__status  -     @378                              
    cnt_drop             uvm_reg_field             ...    RO status[7:0]=8'h00             
    rx_lvl               uvm_reg_field             ...    RO status[11:8]=4'h0             
    reserved0            uvm_reg_field             ...    RO status[15:12]=4'h0            
    tx_lvl               uvm_reg_field             ...    RO status[19:16]=4'h0            
    reserved1            uvm_reg_field             ...    RO status[31:20]=12'h000         
  irqen                  cfs_aligner_regs__irqen   -     @385                              
    rx_fifo_empty        uvm_reg_field             ...    RW irqen[0:0]=1'h1               
    rx_fifo_full         uvm_reg_field             ...    RW irqen[1:1]=1'h1               
    tx_fifo_empty        uvm_reg_field             ...    RW irqen[2:2]=1'h1               
    tx_fifo_full         uvm_reg_field             ...    RW irqen[3:3]=1'h1               
    max_drop             uvm_reg_field             ...    RW irqen[4:4]=1'h1               
    reserved             uvm_reg_field             ...    RO irqen[31:5]=27'h0000000       
  irq                    cfs_aligner_regs__irq     -     @393                              
    rx_fifo_empty        uvm_reg_field             ...    W1C irq[0:0]=1'h0                
    rx_fifo_full         uvm_reg_field             ...    W1C irq[1:1]=1'h0                
    tx_fifo_empty        uvm_reg_field             ...    W1C irq[2:2]=1'h0                
    tx_fifo_full         uvm_reg_field             ...    W1C irq[3:3]=1'h0                
    max_drop             uvm_reg_field             ...    W1C irq[4:4]=1'h0                
    reserved             uvm_reg_field             ...    RO irq[31:5]=27'h0000000         
  reg_map                uvm_reg_map               -     @369                              
    endian                                         ...   UVM_NO_ENDIAN                     
    effective sequencer  apb_sequencer             ...   uvm_test_top.env.apb_agt.sequencer
    ctrl                 cfs_aligner_regs__ctrl    ...   @370 +'h0                         
    status               cfs_aligner_regs__status  ...   @378 +'hc                         
    irqen                cfs_aligner_regs__irqen   ...   @385 +'hf0                        
    irq                  cfs_aligner_regs__irq     ...   @393 +'hf4                        
-------------------------------------------------------------------------------------------
UVM_INFO test_general.sv(287) @ 0: uvm_test_top [test_general] 
==================================================
  TEST GENERAL CONFIGURATION
==================================================
  SEMILLA            = 273661301
  TEST_MODE          = FULL
  APB_NUM_TRANS      = 102
  MD_NUM_PKTS        = 160
  MD_PESO_LEGAL      = 10%
  CTRL_SIZE          = 1
  CTRL_OFFSET        = 0
  MD_PATRON          = ZEROS
  TIMEOUT_MS         = 475
==================================================
UVM_INFO tb_top.sv(116) @ 190000: reporter [TB_TOP] Reset deasserted
UVM_INFO md_componentes.sv(31) @ 210000: uvm_test_top.env.rx_agt.driver [RX_DRV] Reset liberado
UVM_INFO scoreboard.sv(136) @ 270000: uvm_test_top.env.sb [scoreboard] Config actualizada: offset=0 size=1 (pending_bytes=0 → flushed)
UVM_INFO test_general.sv(120) @ 270000: uvm_test_top [test_general] CTRL configurado: size=1 offset=0
UVM_INFO test_general.sv(133) @ 350000: uvm_test_top [test_general] IRQEN configurado (todas las interrupciones habilitadas)
UVM_INFO test_general.sv(145) @ 350000: uvm_test_top [test_general] Iniciando 102 transacciones APB
UVM_INFO scoreboard.sv(136) @ 670000: uvm_test_top.env.sb [scoreboard] Config actualizada: offset=1 size=1 (pending_bytes=0 → flushed)
UVM_INFO scoreboard.sv(136) @ 830000: uvm_test_top.env.sb [scoreboard] Config actualizada: offset=3 size=1 (pending_bytes=0 → flushed)
UVM_INFO test_general.sv(241) @ 850000: uvm_test_top [test_general] Iniciando MD: 16 legales, 144 ilegales, patrón=ZEROS
UVM_INFO scoreboard.sv(148) @ 870000: uvm_test_top.env.sb [scoreboard] [RX] #1: data=0x00000000 off=0 size=3 err=1 should_drop=1
UVM_INFO scoreboard.sv(161) @ 870000: uvm_test_top.env.sb [scoreboard] DROP OK: RX#1 off=0 size=3
UVM_INFO md_componentes.sv(41) @ 890000: uvm_test_top.env.rx_agt.driver [RX_DRV] [RX] data=0x00000000 offset=0 size=3 valid=1 err=0
UVM_INFO md_sequences.sv(144) @ 890000: uvm_test_top.env.rx_agt.sequencer@@rx_seq [rx_mixed_seq] Enviado ILEGAL: off=0 size=3 data=0x00000000
UVM_INFO scoreboard.sv(136) @ 910000: uvm_test_top.env.sb [scoreboard] Config actualizada: offset=0 size=4 (pending_bytes=0 → flushed)
UVM_INFO scoreboard.sv(148) @ 930000: uvm_test_top.env.sb [scoreboard] [RX] #2: data=0x00000000 off=2 size=4 err=1 should_drop=1
UVM_INFO scoreboard.sv(161) @ 930000: uvm_test_top.env.sb [scoreboard] DROP OK: RX#2 off=2 size=4
UVM_INFO md_componentes.sv(41) @ 950000: uvm_test_top.env.rx_agt.driver [RX_DRV] [RX] data=0x00000000 offset=2 size=4 valid=1 err=1
UVM_INFO md_sequences.sv(144) @ 950000: uvm_test_top.env.rx_agt.sequencer@@rx_seq [rx_mixed_seq] Enviado ILEGAL: off=2 size=4 data=0x00000000
UVM_INFO scoreboard.sv(148) @ 990000: uvm_test_top.env.sb [scoreboard] [RX] #3: data=0x00000000 off=2 size=4 err=1 should_drop=1
UVM_INFO scoreboard.sv(161) @ 990000: uvm_test_top.env.sb [scoreboard] DROP OK: RX#3 off=2 size=4
UVM_INFO md_componentes.sv(41) @ 1010000: uvm_test_top.env.rx_agt.driver [RX_DRV] [RX] data=0x00000000 offset=2 size=4 valid=1 err=0
UVM_INFO md_sequences.sv(144) @ 1010000: uvm_test_top.env.rx_agt.sequencer@@rx_seq [rx_mixed_seq] Enviado ILEGAL: off=2 size=4 data=0x00000000
UVM_INFO scoreboard.sv(148) @ 1050000: uvm_test_top.env.sb [scoreboard] [RX] #4: data=0x00000000 off=0 size=3 err=1 should_drop=1
UVM_INFO scoreboard.sv(161) @ 1050000: uvm_test_top.env.sb [scoreboard] DROP OK: RX#4 off=0 size=3
UVM_INFO md_componentes.sv(41) @ 1070000: uvm_test_top.env.rx_agt.driver [RX_DRV] [RX] data=0x00000000 offset=0 size=3 valid=1 err=1
UVM_INFO md_sequences.sv(144) @ 1070000: uvm_test_top.env.rx_agt.sequencer@@rx_seq [rx_mixed_seq] Enviado ILEGAL: off=0 size=3 data=0x00000000
UVM_INFO scoreboard.sv(148) @ 1110000: uvm_test_top.env.sb [scoreboard] [RX] #5: data=0x00000000 off=1 size=2 err=1 should_drop=1
UVM_INFO scoreboard.sv(161) @ 1110000: uvm_test_top.env.sb [scoreboard] DROP OK: RX#5 off=1 size=2
UVM_INFO md_componentes.sv(41) @ 1130000: uvm_test_top.env.rx_agt.driver [RX_DRV] [RX] data=0x00000000 offset=1 size=2 valid=1 err=0
UVM_INFO md_sequences.sv(144) @ 1130000: uvm_test_top.env.rx_agt.sequencer@@rx_seq [rx_mixed_seq] Enviado ILEGAL: off=1 size=2 data=0x00000000
UVM_WARNING apb_componentes.sv(142) @ 1170000: uvm_test_top.env.apb_agt.driver [apb_driver] APB WRITE at addr 0x0 returned error (pslverr=1)
UVM_INFO scoreboard.sv(148) @ 1170000: uvm_test_top.env.sb [scoreboard] [RX] #6: data=0x00000000 off=3 size=2 err=1 should_drop=1
UVM_INFO scoreboard.sv(161) @ 1170000: uvm_test_top.env.sb [scoreboard] DROP OK: RX#6 off=3 size=2
UVM_INFO md_componentes.sv(41) @ 1190000: uvm_test_top.env.rx_agt.driver [RX_DRV] [RX] data=0x00000000 offset=3 size=2 valid=1 err=0
UVM_INFO md_sequences.sv(144) @ 1190000: uvm_test_top.env.rx_agt.sequencer@@rx_seq [rx_mixed_seq] Enviado ILEGAL: off=3 size=2 data=0x00000000
UVM_INFO scoreboard.sv(148) @ 1230000: uvm_test_top.env.sb [scoreboard] [RX] #7: data=0x00000000 off=1 size=2 err=1 should_drop=1
UVM_INFO scoreboard.sv(161) @ 1230000: uvm_test_top.env.sb [scoreboard] DROP OK: RX#7 off=1 size=2
UVM_INFO md_componentes.sv(41) @ 1250000: uvm_test_top.env.rx_agt.driver [RX_DRV] [RX] data=0x00000000 offset=1 size=2 valid=1 err=0
UVM_INFO md_sequences.sv(144) @ 1250000: uvm_test_top.env.rx_agt.sequencer@@rx_seq [rx_mixed_seq] Enviado ILEGAL: off=1 size=2 data=0x00000000
UVM_INFO md_componentes.sv(41) @ 1290000: uvm_test_top.env.rx_agt.driver [RX_DRV] [RX] data=0x00000000 offset=3 size=2 valid=0 err=0
UVM_INFO md_sequences.sv(144) @ 1290000: uvm_test_top.env.rx_agt.sequencer@@rx_seq [rx_mixed_seq] Enviado ILEGAL: off=3 size=2 data=0x00000000
UVM_INFO scoreboard.sv(136) @ 1330000: uvm_test_top.env.sb [scoreboard] Config actualizada: offset=1 size=1 (pending_bytes=0 → flushed)
UVM_INFO scoreboard.sv(148) @ 1330000: uvm_test_top.env.sb [scoreboard] [RX] #8: data=0x00000000 off=1 size=2 err=1 should_drop=1
UVM_INFO scoreboard.sv(161) @ 1330000: uvm_test_top.env.sb [scoreboard] DROP OK: RX#8 off=1 size=2
UVM_INFO md_componentes.sv(41) @ 1350000: uvm_test_top.env.rx_agt.driver [RX_DRV] [RX] data=0x00000000 offset=1 size=2 valid=1 err=1
UVM_INFO md_sequences.sv(144) @ 1350000: uvm_test_top.env.rx_agt.sequencer@@rx_seq [rx_mixed_seq] Enviado ILEGAL: off=1 size=2 data=0x00000000
UVM_INFO scoreboard.sv(148) @ 1390000: uvm_test_top.env.sb [scoreboard] [RX] #9: data=0x00000000 off=3 size=4 err=1 should_drop=1
UVM_INFO scoreboard.sv(161) @ 1390000: uvm_test_top.env.sb [scoreboard] DROP OK: RX#9 off=3 size=4
UVM_INFO md_componentes.sv(41) @ 1410000: uvm_test_top.env.rx_agt.driver [RX_DRV] [RX] data=0x00000000 offset=3 size=4 valid=1 err=1
UVM_INFO md_sequences.sv(144) @ 1410000: uvm_test_top.env.rx_agt.sequencer@@rx_seq [rx_mixed_seq] Enviado ILEGAL: off=3 size=4 data=0x00000000
UVM_WARNING apb_componentes.sv(142) @ 1430000: uvm_test_top.env.apb_agt.driver [apb_driver] APB WRITE at addr 0x0 returned error (pslverr=1)
UVM_INFO scoreboard.sv(148) @ 1450000: uvm_test_top.env.sb [scoreboard] [RX] #10: data=0x00000000 off=1 size=4 err=1 should_drop=1
UVM_INFO scoreboard.sv(161) @ 1450000: uvm_test_top.env.sb [scoreboard] DROP OK: RX#10 off=1 size=4
UVM_INFO md_componentes.sv(41) @ 1470000: uvm_test_top.env.rx_agt.driver [RX_DRV] [RX] data=0x00000000 offset=1 size=4 valid=1 err=1
UVM_INFO md_sequences.sv(144) @ 1470000: uvm_test_top.env.rx_agt.sequencer@@rx_seq [rx_mixed_seq] Enviado ILEGAL: off=1 size=4 data=0x00000000
UVM_INFO scoreboard.sv(148) @ 1510000: uvm_test_top.env.sb [scoreboard] [RX] #11: data=0x00000000 off=0 size=3 err=1 should_drop=1
UVM_INFO scoreboard.sv(161) @ 1510000: uvm_test_top.env.sb [scoreboard] DROP OK: RX#11 off=0 size=3
UVM_INFO md_componentes.sv(41) @ 1530000: uvm_test_top.env.rx_agt.driver [RX_DRV] [RX] data=0x00000000 offset=0 size=3 valid=1 err=1
UVM_INFO md_sequences.sv(144) @ 1530000: uvm_test_top.env.rx_agt.sequencer@@rx_seq [rx_mixed_seq] Enviado ILEGAL: off=0 size=3 data=0x00000000
UVM_INFO scoreboard.sv(148) @ 1570000: uvm_test_top.env.sb [scoreboard] [RX] #12: data=0x00000000 off=3 size=2 err=1 should_drop=1
UVM_INFO scoreboard.sv(161) @ 1570000: uvm_test_top.env.sb [scoreboard] DROP OK: RX#12 off=3 size=2
UVM_INFO md_componentes.sv(41) @ 1590000: uvm_test_top.env.rx_agt.driver [RX_DRV] [RX] data=0x00000000 offset=3 size=2 valid=1 err=1
UVM_INFO md_sequences.sv(144) @ 1590000: uvm_test_top.env.rx_agt.sequencer@@rx_seq [rx_mixed_seq] Enviado ILEGAL: off=3 size=2 data=0x00000000
UVM_INFO scoreboard.sv(148) @ 1630000: uvm_test_top.env.sb [scoreboard] [RX] #13: data=0x00000000 off=1 size=2 err=1 should_drop=1
UVM_INFO scoreboard.sv(161) @ 1630000: uvm_test_top.env.sb [scoreboard] DROP OK: RX#13 off=1 size=2
UVM_INFO md_componentes.sv(41) @ 1650000: uvm_test_top.env.rx_agt.driver [RX_DRV] [RX] data=0x00000000 offset=1 size=2 valid=1 err=0
UVM_INFO md_sequences.sv(144) @ 1650000: uvm_test_top.env.rx_agt.sequencer@@rx_seq [rx_mixed_seq] Enviado ILEGAL: off=1 size=2 data=0x00000000
UVM_INFO scoreboard.sv(148) @ 1690000: uvm_test_top.env.sb [scoreboard] [RX] #14: data=0x00000000 off=0 size=3 err=1 should_drop=1
UVM_INFO scoreboard.sv(161) @ 1690000: uvm_test_top.env.sb [scoreboard] DROP OK: RX#14 off=0 size=3
UVM_INFO md_componentes.sv(41) @ 1710000: uvm_test_top.env.rx_agt.driver [RX_DRV] [RX] data=0x00000000 offset=0 size=3 valid=1 err=1
UVM_INFO md_sequences.sv(144) @ 1710000: uvm_test_top.env.rx_agt.sequencer@@rx_seq [rx_mixed_seq] Enviado ILEGAL: off=0 size=3 data=0x00000000
UVM_INFO scoreboard.sv(148) @ 1750000: uvm_test_top.env.sb [scoreboard] [RX] #15: data=0x00000000 off=0 size=3 err=1 should_drop=1
UVM_INFO scoreboard.sv(161) @ 1750000: uvm_test_top.env.sb [scoreboard] DROP OK: RX#15 off=0 size=3
UVM_INFO md_componentes.sv(41) @ 1770000: uvm_test_top.env.rx_agt.driver [RX_DRV] [RX] data=0x00000000 offset=0 size=3 valid=1 err=0
UVM_INFO md_sequences.sv(144) @ 1770000: uvm_test_top.env.rx_agt.sequencer@@rx_seq [rx_mixed_seq] Enviado ILEGAL: off=0 size=3 data=0x00000000
UVM_INFO scoreboard.sv(148) @ 1810000: uvm_test_top.env.sb [scoreboard] [RX] #16: data=0x00000000 off=1 size=4 err=1 should_drop=1
UVM_INFO scoreboard.sv(161) @ 1810000: uvm_test_top.env.sb [scoreboard] DROP OK: RX#16 off=1 size=4
UVM_INFO md_componentes.sv(41) @ 1830000: uvm_test_top.env.rx_agt.driver [RX_DRV] [RX] data=0x00000000 offset=1 size=4 valid=1 err=0
UVM_INFO md_sequences.sv(144) @ 1830000: uvm_test_top.env.rx_agt.sequencer@@rx_seq [rx_mixed_seq] Enviado ILEGAL: off=1 size=4 data=0x00000000
UVM_INFO scoreboard.sv(148) @ 1870000: uvm_test_top.env.sb [scoreboard] [RX] #17: data=0x00000000 off=0 size=2 err=0 should_drop=0
UVM_INFO md_componentes.sv(41) @ 1890000: uvm_test_top.env.rx_agt.driver [RX_DRV] [RX] data=0x00000000 offset=0 size=2 valid=1 err=1
UVM_INFO md_sequences.sv(127) @ 1890000: uvm_test_top.env.rx_agt.sequencer@@rx_seq [rx_mixed_seq] Enviado LEGAL: off=0 size=2 data=0x00000000
UVM_INFO scoreboard.sv(148) @ 1930000: uvm_test_top.env.sb [scoreboard] [RX] #18: data=0x00000000 off=0 size=3 err=1 should_drop=1
UVM_INFO scoreboard.sv(161) @ 1930000: uvm_test_top.env.sb [scoreboard] DROP OK: RX#18 off=0 size=3
UVM_INFO scoreboard.sv(184) @ 1930000: uvm_test_top.env.sb [scoreboard] [TX] data=0x00000000 off=1 size=1
UVM_INFO scoreboard.sv(218) @ 1930000: uvm_test_top.env.sb [scoreboard] TX MATCH OK: data=0x00000000 size=1
UVM_INFO scoreboard.sv(184) @ 1950000: uvm_test_top.env.sb [scoreboard] [TX] data=0x00000000 off=1 size=1
UVM_INFO scoreboard.sv(218) @ 1950000: uvm_test_top.env.sb [scoreboard] TX MATCH OK: data=0x00000000 size=1
UVM_INFO md_componentes.sv(41) @ 1950000: uvm_test_top.env.rx_agt.driver [RX_DRV] [RX] data=0x00000000 offset=0 size=3 valid=1 err=0
UVM_INFO md_sequences.sv(144) @ 1950000: uvm_test_top.env.rx_agt.sequencer@@rx_seq [rx_mixed_seq] Enviado ILEGAL: off=0 size=3 data=0x00000000
UVM_INFO md_componentes.sv(227) @ 1970000: uvm_test_top.env.irq_mon [IRQ_MON] [IRQ] @ 1970000
UVM_INFO scoreboard.sv(227) @ 1970000: uvm_test_top.env.sb [scoreboard] [IRQ #1] @ 1970000
UVM_INFO scoreboard.sv(148) @ 1990000: uvm_test_top.env.sb [scoreboard] [RX] #19: data=0x00000000 off=3 size=2 err=1 should_drop=1
UVM_INFO scoreboard.sv(161) @ 1990000: uvm_test_top.env.sb [scoreboard] DROP OK: RX#19 off=3 size=2
UVM_INFO md_componentes.sv(41) @ 2010000: uvm_test_top.env.rx_agt.driver [RX_DRV] [RX] data=0x00000000 offset=3 size=2 valid=1 err=1
UVM_INFO md_sequences.sv(144) @ 2010000: uvm_test_top.env.rx_agt.sequencer@@rx_seq [rx_mixed_seq] Enviado ILEGAL: off=3 size=2 data=0x00000000
UVM_INFO scoreboard.sv(148) @ 2050000: uvm_test_top.env.sb [scoreboard] [RX] #20: data=0x00000000 off=0 size=2 err=0 should_drop=0
UVM_INFO md_componentes.sv(41) @ 2070000: uvm_test_top.env.rx_agt.driver [RX_DRV] [RX] data=0x00000000 offset=0 size=2 valid=1 err=1
UVM_INFO md_sequences.sv(127) @ 2070000: uvm_test_top.env.rx_agt.sequencer@@rx_seq [rx_mixed_seq] Enviado LEGAL: off=0 size=2 data=0x00000000
UVM_INFO scoreboard.sv(148) @ 2110000: uvm_test_top.env.sb [scoreboard] [RX] #21: data=0x00000000 off=0 size=1 err=0 should_drop=0
UVM_INFO scoreboard.sv(184) @ 2110000: uvm_test_top.env.sb [scoreboard] [TX] data=0x00000000 off=1 size=1
UVM_INFO scoreboard.sv(218) @ 2110000: uvm_test_top.env.sb [scoreboard] TX MATCH OK: data=0x00000000 size=1
UVM_INFO scoreboard.sv(184) @ 2130000: uvm_test_top.env.sb [scoreboard] [TX] data=0x00000000 off=1 size=1
UVM_INFO scoreboard.sv(218) @ 2130000: uvm_test_top.env.sb [scoreboard] TX MATCH OK: data=0x00000000 size=1
UVM_INFO md_componentes.sv(41) @ 2130000: uvm_test_top.env.rx_agt.driver [RX_DRV] [RX] data=0x00000000 offset=0 size=1 valid=1 err=0
UVM_INFO md_sequences.sv(127) @ 2130000: uvm_test_top.env.rx_agt.sequencer@@rx_seq [rx_mixed_seq] Enviado LEGAL: off=0 size=1 data=0x00000000
UVM_INFO md_componentes.sv(227) @ 2150000: uvm_test_top.env.irq_mon [IRQ_MON] [IRQ] @ 2150000
UVM_INFO scoreboard.sv(227) @ 2150000: uvm_test_top.env.sb [scoreboard] [IRQ #2] @ 2150000
UVM_WARNING apb_componentes.sv(142) @ 2170000: uvm_test_top.env.apb_agt.driver [apb_driver] APB WRITE at addr 0x0 returned error (pslverr=1)
UVM_INFO scoreboard.sv(148) @ 2170000: uvm_test_top.env.sb [scoreboard] [RX] #22: data=0x00000000 off=0 size=3 err=1 should_drop=1
UVM_INFO scoreboard.sv(161) @ 2170000: uvm_test_top.env.sb [scoreboard] DROP OK: RX#22 off=0 size=3
UVM_INFO scoreboard.sv(184) @ 2170000: uvm_test_top.env.sb [scoreboard] [TX] data=0x00000000 off=1 size=1
UVM_INFO scoreboard.sv(218) @ 2170000: uvm_test_top.env.sb [scoreboard] TX MATCH OK: data=0x00000000 size=1
UVM_INFO md_componentes.sv(227) @ 2190000: uvm_test_top.env.irq_mon [IRQ_MON] [IRQ] @ 2190000
UVM_INFO scoreboard.sv(227) @ 2190000: uvm_test_top.env.sb [scoreboard] [IRQ #3] @ 2190000
UVM_INFO md_componentes.sv(41) @ 2190000: uvm_test_top.env.rx_agt.driver [RX_DRV] [RX] data=0x00000000 offset=0 size=3 valid=1 err=0
UVM_INFO md_sequences.sv(144) @ 2190000: uvm_test_top.env.rx_agt.sequencer@@rx_seq [rx_mixed_seq] Enviado ILEGAL: off=0 size=3 data=0x00000000
UVM_INFO scoreboard.sv(148) @ 2230000: uvm_test_top.env.sb [scoreboard] [RX] #23: data=0x00000000 off=2 size=4 err=1 should_drop=1
UVM_INFO scoreboard.sv(161) @ 2230000: uvm_test_top.env.sb [scoreboard] DROP OK: RX#23 off=2 size=4
UVM_INFO md_componentes.sv(41) @ 2250000: uvm_test_top.env.rx_agt.driver [RX_DRV] [RX] data=0x00000000 offset=2 size=4 valid=1 err=1
UVM_INFO md_sequences.sv(144) @ 2250000: uvm_test_top.env.rx_agt.sequencer@@rx_seq [rx_mixed_seq] Enviado ILEGAL: off=2 size=4 data=0x00000000
UVM_INFO scoreboard.sv(148) @ 2290000: uvm_test_top.env.sb [scoreboard] [RX] #24: data=0x00000000 off=3 size=4 err=1 should_drop=1
UVM_INFO scoreboard.sv(161) @ 2290000: uvm_test_top.env.sb [scoreboard] DROP OK: RX#24 off=3 size=4
UVM_INFO md_componentes.sv(41) @ 2310000: uvm_test_top.env.rx_agt.driver [RX_DRV] [RX] data=0x00000000 offset=3 size=4 valid=1 err=1
UVM_INFO md_sequences.sv(144) @ 2310000: uvm_test_top.env.rx_agt.sequencer@@rx_seq [rx_mixed_seq] Enviado ILEGAL: off=3 size=4 data=0x00000000
UVM_INFO scoreboard.sv(148) @ 2350000: uvm_test_top.env.sb [scoreboard] [RX] #25: data=0x00000000 off=1 size=3 err=1 should_drop=1
UVM_INFO scoreboard.sv(161) @ 2350000: uvm_test_top.env.sb [scoreboard] DROP OK: RX#25 off=1 size=3
UVM_INFO md_componentes.sv(41) @ 2370000: uvm_test_top.env.rx_agt.driver [RX_DRV] [RX] data=0x00000000 offset=1 size=3 valid=1 err=0
UVM_INFO md_sequences.sv(144) @ 2370000: uvm_test_top.env.rx_agt.sequencer@@rx_seq [rx_mixed_seq] Enviado ILEGAL: off=1 size=3 data=0x00000000
UVM_INFO md_componentes.sv(41) @ 2410000: uvm_test_top.env.rx_agt.driver [RX_DRV] [RX] data=0x00000000 offset=1 size=2 valid=0 err=1
UVM_INFO md_sequences.sv(144) @ 2410000: uvm_test_top.env.rx_agt.sequencer@@rx_seq [rx_mixed_seq] Enviado ILEGAL: off=1 size=2 data=0x00000000
UVM_INFO scoreboard.sv(148) @ 2450000: uvm_test_top.env.sb [scoreboard] [RX] #26: data=0x00000000 off=3 size=2 err=1 should_drop=1
UVM_INFO scoreboard.sv(161) @ 2450000: uvm_test_top.env.sb [scoreboard] DROP OK: RX#26 off=3 size=2
UVM_INFO md_componentes.sv(41) @ 2470000: uvm_test_top.env.rx_agt.driver [RX_DRV] [RX] data=0x00000000 offset=3 size=2 valid=1 err=0
UVM_INFO md_sequences.sv(144) @ 2470000: uvm_test_top.env.rx_agt.sequencer@@rx_seq [rx_mixed_seq] Enviado ILEGAL: off=3 size=2 data=0x00000000
UVM_INFO scoreboard.sv(148) @ 2510000: uvm_test_top.env.sb [scoreboard] [RX] #27: data=0x00000000 off=1 size=4 err=1 should_drop=1
UVM_INFO scoreboard.sv(161) @ 2510000: uvm_test_top.env.sb [scoreboard] DROP OK: RX#27 off=1 size=4
UVM_INFO md_componentes.sv(41) @ 2530000: uvm_test_top.env.rx_agt.driver [RX_DRV] [RX] data=0x00000000 offset=1 size=4 valid=1 err=1
UVM_INFO md_sequences.sv(144) @ 2530000: uvm_test_top.env.rx_agt.sequencer@@rx_seq [rx_mixed_seq] Enviado ILEGAL: off=1 size=4 data=0x00000000
UVM_INFO scoreboard.sv(148) @ 2570000: uvm_test_top.env.sb [scoreboard] [RX] #28: data=0x00000000 off=1 size=3 err=1 should_drop=1
UVM_INFO scoreboard.sv(161) @ 2570000: uvm_test_top.env.sb [scoreboard] DROP OK: RX#28 off=1 size=3
UVM_INFO md_componentes.sv(41) @ 2590000: uvm_test_top.env.rx_agt.driver [RX_DRV] [RX] data=0x00000000 offset=1 size=3 valid=1 err=1
UVM_INFO md_sequences.sv(144) @ 2590000: uvm_test_top.env.rx_agt.sequencer@@rx_seq [rx_mixed_seq] Enviado ILEGAL: off=1 size=3 data=0x00000000
UVM_INFO scoreboard.sv(148) @ 2630000: uvm_test_top.env.sb [scoreboard] [RX] #29: data=0x00000000 off=3 size=1 err=0 should_drop=0
UVM_INFO md_componentes.sv(41) @ 2650000: uvm_test_top.env.rx_agt.driver [RX_DRV] [RX] data=0x00000000 offset=3 size=1 valid=1 err=1
UVM_INFO md_sequences.sv(127) @ 2650000: uvm_test_top.env.rx_agt.sequencer@@rx_seq [rx_mixed_seq] Enviado LEGAL: off=3 size=1 data=0x00000000
UVM_INFO scoreboard.sv(148) @ 2690000: uvm_test_top.env.sb [scoreboard] [RX] #30: data=0x00000000 off=0 size=3 err=1 should_drop=1
UVM_INFO scoreboard.sv(161) @ 2690000: uvm_test_top.env.sb [scoreboard] DROP OK: RX#30 off=0 size=3
UVM_INFO scoreboard.sv(184) @ 2690000: uvm_test_top.env.sb [scoreboard] [TX] data=0x00000000 off=1 size=1
UVM_INFO scoreboard.sv(218) @ 2690000: uvm_test_top.env.sb [scoreboard] TX MATCH OK: data=0x00000000 size=1
UVM_INFO md_componentes.sv(227) @ 2710000: uvm_test_top.env.irq_mon [IRQ_MON] [IRQ] @ 2710000
UVM_INFO scoreboard.sv(227) @ 2710000: uvm_test_top.env.sb [scoreboard] [IRQ #4] @ 2710000
UVM_INFO md_componentes.sv(41) @ 2710000: uvm_test_top.env.rx_agt.driver [RX_DRV] [RX] data=0x00000000 offset=0 size=3 valid=1 err=0
UVM_INFO md_sequences.sv(144) @ 2710000: uvm_test_top.env.rx_agt.sequencer@@rx_seq [rx_mixed_seq] Enviado ILEGAL: off=0 size=3 data=0x00000000
UVM_INFO scoreboard.sv(148) @ 2750000: uvm_test_top.env.sb [scoreboard] [RX] #31: data=0x00000000 off=0 size=3 err=1 should_drop=1
UVM_INFO scoreboard.sv(161) @ 2750000: uvm_test_top.env.sb [scoreboard] DROP OK: RX#31 off=0 size=3
UVM_INFO md_componentes.sv(41) @ 2770000: uvm_test_top.env.rx_agt.driver [RX_DRV] [RX] data=0x00000000 offset=0 size=3 valid=1 err=0
UVM_INFO md_sequences.sv(144) @ 2770000: uvm_test_top.env.rx_agt.sequencer@@rx_seq [rx_mixed_seq] Enviado ILEGAL: off=0 size=3 data=0x00000000
UVM_INFO scoreboard.sv(148) @ 2810000: uvm_test_top.env.sb [scoreboard] [RX] #32: data=0x00000000 off=0 size=3 err=1 should_drop=1
UVM_INFO scoreboard.sv(161) @ 2810000: uvm_test_top.env.sb [scoreboard] DROP OK: RX#32 off=0 size=3
UVM_WARNING apb_componentes.sv(142) @ 2830000: uvm_test_top.env.apb_agt.driver [apb_driver] APB WRITE at addr 0x0 returned error (pslverr=1)
UVM_INFO md_componentes.sv(41) @ 2830000: uvm_test_top.env.rx_agt.driver [RX_DRV] [RX] data=0x00000000 offset=0 size=3 valid=1 err=0
UVM_INFO md_sequences.sv(144) @ 2830000: uvm_test_top.env.rx_agt.sequencer@@rx_seq [rx_mixed_seq] Enviado ILEGAL: off=0 size=3 data=0x00000000
UVM_INFO scoreboard.sv(148) @ 2870000: uvm_test_top.env.sb [scoreboard] [RX] #33: data=0x00000000 off=0 size=3 err=1 should_drop=1
UVM_INFO scoreboard.sv(161) @ 2870000: uvm_test_top.env.sb [scoreboard] DROP OK: RX#33 off=0 size=3
UVM_INFO md_componentes.sv(41) @ 2890000: uvm_test_top.env.rx_agt.driver [RX_DRV] [RX] data=0x00000000 offset=0 size=3 valid=1 err=1
UVM_INFO md_sequences.sv(144) @ 2890000: uvm_test_top.env.rx_agt.sequencer@@rx_seq [rx_mixed_seq] Enviado ILEGAL: off=0 size=3 data=0x00000000
UVM_INFO scoreboard.sv(136) @ 2910000: uvm_test_top.env.sb [scoreboard] Config actualizada: offset=2 size=3 (pending_bytes=0 → flushed)
