logs/failed_test_3.log
Chronologic VCS simulator copyright 1991-2020
Contains Synopsys proprietary information.
Compiler version R-2020.12-SP2; Runtime version R-2020.12-SP2;  Jun  8 18:05 2026
UVM_INFO /mnt/vol_NFS_rh003/tools/vcs/R-2020.12-SP2/etc/uvm-1.2/base/uvm_root.svh(402) @ 0: reporter [UVM/RELNOTES] 
----------------------------------------------------------------
UVM-1.2.Synopsys
(C) 2007-2014 Mentor Graphics Corporation
(C) 2007-2014 Cadence Design Systems, Inc.
(C) 2006-2014 Synopsys, Inc.
(C) 2011-2013 Cypress Semiconductor Corp.
(C) 2013-2014 NVIDIA Corporation
----------------------------------------------------------------

  ***********       IMPORTANT RELEASE NOTES         ************

  You are using a version of the UVM library that has been compiled
  with `UVM_NO_DEPRECATED undefined.
  See http://www.eda.org/svdb/view.php?id=3313 for more details.

  You are using a version of the UVM library that has been compiled
  with `UVM_OBJECT_DO_NOT_NEED_CONSTRUCTOR undefined.
  See http://www.eda.org/svdb/view.php?id=3770 for more details.

      (Specify +UVM_NO_RELNOTES to turn off this notice)

UVM_INFO tb_top.sv(133) @ 0: reporter [TB_TOP] All interfaces set in config_db
UVM_INFO tb_top.sv(146) @ 0: reporter [TB_TOP] RAL model created and set in config_db
UVM_INFO @ 0: reporter [RNTST] Running test test_general...
UVM_INFO aligner_env.sv(74) @ 0: uvm_test_top.env [aligner_env] Environment connected
UVM_INFO aligner_env.sv(78) @ 0: uvm_test_top.env [aligner_env] Simulation started
-------------------------------------------------------------------------------------------
Name                     Type                      Size  Value                             
-------------------------------------------------------------------------------------------
regmodel                 cfs_aligner_regs          -     @367                              
  ctrl                   cfs_aligner_regs__ctrl    -     @370                              
    size                 uvm_reg_field             ...    RW ctrl[2:0]=3'h1                
    reserved0            uvm_reg_field             ...    RO ctrl[7:3]=5'h00               
    offset               uvm_reg_field             ...    RW ctrl[9:8]=2'h0                
    reserved1            uvm_reg_field             ...    RO ctrl[15:10]=6'h00             
    clr                  uvm_reg_field             ...    WO ctrl[16:16]=1'h0              
    reserved2            uvm_reg_field             ...    RO ctrl[31:17]=15'h0000          
  status                 cfs_aligner_regs__status  -     @378                              
    cnt_drop             uvm_reg_field             ...    RO status[7:0]=8'h00             
    rx_lvl               uvm_reg_field             ...    RO status[11:8]=4'h0             
    reserved0            uvm_reg_field             ...    RO status[15:12]=4'h0            
    tx_lvl               uvm_reg_field             ...    RO status[19:16]=4'h0            
    reserved1            uvm_reg_field             ...    RO status[31:20]=12'h000         
  irqen                  cfs_aligner_regs__irqen   -     @385                              
    rx_fifo_empty        uvm_reg_field             ...    RW irqen[0:0]=1'h1               
    rx_fifo_full         uvm_reg_field             ...    RW irqen[1:1]=1'h1               
    tx_fifo_empty        uvm_reg_field             ...    RW irqen[2:2]=1'h1               
    tx_fifo_full         uvm_reg_field             ...    RW irqen[3:3]=1'h1               
    max_drop             uvm_reg_field             ...    RW irqen[4:4]=1'h1               
    reserved             uvm_reg_field             ...    RO irqen[31:5]=27'h0000000       
  irq                    cfs_aligner_regs__irq     -     @393                              
    rx_fifo_empty        uvm_reg_field             ...    W1C irq[0:0]=1'h0                
    rx_fifo_full         uvm_reg_field             ...    W1C irq[1:1]=1'h0                
    tx_fifo_empty        uvm_reg_field             ...    W1C irq[2:2]=1'h0                
    tx_fifo_full         uvm_reg_field             ...    W1C irq[3:3]=1'h0                
    max_drop             uvm_reg_field             ...    W1C irq[4:4]=1'h0                
    reserved             uvm_reg_field             ...    RO irq[31:5]=27'h0000000         
  reg_map                uvm_reg_map               -     @369                              
    endian                                         ...   UVM_NO_ENDIAN                     
    effective sequencer  apb_sequencer             ...   uvm_test_top.env.apb_agt.sequencer
    ctrl                 cfs_aligner_regs__ctrl    ...   @370 +'h0                         
    status               cfs_aligner_regs__status  ...   @378 +'hc                         
    irqen                cfs_aligner_regs__irqen   ...   @385 +'hf0                        
    irq                  cfs_aligner_regs__irq     ...   @393 +'hf4                        
-------------------------------------------------------------------------------------------
UVM_INFO test_general.sv(281) @ 0: uvm_test_top [test_general] 
==================================================
  TEST GENERAL CONFIGURATION
==================================================
  SEMILLA            = 702817668
  TEST_MODE          = MD_ONLY
  APB_NUM_TRANS      = 147
  MD_NUM_PKTS        = 42
  MD_PESO_LEGAL      = 64%
  CTRL_SIZE          = 1
  CTRL_OFFSET        = 0
  MD_PATRON          = RANDOM
  TIMEOUT_MS         = 298
==================================================
UVM_INFO tb_top.sv(116) @ 190000: reporter [TB_TOP] Reset deasserted
UVM_INFO md_componentes.sv(31) @ 210000: uvm_test_top.env.rx_agt.driver [RX_DRV] Reset liberado
UVM_INFO scoreboard.sv(132) @ 270000: uvm_test_top.env.sb [scoreboard] Config actualizada: offset=0 size=1
UVM_INFO test_general.sv(128) @ 270000: uvm_test_top [test_general] CTRL configurado: size=1 offset=0
UVM_INFO test_general.sv(143) @ 350000: uvm_test_top [test_general] IRQEN configurado (todas las interrupciones habilitadas)
UVM_INFO test_general.sv(236) @ 350000: uvm_test_top [test_general] Iniciando MD: 26 legales, 16 ilegales, patrón=RANDOM
UVM_INFO scoreboard.sv(142) @ 370000: uvm_test_top.env.sb [scoreboard] [RX] #1: data=0xf358f4ff off=1 size=1 err=0 should_drop=0
UVM_INFO md_componentes.sv(41) @ 390000: uvm_test_top.env.rx_agt.driver [RX_DRV] [RX] data=0xf358f4ff offset=1 size=1 valid=1 err=1
UVM_INFO md_sequences.sv(127) @ 390000: uvm_test_top.env.rx_agt.sequencer@@rx_seq [rx_mixed_seq] Enviado LEGAL: off=1 size=1 data=0xf358f4ff
UVM_INFO md_componentes.sv(227) @ 410000: uvm_test_top.env.irq_mon [IRQ_MON] [IRQ] @ 410000
UVM_INFO scoreboard.sv(225) @ 410000: uvm_test_top.env.sb [scoreboard] [IRQ #1] @ 410000
UVM_INFO scoreboard.sv(142) @ 430000: uvm_test_top.env.sb [scoreboard] [RX] #2: data=0x92278734 off=3 size=4 err=1 should_drop=1
UVM_INFO scoreboard.sv(155) @ 430000: uvm_test_top.env.sb [scoreboard] DROP OK: RX#2 off=3 size=4
UVM_INFO scoreboard.sv(178) @ 430000: uvm_test_top.env.sb [scoreboard] [TX] data=0x000000f4 off=0 size=1
UVM_INFO scoreboard.sv(216) @ 430000: uvm_test_top.env.sb [scoreboard] TX MATCH OK: data=0x000000f4 size=1
UVM_INFO md_componentes.sv(227) @ 450000: uvm_test_top.env.irq_mon [IRQ_MON] [IRQ] @ 450000
UVM_INFO scoreboard.sv(225) @ 450000: uvm_test_top.env.sb [scoreboard] [IRQ #2] @ 450000
UVM_INFO md_componentes.sv(41) @ 450000: uvm_test_top.env.rx_agt.driver [RX_DRV] [RX] data=0x92278734 offset=3 size=4 valid=1 err=0
UVM_INFO md_sequences.sv(144) @ 450000: uvm_test_top.env.rx_agt.sequencer@@rx_seq [rx_mixed_seq] Enviado ILEGAL: off=3 size=4 data=0x92278734
UVM_INFO scoreboard.sv(142) @ 490000: uvm_test_top.env.sb [scoreboard] [RX] #3: data=0x291e38e8 off=2 size=2 err=0 should_drop=0
UVM_INFO md_componentes.sv(41) @ 510000: uvm_test_top.env.rx_agt.driver [RX_DRV] [RX] data=0x291e38e8 offset=2 size=2 valid=1 err=1
UVM_INFO md_sequences.sv(127) @ 510000: uvm_test_top.env.rx_agt.sequencer@@rx_seq [rx_mixed_seq] Enviado LEGAL: off=2 size=2 data=0x291e38e8
UVM_INFO md_componentes.sv(227) @ 530000: uvm_test_top.env.irq_mon [IRQ_MON] [IRQ] @ 530000
UVM_INFO scoreboard.sv(225) @ 530000: uvm_test_top.env.sb [scoreboard] [IRQ #3] @ 530000
UVM_INFO scoreboard.sv(142) @ 550000: uvm_test_top.env.sb [scoreboard] [RX] #4: data=0x8b03a363 off=3 size=2 err=1 should_drop=1
UVM_INFO scoreboard.sv(155) @ 550000: uvm_test_top.env.sb [scoreboard] DROP OK: RX#4 off=3 size=2
UVM_INFO scoreboard.sv(178) @ 550000: uvm_test_top.env.sb [scoreboard] [TX] data=0x0000001e off=0 size=1
UVM_INFO scoreboard.sv(216) @ 550000: uvm_test_top.env.sb [scoreboard] TX MATCH OK: data=0x0000001e size=1
UVM_INFO scoreboard.sv(178) @ 570000: uvm_test_top.env.sb [scoreboard] [TX] data=0x00000029 off=0 size=1
UVM_INFO scoreboard.sv(216) @ 570000: uvm_test_top.env.sb [scoreboard] TX MATCH OK: data=0x00000029 size=1
UVM_INFO md_componentes.sv(41) @ 570000: uvm_test_top.env.rx_agt.driver [RX_DRV] [RX] data=0x8b03a363 offset=3 size=2 valid=1 err=1
UVM_INFO md_sequences.sv(144) @ 570000: uvm_test_top.env.rx_agt.sequencer@@rx_seq [rx_mixed_seq] Enviado ILEGAL: off=3 size=2 data=0x8b03a363
UVM_INFO md_componentes.sv(227) @ 590000: uvm_test_top.env.irq_mon [IRQ_MON] [IRQ] @ 590000
UVM_INFO scoreboard.sv(225) @ 590000: uvm_test_top.env.sb [scoreboard] [IRQ #4] @ 590000
UVM_INFO scoreboard.sv(142) @ 610000: uvm_test_top.env.sb [scoreboard] [RX] #5: data=0x3a1b3621 off=2 size=1 err=0 should_drop=0
UVM_INFO md_componentes.sv(41) @ 630000: uvm_test_top.env.rx_agt.driver [RX_DRV] [RX] data=0x3a1b3621 offset=2 size=1 valid=1 err=0
UVM_INFO md_sequences.sv(127) @ 630000: uvm_test_top.env.rx_agt.sequencer@@rx_seq [rx_mixed_seq] Enviado LEGAL: off=2 size=1 data=0x3a1b3621
UVM_INFO md_componentes.sv(227) @ 650000: uvm_test_top.env.irq_mon [IRQ_MON] [IRQ] @ 650000
UVM_INFO scoreboard.sv(225) @ 650000: uvm_test_top.env.sb [scoreboard] [IRQ #5] @ 650000
UVM_INFO scoreboard.sv(142) @ 670000: uvm_test_top.env.sb [scoreboard] [RX] #6: data=0xae35cd5f off=2 size=4 err=1 should_drop=1
UVM_INFO scoreboard.sv(155) @ 670000: uvm_test_top.env.sb [scoreboard] DROP OK: RX#6 off=2 size=4
UVM_INFO scoreboard.sv(178) @ 670000: uvm_test_top.env.sb [scoreboard] [TX] data=0x0000001b off=0 size=1
UVM_INFO scoreboard.sv(216) @ 670000: uvm_test_top.env.sb [scoreboard] TX MATCH OK: data=0x0000001b size=1
UVM_INFO md_componentes.sv(227) @ 690000: uvm_test_top.env.irq_mon [IRQ_MON] [IRQ] @ 690000
UVM_INFO scoreboard.sv(225) @ 690000: uvm_test_top.env.sb [scoreboard] [IRQ #6] @ 690000
UVM_INFO md_componentes.sv(41) @ 690000: uvm_test_top.env.rx_agt.driver [RX_DRV] [RX] data=0xae35cd5f offset=2 size=4 valid=1 err=1
UVM_INFO md_sequences.sv(144) @ 690000: uvm_test_top.env.rx_agt.sequencer@@rx_seq [rx_mixed_seq] Enviado ILEGAL: off=2 size=4 data=0xae35cd5f
UVM_INFO scoreboard.sv(142) @ 730000: uvm_test_top.env.sb [scoreboard] [RX] #7: data=0x653920f6 off=0 size=3 err=1 should_drop=1
UVM_INFO scoreboard.sv(155) @ 730000: uvm_test_top.env.sb [scoreboard] DROP OK: RX#7 off=0 size=3
UVM_INFO md_componentes.sv(41) @ 750000: uvm_test_top.env.rx_agt.driver [RX_DRV] [RX] data=0x653920f6 offset=0 size=3 valid=1 err=0
UVM_INFO md_sequences.sv(144) @ 750000: uvm_test_top.env.rx_agt.sequencer@@rx_seq [rx_mixed_seq] Enviado ILEGAL: off=0 size=3 data=0x653920f6
UVM_INFO scoreboard.sv(142) @ 790000: uvm_test_top.env.sb [scoreboard] [RX] #8: data=0xdbde0207 off=0 size=3 err=1 should_drop=1
UVM_INFO scoreboard.sv(155) @ 790000: uvm_test_top.env.sb [scoreboard] DROP OK: RX#8 off=0 size=3
UVM_INFO md_componentes.sv(41) @ 810000: uvm_test_top.env.rx_agt.driver [RX_DRV] [RX] data=0xdbde0207 offset=0 size=3 valid=1 err=1
UVM_INFO md_sequences.sv(144) @ 810000: uvm_test_top.env.rx_agt.sequencer@@rx_seq [rx_mixed_seq] Enviado ILEGAL: off=0 size=3 data=0xdbde0207
UVM_INFO scoreboard.sv(142) @ 850000: uvm_test_top.env.sb [scoreboard] [RX] #9: data=0xd55d6ca4 off=3 size=4 err=1 should_drop=1
UVM_INFO scoreboard.sv(155) @ 850000: uvm_test_top.env.sb [scoreboard] DROP OK: RX#9 off=3 size=4
UVM_INFO md_componentes.sv(41) @ 870000: uvm_test_top.env.rx_agt.driver [RX_DRV] [RX] data=0xd55d6ca4 offset=3 size=4 valid=1 err=1
UVM_INFO md_sequences.sv(144) @ 870000: uvm_test_top.env.rx_agt.sequencer@@rx_seq [rx_mixed_seq] Enviado ILEGAL: off=3 size=4 data=0xd55d6ca4
UVM_INFO scoreboard.sv(142) @ 910000: uvm_test_top.env.sb [scoreboard] [RX] #10: data=0xd01b17e9 off=2 size=2 err=0 should_drop=0
UVM_INFO md_componentes.sv(41) @ 930000: uvm_test_top.env.rx_agt.driver [RX_DRV] [RX] data=0xd01b17e9 offset=2 size=2 valid=1 err=1
UVM_INFO md_sequences.sv(127) @ 930000: uvm_test_top.env.rx_agt.sequencer@@rx_seq [rx_mixed_seq] Enviado LEGAL: off=2 size=2 data=0xd01b17e9
UVM_INFO md_componentes.sv(227) @ 950000: uvm_test_top.env.irq_mon [IRQ_MON] [IRQ] @ 950000
UVM_INFO scoreboard.sv(225) @ 950000: uvm_test_top.env.sb [scoreboard] [IRQ #7] @ 950000
UVM_INFO scoreboard.sv(142) @ 970000: uvm_test_top.env.sb [scoreboard] [RX] #11: data=0xe63d599a off=1 size=1 err=0 should_drop=0
UVM_INFO scoreboard.sv(178) @ 970000: uvm_test_top.env.sb [scoreboard] [TX] data=0x0000001b off=0 size=1
UVM_INFO scoreboard.sv(216) @ 970000: uvm_test_top.env.sb [scoreboard] TX MATCH OK: data=0x0000001b size=1
UVM_INFO scoreboard.sv(178) @ 990000: uvm_test_top.env.sb [scoreboard] [TX] data=0x000000d0 off=0 size=1
UVM_INFO scoreboard.sv(216) @ 990000: uvm_test_top.env.sb [scoreboard] TX MATCH OK: data=0x000000d0 size=1
UVM_INFO md_componentes.sv(41) @ 990000: uvm_test_top.env.rx_agt.driver [RX_DRV] [RX] data=0xe63d599a offset=1 size=1 valid=1 err=0
UVM_INFO md_sequences.sv(127) @ 990000: uvm_test_top.env.rx_agt.sequencer@@rx_seq [rx_mixed_seq] Enviado LEGAL: off=1 size=1 data=0xe63d599a
UVM_INFO md_componentes.sv(227) @ 1010000: uvm_test_top.env.irq_mon [IRQ_MON] [IRQ] @ 1010000
UVM_INFO scoreboard.sv(225) @ 1010000: uvm_test_top.env.sb [scoreboard] [IRQ #8] @ 1010000
UVM_INFO scoreboard.sv(142) @ 1030000: uvm_test_top.env.sb [scoreboard] [RX] #12: data=0x98be9cb8 off=2 size=1 err=0 should_drop=0
UVM_INFO scoreboard.sv(178) @ 1030000: uvm_test_top.env.sb [scoreboard] [TX] data=0x00000059 off=0 size=1
UVM_INFO scoreboard.sv(216) @ 1030000: uvm_test_top.env.sb [scoreboard] TX MATCH OK: data=0x00000059 size=1
UVM_INFO md_componentes.sv(227) @ 1050000: uvm_test_top.env.irq_mon [IRQ_MON] [IRQ] @ 1050000
UVM_INFO scoreboard.sv(225) @ 1050000: uvm_test_top.env.sb [scoreboard] [IRQ #9] @ 1050000
UVM_INFO md_componentes.sv(41) @ 1050000: uvm_test_top.env.rx_agt.driver [RX_DRV] [RX] data=0x98be9cb8 offset=2 size=1 valid=1 err=0
UVM_INFO md_sequences.sv(127) @ 1050000: uvm_test_top.env.rx_agt.sequencer@@rx_seq [rx_mixed_seq] Enviado LEGAL: off=2 size=1 data=0x98be9cb8
UVM_INFO scoreboard.sv(142) @ 1090000: uvm_test_top.env.sb [scoreboard] [RX] #13: data=0x913a33a3 off=3 size=3 err=1 should_drop=1
UVM_INFO scoreboard.sv(155) @ 1090000: uvm_test_top.env.sb [scoreboard] DROP OK: RX#13 off=3 size=3
UVM_INFO scoreboard.sv(178) @ 1090000: uvm_test_top.env.sb [scoreboard] [TX] data=0x000000be off=0 size=1
UVM_INFO scoreboard.sv(216) @ 1090000: uvm_test_top.env.sb [scoreboard] TX MATCH OK: data=0x000000be size=1
UVM_INFO md_componentes.sv(227) @ 1110000: uvm_test_top.env.irq_mon [IRQ_MON] [IRQ] @ 1110000
UVM_INFO scoreboard.sv(225) @ 1110000: uvm_test_top.env.sb [scoreboard] [IRQ #10] @ 1110000
UVM_INFO md_componentes.sv(41) @ 1110000: uvm_test_top.env.rx_agt.driver [RX_DRV] [RX] data=0x913a33a3 offset=3 size=3 valid=1 err=0
UVM_INFO md_sequences.sv(144) @ 1110000: uvm_test_top.env.rx_agt.sequencer@@rx_seq [rx_mixed_seq] Enviado ILEGAL: off=3 size=3 data=0x913a33a3
UVM_INFO scoreboard.sv(142) @ 1150000: uvm_test_top.env.sb [scoreboard] [RX] #14: data=0xb9c7c3a9 off=2 size=2 err=0 should_drop=0
UVM_INFO md_componentes.sv(41) @ 1170000: uvm_test_top.env.rx_agt.driver [RX_DRV] [RX] data=0xb9c7c3a9 offset=2 size=2 valid=1 err=0
UVM_INFO md_sequences.sv(127) @ 1170000: uvm_test_top.env.rx_agt.sequencer@@rx_seq [rx_mixed_seq] Enviado LEGAL: off=2 size=2 data=0xb9c7c3a9
UVM_INFO md_componentes.sv(227) @ 1190000: uvm_test_top.env.irq_mon [IRQ_MON] [IRQ] @ 1190000
UVM_INFO scoreboard.sv(225) @ 1190000: uvm_test_top.env.sb [scoreboard] [IRQ #11] @ 1190000
UVM_INFO scoreboard.sv(142) @ 1210000: uvm_test_top.env.sb [scoreboard] [RX] #15: data=0x1f74c956 off=0 size=3 err=1 should_drop=1
UVM_INFO scoreboard.sv(155) @ 1210000: uvm_test_top.env.sb [scoreboard] DROP OK: RX#15 off=0 size=3
UVM_INFO scoreboard.sv(178) @ 1210000: uvm_test_top.env.sb [scoreboard] [TX] data=0x000000c7 off=0 size=1
UVM_INFO scoreboard.sv(216) @ 1210000: uvm_test_top.env.sb [scoreboard] TX MATCH OK: data=0x000000c7 size=1
UVM_INFO scoreboard.sv(178) @ 1230000: uvm_test_top.env.sb [scoreboard] [TX] data=0x000000b9 off=0 size=1
UVM_INFO scoreboard.sv(216) @ 1230000: uvm_test_top.env.sb [scoreboard] TX MATCH OK: data=0x000000b9 size=1
UVM_INFO md_componentes.sv(41) @ 1230000: uvm_test_top.env.rx_agt.driver [RX_DRV] [RX] data=0x1f74c956 offset=0 size=3 valid=1 err=0
UVM_INFO md_sequences.sv(144) @ 1230000: uvm_test_top.env.rx_agt.sequencer@@rx_seq [rx_mixed_seq] Enviado ILEGAL: off=0 size=3 data=0x1f74c956
UVM_INFO md_componentes.sv(227) @ 1250000: uvm_test_top.env.irq_mon [IRQ_MON] [IRQ] @ 1250000
UVM_INFO scoreboard.sv(225) @ 1250000: uvm_test_top.env.sb [scoreboard] [IRQ #12] @ 1250000
UVM_INFO scoreboard.sv(142) @ 1270000: uvm_test_top.env.sb [scoreboard] [RX] #16: data=0x2187a80d off=2 size=1 err=0 should_drop=0
UVM_INFO md_componentes.sv(41) @ 1290000: uvm_test_top.env.rx_agt.driver [RX_DRV] [RX] data=0x2187a80d offset=2 size=1 valid=1 err=1
UVM_INFO md_sequences.sv(127) @ 1290000: uvm_test_top.env.rx_agt.sequencer@@rx_seq [rx_mixed_seq] Enviado LEGAL: off=2 size=1 data=0x2187a80d
UVM_INFO md_componentes.sv(227) @ 1310000: uvm_test_top.env.irq_mon [IRQ_MON] [IRQ] @ 1310000
UVM_INFO scoreboard.sv(225) @ 1310000: uvm_test_top.env.sb [scoreboard] [IRQ #13] @ 1310000
UVM_INFO scoreboard.sv(142) @ 1330000: uvm_test_top.env.sb [scoreboard] [RX] #17: data=0xe535869c off=3 size=2 err=1 should_drop=1
UVM_INFO scoreboard.sv(155) @ 1330000: uvm_test_top.env.sb [scoreboard] DROP OK: RX#17 off=3 size=2
UVM_INFO scoreboard.sv(178) @ 1330000: uvm_test_top.env.sb [scoreboard] [TX] data=0x00000087 off=0 size=1
UVM_INFO scoreboard.sv(216) @ 1330000: uvm_test_top.env.sb [scoreboard] TX MATCH OK: data=0x00000087 size=1
UVM_INFO md_componentes.sv(227) @ 1350000: uvm_test_top.env.irq_mon [IRQ_MON] [IRQ] @ 1350000
UVM_INFO scoreboard.sv(225) @ 1350000: uvm_test_top.env.sb [scoreboard] [IRQ #14] @ 1350000
UVM_INFO md_componentes.sv(41) @ 1350000: uvm_test_top.env.rx_agt.driver [RX_DRV] [RX] data=0xe535869c offset=3 size=2 valid=1 err=1
UVM_INFO md_sequences.sv(144) @ 1350000: uvm_test_top.env.rx_agt.sequencer@@rx_seq [rx_mixed_seq] Enviado ILEGAL: off=3 size=2 data=0xe535869c
UVM_INFO scoreboard.sv(142) @ 1390000: uvm_test_top.env.sb [scoreboard] [RX] #18: data=0x6c628578 off=3 size=4 err=1 should_drop=1
UVM_INFO scoreboard.sv(155) @ 1390000: uvm_test_top.env.sb [scoreboard] DROP OK: RX#18 off=3 size=4
UVM_INFO md_componentes.sv(41) @ 1410000: uvm_test_top.env.rx_agt.driver [RX_DRV] [RX] data=0x6c628578 offset=3 size=4 valid=1 err=1
UVM_INFO md_sequences.sv(144) @ 1410000: uvm_test_top.env.rx_agt.sequencer@@rx_seq [rx_mixed_seq] Enviado ILEGAL: off=3 size=4 data=0x6c628578
UVM_INFO scoreboard.sv(142) @ 1450000: uvm_test_top.env.sb [scoreboard] [RX] #19: data=0x5900731c off=2 size=2 err=0 should_drop=0
UVM_INFO md_componentes.sv(41) @ 1470000: uvm_test_top.env.rx_agt.driver [RX_DRV] [RX] data=0x5900731c offset=2 size=2 valid=1 err=0
UVM_INFO md_sequences.sv(127) @ 1470000: uvm_test_top.env.rx_agt.sequencer@@rx_seq [rx_mixed_seq] Enviado LEGAL: off=2 size=2 data=0x5900731c
UVM_INFO md_componentes.sv(227) @ 1490000: uvm_test_top.env.irq_mon [IRQ_MON] [IRQ] @ 1490000
UVM_INFO scoreboard.sv(225) @ 1490000: uvm_test_top.env.sb [scoreboard] [IRQ #15] @ 1490000
UVM_INFO scoreboard.sv(142) @ 1510000: uvm_test_top.env.sb [scoreboard] [RX] #20: data=0xb3ea1f40 off=3 size=1 err=0 should_drop=0
UVM_INFO scoreboard.sv(178) @ 1510000: uvm_test_top.env.sb [scoreboard] [TX] data=0x00000000 off=0 size=1
UVM_INFO scoreboard.sv(216) @ 1510000: uvm_test_top.env.sb [scoreboard] TX MATCH OK: data=0x00000000 size=1
UVM_INFO scoreboard.sv(178) @ 1530000: uvm_test_top.env.sb [scoreboard] [TX] data=0x00000059 off=0 size=1
UVM_INFO scoreboard.sv(216) @ 1530000: uvm_test_top.env.sb [scoreboard] TX MATCH OK: data=0x00000059 size=1
UVM_INFO md_componentes.sv(41) @ 1530000: uvm_test_top.env.rx_agt.driver [RX_DRV] [RX] data=0xb3ea1f40 offset=3 size=1 valid=1 err=0
UVM_INFO md_sequences.sv(127) @ 1530000: uvm_test_top.env.rx_agt.sequencer@@rx_seq [rx_mixed_seq] Enviado LEGAL: off=3 size=1 data=0xb3ea1f40
UVM_INFO md_componentes.sv(227) @ 1550000: uvm_test_top.env.irq_mon [IRQ_MON] [IRQ] @ 1550000
UVM_INFO scoreboard.sv(225) @ 1550000: uvm_test_top.env.sb [scoreboard] [IRQ #16] @ 1550000
UVM_INFO scoreboard.sv(142) @ 1570000: uvm_test_top.env.sb [scoreboard] [RX] #21: data=0xf748298d off=0 size=1 err=0 should_drop=0
UVM_INFO scoreboard.sv(178) @ 1570000: uvm_test_top.env.sb [scoreboard] [TX] data=0x000000b3 off=0 size=1
UVM_INFO scoreboard.sv(216) @ 1570000: uvm_test_top.env.sb [scoreboard] TX MATCH OK: data=0x000000b3 size=1
UVM_INFO md_componentes.sv(227) @ 1590000: uvm_test_top.env.irq_mon [IRQ_MON] [IRQ] @ 1590000
UVM_INFO scoreboard.sv(225) @ 1590000: uvm_test_top.env.sb [scoreboard] [IRQ #17] @ 1590000
UVM_INFO md_componentes.sv(41) @ 1590000: uvm_test_top.env.rx_agt.driver [RX_DRV] [RX] data=0xf748298d offset=0 size=1 valid=1 err=0
UVM_INFO md_sequences.sv(127) @ 1590000: uvm_test_top.env.rx_agt.sequencer@@rx_seq [rx_mixed_seq] Enviado LEGAL: off=0 size=1 data=0xf748298d
UVM_INFO scoreboard.sv(142) @ 1630000: uvm_test_top.env.sb [scoreboard] [RX] #22: data=0x159ca3dc off=3 size=1 err=0 should_drop=0
UVM_INFO scoreboard.sv(178) @ 1630000: uvm_test_top.env.sb [scoreboard] [TX] data=0x0000008d off=0 size=1
UVM_INFO scoreboard.sv(216) @ 1630000: uvm_test_top.env.sb [scoreboard] TX MATCH OK: data=0x0000008d size=1
UVM_INFO md_componentes.sv(227) @ 1650000: uvm_test_top.env.irq_mon [IRQ_MON] [IRQ] @ 1650000
UVM_INFO scoreboard.sv(225) @ 1650000: uvm_test_top.env.sb [scoreboard] [IRQ #18] @ 1650000
UVM_INFO md_componentes.sv(41) @ 1650000: uvm_test_top.env.rx_agt.driver [RX_DRV] [RX] data=0x159ca3dc offset=3 size=1 valid=1 err=1
UVM_INFO md_sequences.sv(127) @ 1650000: uvm_test_top.env.rx_agt.sequencer@@rx_seq [rx_mixed_seq] Enviado LEGAL: off=3 size=1 data=0x159ca3dc
UVM_INFO scoreboard.sv(142) @ 1690000: uvm_test_top.env.sb [scoreboard] [RX] #23: data=0x566f3ae2 off=1 size=4 err=1 should_drop=1
UVM_INFO scoreboard.sv(155) @ 1690000: uvm_test_top.env.sb [scoreboard] DROP OK: RX#23 off=1 size=4
UVM_INFO scoreboard.sv(178) @ 1690000: uvm_test_top.env.sb [scoreboard] [TX] data=0x00000015 off=0 size=1
UVM_INFO scoreboard.sv(216) @ 1690000: uvm_test_top.env.sb [scoreboard] TX MATCH OK: data=0x00000015 size=1
UVM_INFO md_componentes.sv(227) @ 1710000: uvm_test_top.env.irq_mon [IRQ_MON] [IRQ] @ 1710000
UVM_INFO scoreboard.sv(225) @ 1710000: uvm_test_top.env.sb [scoreboard] [IRQ #19] @ 1710000
UVM_INFO md_componentes.sv(41) @ 1710000: uvm_test_top.env.rx_agt.driver [RX_DRV] [RX] data=0x566f3ae2 offset=1 size=4 valid=1 err=1
UVM_INFO md_sequences.sv(144) @ 1710000: uvm_test_top.env.rx_agt.sequencer@@rx_seq [rx_mixed_seq] Enviado ILEGAL: off=1 size=4 data=0x566f3ae2
UVM_INFO scoreboard.sv(142) @ 1750000: uvm_test_top.env.sb [scoreboard] [RX] #24: data=0x878cb8bb off=2 size=1 err=0 should_drop=0
UVM_INFO md_componentes.sv(41) @ 1770000: uvm_test_top.env.rx_agt.driver [RX_DRV] [RX] data=0x878cb8bb offset=2 size=1 valid=1 err=0
UVM_INFO md_sequences.sv(127) @ 1770000: uvm_test_top.env.rx_agt.sequencer@@rx_seq [rx_mixed_seq] Enviado LEGAL: off=2 size=1 data=0x878cb8bb
UVM_INFO md_componentes.sv(227) @ 1790000: uvm_test_top.env.irq_mon [IRQ_MON] [IRQ] @ 1790000
UVM_INFO scoreboard.sv(225) @ 1790000: uvm_test_top.env.sb [scoreboard] [IRQ #20] @ 1790000
UVM_INFO scoreboard.sv(142) @ 1810000: uvm_test_top.env.sb [scoreboard] [RX] #25: data=0x698f250a off=0 size=2 err=0 should_drop=0
UVM_INFO scoreboard.sv(178) @ 1810000: uvm_test_top.env.sb [scoreboard] [TX] data=0x0000008c off=0 size=1
UVM_INFO scoreboard.sv(216) @ 1810000: uvm_test_top.env.sb [scoreboard] TX MATCH OK: data=0x0000008c size=1
UVM_INFO md_componentes.sv(227) @ 1830000: uvm_test_top.env.irq_mon [IRQ_MON] [IRQ] @ 1830000
UVM_INFO scoreboard.sv(225) @ 1830000: uvm_test_top.env.sb [scoreboard] [IRQ #21] @ 1830000
UVM_INFO md_componentes.sv(41) @ 1830000: uvm_test_top.env.rx_agt.driver [RX_DRV] [RX] data=0x698f250a offset=0 size=2 valid=1 err=0
UVM_INFO md_sequences.sv(127) @ 1830000: uvm_test_top.env.rx_agt.sequencer@@rx_seq [rx_mixed_seq] Enviado LEGAL: off=0 size=2 data=0x698f250a
UVM_INFO scoreboard.sv(142) @ 1870000: uvm_test_top.env.sb [scoreboard] [RX] #26: data=0x6ed8a009 off=0 size=4 err=0 should_drop=0
UVM_INFO scoreboard.sv(178) @ 1870000: uvm_test_top.env.sb [scoreboard] [TX] data=0x0000000a off=0 size=1
UVM_INFO scoreboard.sv(216) @ 1870000: uvm_test_top.env.sb [scoreboard] TX MATCH OK: data=0x0000000a size=1
UVM_INFO scoreboard.sv(178) @ 1890000: uvm_test_top.env.sb [scoreboard] [TX] data=0x00000025 off=0 size=1
UVM_INFO scoreboard.sv(216) @ 1890000: uvm_test_top.env.sb [scoreboard] TX MATCH OK: data=0x00000025 size=1
UVM_INFO md_componentes.sv(41) @ 1890000: uvm_test_top.env.rx_agt.driver [RX_DRV] [RX] data=0x6ed8a009 offset=0 size=4 valid=1 err=0
UVM_INFO md_sequences.sv(127) @ 1890000: uvm_test_top.env.rx_agt.sequencer@@rx_seq [rx_mixed_seq] Enviado LEGAL: off=0 size=4 data=0x6ed8a009
UVM_INFO md_componentes.sv(227) @ 1910000: uvm_test_top.env.irq_mon [IRQ_MON] [IRQ] @ 1910000
UVM_INFO scoreboard.sv(225) @ 1910000: uvm_test_top.env.sb [scoreboard] [IRQ #22] @ 1910000
UVM_INFO scoreboard.sv(142) @ 1930000: uvm_test_top.env.sb [scoreboard] [RX] #27: data=0x130e07ad off=2 size=3 err=0 should_drop=0
