logs/failed_test_3.log
Chronologic VCS simulator copyright 1991-2020
Contains Synopsys proprietary information.
Compiler version R-2020.12-SP2; Runtime version R-2020.12-SP2;  Jun 15 00:36 2026
UVM_INFO /mnt/vol_NFS_rh003/tools/vcs/R-2020.12-SP2/etc/uvm-1.2/base/uvm_root.svh(402) @ 0: reporter [UVM/RELNOTES] 
----------------------------------------------------------------
UVM-1.2.Synopsys
(C) 2007-2014 Mentor Graphics Corporation
(C) 2007-2014 Cadence Design Systems, Inc.
(C) 2006-2014 Synopsys, Inc.
(C) 2011-2013 Cypress Semiconductor Corp.
(C) 2013-2014 NVIDIA Corporation
----------------------------------------------------------------

  ***********       IMPORTANT RELEASE NOTES         ************

  You are using a version of the UVM library that has been compiled
  with `UVM_NO_DEPRECATED undefined.
  See http://www.eda.org/svdb/view.php?id=3313 for more details.

  You are using a version of the UVM library that has been compiled
  with `UVM_OBJECT_DO_NOT_NEED_CONSTRUCTOR undefined.
  See http://www.eda.org/svdb/view.php?id=3770 for more details.

      (Specify +UVM_NO_RELNOTES to turn off this notice)

UVM_INFO tb_top.sv(133) @ 0: reporter [TB_TOP] All interfaces set in config_db
UVM_INFO tb_top.sv(146) @ 0: reporter [TB_TOP] RAL model created and set in config_db
UVM_INFO @ 0: reporter [RNTST] Running test test_general...
UVM_INFO aligner_env.sv(74) @ 0: uvm_test_top.env [aligner_env] Environment connected
UVM_INFO aligner_env.sv(78) @ 0: uvm_test_top.env [aligner_env] Simulation started
-------------------------------------------------------------------------------------------
Name                     Type                      Size  Value                             
-------------------------------------------------------------------------------------------
regmodel                 cfs_aligner_regs          -     @367                              
  ctrl                   cfs_aligner_regs__ctrl    -     @370                              
    size                 uvm_reg_field             ...    RW ctrl[2:0]=3'h1                
    reserved0            uvm_reg_field             ...    RO ctrl[7:3]=5'h00               
    offset               uvm_reg_field             ...    RW ctrl[9:8]=2'h0                
    reserved1            uvm_reg_field             ...    RO ctrl[15:10]=6'h00             
    clr                  uvm_reg_field             ...    WO ctrl[16:16]=1'h0              
    reserved2            uvm_reg_field             ...    RO ctrl[31:17]=15'h0000          
  status                 cfs_aligner_regs__status  -     @378                              
    cnt_drop             uvm_reg_field             ...    RO status[7:0]=8'h00             
    rx_lvl               uvm_reg_field             ...    RO status[11:8]=4'h0             
    reserved0            uvm_reg_field             ...    RO status[15:12]=4'h0            
    tx_lvl               uvm_reg_field             ...    RO status[19:16]=4'h0            
    reserved1            uvm_reg_field             ...    RO status[31:20]=12'h000         
  irqen                  cfs_aligner_regs__irqen   -     @385                              
    rx_fifo_empty        uvm_reg_field             ...    RW irqen[0:0]=1'h1               
    rx_fifo_full         uvm_reg_field             ...    RW irqen[1:1]=1'h1               
    tx_fifo_empty        uvm_reg_field             ...    RW irqen[2:2]=1'h1               
    tx_fifo_full         uvm_reg_field             ...    RW irqen[3:3]=1'h1               
    max_drop             uvm_reg_field             ...    RW irqen[4:4]=1'h1               
    reserved             uvm_reg_field             ...    RO irqen[31:5]=27'h0000000       
  irq                    cfs_aligner_regs__irq     -     @393                              
    rx_fifo_empty        uvm_reg_field             ...    W1C irq[0:0]=1'h0                
    rx_fifo_full         uvm_reg_field             ...    W1C irq[1:1]=1'h0                
    tx_fifo_empty        uvm_reg_field             ...    W1C irq[2:2]=1'h0                
    tx_fifo_full         uvm_reg_field             ...    W1C irq[3:3]=1'h0                
    max_drop             uvm_reg_field             ...    W1C irq[4:4]=1'h0                
    reserved             uvm_reg_field             ...    RO irq[31:5]=27'h0000000         
  reg_map                uvm_reg_map               -     @369                              
    endian                                         ...   UVM_NO_ENDIAN                     
    effective sequencer  apb_sequencer             ...   uvm_test_top.env.apb_agt.sequencer
    ctrl                 cfs_aligner_regs__ctrl    ...   @370 +'h0                         
    status               cfs_aligner_regs__status  ...   @378 +'hc                         
    irqen                cfs_aligner_regs__irqen   ...   @385 +'hf0                        
    irq                  cfs_aligner_regs__irq     ...   @393 +'hf4                        
-------------------------------------------------------------------------------------------
UVM_INFO test_general.sv(316) @ 0: uvm_test_top [test_general] 
==================================================
  TEST GENERAL CONFIGURATION
==================================================
  SEMILLA            = 468390399
  TEST_MODE          = FULL
  APB_NUM_TRANS      = 373
  MD_NUM_PKTS        = 79
  MD_PESO_LEGAL      = 71%
  CTRL_SIZE          = 1
  CTRL_OFFSET        = 0
  MD_PATRON          = ONES
  TIMEOUT_MS         = 472
==================================================
UVM_INFO tb_top.sv(116) @ 190000: reporter [TB_TOP] Reset deasserted
UVM_INFO md_componentes.sv(31) @ 210000: uvm_test_top.env.rx_agt.driver [RX_DRV] Reset liberado
UVM_INFO scoreboard.sv(127) @ 270000: uvm_test_top.env.sb [scoreboard] Config actualizada: offset=0 size=1 (pending_bytes=0 flushed)
UVM_INFO test_general.sv(118) @ 270000: uvm_test_top [test_general] CTRL configurado: size=1 offset=0
UVM_INFO test_general.sv(131) @ 350000: uvm_test_top [test_general] IRQEN configurado (todas las interrupciones habilitadas)
UVM_INFO test_general.sv(144) @ 350000: uvm_test_top [test_general] Drenando pipeline del DUT...
UVM_INFO test_general.sv(154) @ 430000: uvm_test_top [test_general] Pipeline drenado OK
UVM_INFO scoreboard.sv(122) @ 430000: uvm_test_top.env.sb [scoreboard] Scoreboard ARMADO — verificación activa
UVM_INFO test_general.sv(166) @ 430000: uvm_test_top [test_general] Iniciando 373 transacciones APB
UVM_INFO scoreboard.sv(127) @ 590000: uvm_test_top.env.sb [scoreboard] Config actualizada: offset=2 size=2 (pending_bytes=0 flushed)
UVM_WARNING apb_componentes.sv(142) @ 770000: uvm_test_top.env.apb_agt.driver [apb_driver] APB WRITE at addr 0x0 returned error (pslverr=1)
UVM_INFO test_general.sv(251) @ 930000: uvm_test_top [test_general] Iniciando MD: 56 legales, 23 ilegales, patrón=ONES
UVM_INFO scoreboard.sv(143) @ 950000: uvm_test_top.env.sb [scoreboard] [RX] #1: data=0xffffffff off=1 size=1 err=0 should_drop=0
UVM_INFO md_componentes.sv(41) @ 970000: uvm_test_top.env.rx_agt.driver [RX_DRV] [RX] data=0xffffffff offset=1 size=1 valid=1 err=1
UVM_INFO md_sequences.sv(127) @ 970000: uvm_test_top.env.rx_agt.sequencer@@rx_seq [rx_mixed_seq] Enviado LEGAL: off=1 size=1 data=0xffffffff
UVM_INFO md_componentes.sv(234) @ 990000: uvm_test_top.env.irq_mon [IRQ_MON] [IRQ] @ 990000
UVM_INFO scoreboard.sv(223) @ 990000: uvm_test_top.env.sb [scoreboard] [IRQ #1] @ 990000
UVM_INFO scoreboard.sv(143) @ 1010000: uvm_test_top.env.sb [scoreboard] [RX] #2: data=0xffffffff off=2 size=4 err=1 should_drop=1
UVM_INFO scoreboard.sv(156) @ 1010000: uvm_test_top.env.sb [scoreboard] DROP OK: RX#2 off=2 size=4
UVM_INFO md_componentes.sv(41) @ 1030000: uvm_test_top.env.rx_agt.driver [RX_DRV] [RX] data=0xffffffff offset=2 size=4 valid=1 err=0
UVM_INFO md_sequences.sv(144) @ 1030000: uvm_test_top.env.rx_agt.sequencer@@rx_seq [rx_mixed_seq] Enviado ILEGAL: off=2 size=4 data=0xffffffff
UVM_INFO scoreboard.sv(143) @ 1070000: uvm_test_top.env.sb [scoreboard] [RX] #3: data=0xffffffff off=2 size=2 err=0 should_drop=0
UVM_INFO md_componentes.sv(41) @ 1090000: uvm_test_top.env.rx_agt.driver [RX_DRV] [RX] data=0xffffffff offset=2 size=2 valid=1 err=1
UVM_INFO md_sequences.sv(127) @ 1090000: uvm_test_top.env.rx_agt.sequencer@@rx_seq [rx_mixed_seq] Enviado LEGAL: off=2 size=2 data=0xffffffff
UVM_INFO scoreboard.sv(143) @ 1130000: uvm_test_top.env.sb [scoreboard] [RX] #4: data=0xffffffff off=1 size=1 err=0 should_drop=0
UVM_INFO scoreboard.sv(187) @ 1130000: uvm_test_top.env.sb [scoreboard] [TX] data=0xffff0000 off=2 size=2
UVM_INFO scoreboard.sv(214) @ 1130000: uvm_test_top.env.sb [scoreboard] TX MATCH OK: data=0xffff0000 size=2
UVM_INFO md_componentes.sv(234) @ 1150000: uvm_test_top.env.irq_mon [IRQ_MON] [IRQ] @ 1150000
UVM_INFO scoreboard.sv(223) @ 1150000: uvm_test_top.env.sb [scoreboard] [IRQ #2] @ 1150000
UVM_INFO md_componentes.sv(41) @ 1150000: uvm_test_top.env.rx_agt.driver [RX_DRV] [RX] data=0xffffffff offset=1 size=1 valid=1 err=0
UVM_INFO md_sequences.sv(127) @ 1150000: uvm_test_top.env.rx_agt.sequencer@@rx_seq [rx_mixed_seq] Enviado LEGAL: off=1 size=1 data=0xffffffff
UVM_INFO scoreboard.sv(143) @ 1190000: uvm_test_top.env.sb [scoreboard] [RX] #5: data=0xffffffff off=2 size=4 err=1 should_drop=1
UVM_INFO scoreboard.sv(156) @ 1190000: uvm_test_top.env.sb [scoreboard] DROP OK: RX#5 off=2 size=4
UVM_INFO scoreboard.sv(187) @ 1190000: uvm_test_top.env.sb [scoreboard] [TX] data=0xffff0000 off=2 size=2
UVM_INFO scoreboard.sv(214) @ 1190000: uvm_test_top.env.sb [scoreboard] TX MATCH OK: data=0xffff0000 size=2
UVM_INFO md_componentes.sv(234) @ 1210000: uvm_test_top.env.irq_mon [IRQ_MON] [IRQ] @ 1210000
UVM_INFO scoreboard.sv(223) @ 1210000: uvm_test_top.env.sb [scoreboard] [IRQ #3] @ 1210000
UVM_INFO md_componentes.sv(41) @ 1210000: uvm_test_top.env.rx_agt.driver [RX_DRV] [RX] data=0xffffffff offset=2 size=4 valid=1 err=1
UVM_INFO md_sequences.sv(144) @ 1210000: uvm_test_top.env.rx_agt.sequencer@@rx_seq [rx_mixed_seq] Enviado ILEGAL: off=2 size=4 data=0xffffffff
UVM_INFO scoreboard.sv(143) @ 1250000: uvm_test_top.env.sb [scoreboard] [RX] #6: data=0xffffffff off=3 size=1 err=0 should_drop=0
UVM_INFO md_componentes.sv(41) @ 1270000: uvm_test_top.env.rx_agt.driver [RX_DRV] [RX] data=0xffffffff offset=3 size=1 valid=1 err=1
UVM_INFO md_sequences.sv(127) @ 1270000: uvm_test_top.env.rx_agt.sequencer@@rx_seq [rx_mixed_seq] Enviado LEGAL: off=3 size=1 data=0xffffffff
UVM_INFO md_componentes.sv(234) @ 1290000: uvm_test_top.env.irq_mon [IRQ_MON] [IRQ] @ 1290000
UVM_INFO scoreboard.sv(223) @ 1290000: uvm_test_top.env.sb [scoreboard] [IRQ #4] @ 1290000
UVM_INFO md_componentes.sv(41) @ 1310000: uvm_test_top.env.rx_agt.driver [RX_DRV] [RX] data=0xffffffff offset=2 size=4 valid=0 err=0
UVM_INFO md_sequences.sv(144) @ 1310000: uvm_test_top.env.rx_agt.sequencer@@rx_seq [rx_mixed_seq] Enviado ILEGAL: off=2 size=4 data=0xffffffff
UVM_WARNING apb_componentes.sv(142) @ 1350000: uvm_test_top.env.apb_agt.driver [apb_driver] APB WRITE at addr 0x0 returned error (pslverr=1)
UVM_INFO scoreboard.sv(143) @ 1350000: uvm_test_top.env.sb [scoreboard] [RX] #7: data=0xffffffff off=0 size=4 err=0 should_drop=0
UVM_INFO md_componentes.sv(41) @ 1370000: uvm_test_top.env.rx_agt.driver [RX_DRV] [RX] data=0xffffffff offset=0 size=4 valid=1 err=0
UVM_INFO md_sequences.sv(127) @ 1370000: uvm_test_top.env.rx_agt.sequencer@@rx_seq [rx_mixed_seq] Enviado LEGAL: off=0 size=4 data=0xffffffff
UVM_INFO md_componentes.sv(234) @ 1390000: uvm_test_top.env.irq_mon [IRQ_MON] [IRQ] @ 1390000
UVM_INFO scoreboard.sv(223) @ 1390000: uvm_test_top.env.sb [scoreboard] [IRQ #5] @ 1390000
UVM_INFO scoreboard.sv(143) @ 1410000: uvm_test_top.env.sb [scoreboard] [RX] #8: data=0xffffffff off=1 size=4 err=1 should_drop=1
UVM_INFO scoreboard.sv(156) @ 1410000: uvm_test_top.env.sb [scoreboard] DROP OK: RX#8 off=1 size=4
UVM_INFO scoreboard.sv(187) @ 1410000: uvm_test_top.env.sb [scoreboard] [TX] data=0xffff0000 off=2 size=2
UVM_INFO scoreboard.sv(214) @ 1410000: uvm_test_top.env.sb [scoreboard] TX MATCH OK: data=0xffff0000 size=2
UVM_INFO scoreboard.sv(127) @ 1430000: uvm_test_top.env.sb [scoreboard] Config actualizada: offset=0 size=4 (pending_bytes=1 flushed)
UVM_INFO scoreboard.sv(187) @ 1430000: uvm_test_top.env.sb [scoreboard] [TX] data=0xffff0000 off=2 size=2
UVM_INFO scoreboard.sv(214) @ 1430000: uvm_test_top.env.sb [scoreboard] TX MATCH OK: data=0xffff0000 size=2
UVM_INFO md_componentes.sv(41) @ 1430000: uvm_test_top.env.rx_agt.driver [RX_DRV] [RX] data=0xffffffff offset=1 size=4 valid=1 err=1
UVM_INFO md_sequences.sv(144) @ 1430000: uvm_test_top.env.rx_agt.sequencer@@rx_seq [rx_mixed_seq] Enviado ILEGAL: off=1 size=4 data=0xffffffff
UVM_INFO md_componentes.sv(234) @ 1450000: uvm_test_top.env.irq_mon [IRQ_MON] [IRQ] @ 1450000
UVM_INFO scoreboard.sv(223) @ 1450000: uvm_test_top.env.sb [scoreboard] [IRQ #6] @ 1450000
UVM_INFO scoreboard.sv(143) @ 1470000: uvm_test_top.env.sb [scoreboard] [RX] #9: data=0xffffffff off=2 size=4 err=1 should_drop=1
UVM_INFO scoreboard.sv(156) @ 1470000: uvm_test_top.env.sb [scoreboard] DROP OK: RX#9 off=2 size=4
UVM_INFO md_componentes.sv(41) @ 1490000: uvm_test_top.env.rx_agt.driver [RX_DRV] [RX] data=0xffffffff offset=2 size=4 valid=1 err=0
UVM_INFO md_sequences.sv(144) @ 1490000: uvm_test_top.env.rx_agt.sequencer@@rx_seq [rx_mixed_seq] Enviado ILEGAL: off=2 size=4 data=0xffffffff
UVM_INFO scoreboard.sv(143) @ 1530000: uvm_test_top.env.sb [scoreboard] [RX] #10: data=0xffffffff off=0 size=2 err=0 should_drop=0
UVM_INFO md_componentes.sv(41) @ 1550000: uvm_test_top.env.rx_agt.driver [RX_DRV] [RX] data=0xffffffff offset=0 size=2 valid=1 err=0
UVM_INFO md_sequences.sv(127) @ 1550000: uvm_test_top.env.rx_agt.sequencer@@rx_seq [rx_mixed_seq] Enviado LEGAL: off=0 size=2 data=0xffffffff
UVM_INFO md_componentes.sv(234) @ 1570000: uvm_test_top.env.irq_mon [IRQ_MON] [IRQ] @ 1570000
UVM_INFO scoreboard.sv(223) @ 1570000: uvm_test_top.env.sb [scoreboard] [IRQ #7] @ 1570000
UVM_INFO scoreboard.sv(143) @ 1590000: uvm_test_top.env.sb [scoreboard] [RX] #11: data=0xffffffff off=1 size=3 err=1 should_drop=1
UVM_INFO scoreboard.sv(156) @ 1590000: uvm_test_top.env.sb [scoreboard] DROP OK: RX#11 off=1 size=3
UVM_INFO md_componentes.sv(41) @ 1610000: uvm_test_top.env.rx_agt.driver [RX_DRV] [RX] data=0xffffffff offset=1 size=3 valid=1 err=0
UVM_INFO md_sequences.sv(144) @ 1610000: uvm_test_top.env.rx_agt.sequencer@@rx_seq [rx_mixed_seq] Enviado ILEGAL: off=1 size=3 data=0xffffffff
UVM_INFO scoreboard.sv(143) @ 1650000: uvm_test_top.env.sb [scoreboard] [RX] #12: data=0xffffffff off=2 size=4 err=1 should_drop=1
UVM_INFO scoreboard.sv(156) @ 1650000: uvm_test_top.env.sb [scoreboard] DROP OK: RX#12 off=2 size=4
UVM_INFO md_componentes.sv(41) @ 1670000: uvm_test_top.env.rx_agt.driver [RX_DRV] [RX] data=0xffffffff offset=2 size=4 valid=1 err=0
UVM_INFO md_sequences.sv(144) @ 1670000: uvm_test_top.env.rx_agt.sequencer@@rx_seq [rx_mixed_seq] Enviado ILEGAL: off=2 size=4 data=0xffffffff
UVM_INFO scoreboard.sv(143) @ 1710000: uvm_test_top.env.sb [scoreboard] [RX] #13: data=0xffffffff off=2 size=3 err=0 should_drop=0
UVM_INFO md_componentes.sv(41) @ 1730000: uvm_test_top.env.rx_agt.driver [RX_DRV] [RX] data=0xffffffff offset=2 size=3 valid=1 err=0
UVM_INFO md_sequences.sv(127) @ 1730000: uvm_test_top.env.rx_agt.sequencer@@rx_seq [rx_mixed_seq] Enviado LEGAL: off=2 size=3 data=0xffffffff
UVM_INFO md_componentes.sv(234) @ 1750000: uvm_test_top.env.irq_mon [IRQ_MON] [IRQ] @ 1750000
UVM_INFO scoreboard.sv(223) @ 1750000: uvm_test_top.env.sb [scoreboard] [IRQ #8] @ 1750000
UVM_INFO scoreboard.sv(143) @ 1770000: uvm_test_top.env.sb [scoreboard] [RX] #14: data=0xffffffff off=0 size=2 err=0 should_drop=0
UVM_INFO scoreboard.sv(187) @ 1770000: uvm_test_top.env.sb [scoreboard] [TX] data=0xffffff00 off=0 size=4
UVM_ERROR scoreboard.sv(202) @ 1770000: uvm_test_top.env.sb [scoreboard] TX DATA MISMATCH:
  Esperado: 0xffffffff (size=4)
  Recibido: 0xffffff00 (size=4)
UVM_INFO md_componentes.sv(234) @ 1790000: uvm_test_top.env.irq_mon [IRQ_MON] [IRQ] @ 1790000
UVM_INFO scoreboard.sv(223) @ 1790000: uvm_test_top.env.sb [scoreboard] [IRQ #9] @ 1790000
UVM_INFO md_componentes.sv(41) @ 1790000: uvm_test_top.env.rx_agt.driver [RX_DRV] [RX] data=0xffffffff offset=0 size=2 valid=1 err=1
UVM_INFO md_sequences.sv(127) @ 1790000: uvm_test_top.env.rx_agt.sequencer@@rx_seq [rx_mixed_seq] Enviado LEGAL: off=0 size=2 data=0xffffffff
UVM_INFO scoreboard.sv(143) @ 1830000: uvm_test_top.env.sb [scoreboard] [RX] #15: data=0xffffffff off=2 size=3 err=0 should_drop=0
UVM_INFO scoreboard.sv(187) @ 1830000: uvm_test_top.env.sb [scoreboard] [TX] data=0xffff00ff off=0 size=4
UVM_ERROR scoreboard.sv(202) @ 1830000: uvm_test_top.env.sb [scoreboard] TX DATA MISMATCH:
  Esperado: 0xffffffff (size=4)
  Recibido: 0xffff00ff (size=4)
UVM_INFO md_componentes.sv(234) @ 1850000: uvm_test_top.env.irq_mon [IRQ_MON] [IRQ] @ 1850000
UVM_INFO scoreboard.sv(223) @ 1850000: uvm_test_top.env.sb [scoreboard] [IRQ #10] @ 1850000
UVM_INFO md_componentes.sv(41) @ 1850000: uvm_test_top.env.rx_agt.driver [RX_DRV] [RX] data=0xffffffff offset=2 size=3 valid=1 err=0
UVM_INFO md_sequences.sv(127) @ 1850000: uvm_test_top.env.rx_agt.sequencer@@rx_seq [rx_mixed_seq] Enviado LEGAL: off=2 size=3 data=0xffffffff
UVM_INFO scoreboard.sv(143) @ 1890000: uvm_test_top.env.sb [scoreboard] [RX] #16: data=0xffffffff off=2 size=3 err=0 should_drop=0
UVM_INFO scoreboard.sv(127) @ 1910000: uvm_test_top.env.sb [scoreboard] Config actualizada: offset=2 size=3 (pending_bytes=2 flushed)
UVM_INFO md_componentes.sv(41) @ 1910000: uvm_test_top.env.rx_agt.driver [RX_DRV] [RX] data=0xffffffff offset=2 size=3 valid=1 err=0
UVM_INFO md_sequences.sv(127) @ 1910000: uvm_test_top.env.rx_agt.sequencer@@rx_seq [rx_mixed_seq] Enviado LEGAL: off=2 size=3 data=0xffffffff
UVM_INFO md_componentes.sv(234) @ 1930000: uvm_test_top.env.irq_mon [IRQ_MON] [IRQ] @ 1930000
UVM_INFO scoreboard.sv(223) @ 1930000: uvm_test_top.env.sb [scoreboard] [IRQ #11] @ 1930000
UVM_INFO scoreboard.sv(143) @ 1950000: uvm_test_top.env.sb [scoreboard] [RX] #17: data=0xffffffff off=1 size=1 err=0 should_drop=0
UVM_INFO scoreboard.sv(187) @ 1950000: uvm_test_top.env.sb [scoreboard] [TX] data=0x0000ffff off=2 size=3
UVM_WARNING scoreboard.sv(193) @ 1950000: uvm_test_top.env.sb [scoreboard] TX sin esperado en cola (residual de cambio CTRL): data=0x0000ffff size=3 — ignorado
UVM_INFO scoreboard.sv(187) @ 1970000: uvm_test_top.env.sb [scoreboard] [TX] data=0xffff0000 off=2 size=3
UVM_WARNING scoreboard.sv(193) @ 1970000: uvm_test_top.env.sb [scoreboard] TX sin esperado en cola (residual de cambio CTRL): data=0xffff0000 size=3 — ignorado
UVM_INFO md_componentes.sv(41) @ 1970000: uvm_test_top.env.rx_agt.driver [RX_DRV] [RX] data=0xffffffff offset=1 size=1 valid=1 err=0
UVM_INFO md_sequences.sv(127) @ 1970000: uvm_test_top.env.rx_agt.sequencer@@rx_seq [rx_mixed_seq] Enviado LEGAL: off=1 size=1 data=0xffffffff
UVM_INFO md_componentes.sv(234) @ 1990000: uvm_test_top.env.irq_mon [IRQ_MON] [IRQ] @ 1990000
UVM_INFO scoreboard.sv(223) @ 1990000: uvm_test_top.env.sb [scoreboard] [IRQ #12] @ 1990000
UVM_INFO scoreboard.sv(143) @ 2010000: uvm_test_top.env.sb [scoreboard] [RX] #18: data=0xffffffff off=0 size=2 err=0 should_drop=0
UVM_INFO md_componentes.sv(41) @ 2030000: uvm_test_top.env.rx_agt.driver [RX_DRV] [RX] data=0xffffffff offset=0 size=2 valid=1 err=1
UVM_INFO md_sequences.sv(127) @ 2030000: uvm_test_top.env.rx_agt.sequencer@@rx_seq [rx_mixed_seq] Enviado LEGAL: off=0 size=2 data=0xffffffff
UVM_INFO md_componentes.sv(234) @ 2050000: uvm_test_top.env.irq_mon [IRQ_MON] [IRQ] @ 2050000
UVM_INFO scoreboard.sv(223) @ 2050000: uvm_test_top.env.sb [scoreboard] [IRQ #13] @ 2050000
UVM_INFO scoreboard.sv(127) @ 2070000: uvm_test_top.env.sb [scoreboard] Config actualizada: offset=2 size=2 (pending_bytes=0 flushed)
UVM_INFO scoreboard.sv(143) @ 2070000: uvm_test_top.env.sb [scoreboard] [RX] #19: data=0xffffffff off=3 size=3 err=1 should_drop=1
UVM_INFO scoreboard.sv(156) @ 2070000: uvm_test_top.env.sb [scoreboard] DROP OK: RX#19 off=3 size=3
UVM_INFO scoreboard.sv(187) @ 2070000: uvm_test_top.env.sb [scoreboard] [TX] data=0xffff0000 off=2 size=3
UVM_INFO scoreboard.sv(214) @ 2070000: uvm_test_top.env.sb [scoreboard] TX MATCH OK: data=0xffff0000 size=3
UVM_INFO md_componentes.sv(234) @ 2090000: uvm_test_top.env.irq_mon [IRQ_MON] [IRQ] @ 2090000
UVM_INFO scoreboard.sv(223) @ 2090000: uvm_test_top.env.sb [scoreboard] [IRQ #14] @ 2090000
UVM_INFO md_componentes.sv(41) @ 2090000: uvm_test_top.env.rx_agt.driver [RX_DRV] [RX] data=0xffffffff offset=3 size=3 valid=1 err=0
UVM_INFO md_sequences.sv(144) @ 2090000: uvm_test_top.env.rx_agt.sequencer@@rx_seq [rx_mixed_seq] Enviado ILEGAL: off=3 size=3 data=0xffffffff
UVM_INFO scoreboard.sv(143) @ 2130000: uvm_test_top.env.sb [scoreboard] [RX] #20: data=0xffffffff off=2 size=1 err=0 should_drop=0
UVM_INFO md_componentes.sv(41) @ 2150000: uvm_test_top.env.rx_agt.driver [RX_DRV] [RX] data=0xffffffff offset=2 size=1 valid=1 err=0
UVM_INFO md_sequences.sv(127) @ 2150000: uvm_test_top.env.rx_agt.sequencer@@rx_seq [rx_mixed_seq] Enviado LEGAL: off=2 size=1 data=0xffffffff
UVM_INFO md_componentes.sv(234) @ 2170000: uvm_test_top.env.irq_mon [IRQ_MON] [IRQ] @ 2170000
UVM_INFO scoreboard.sv(223) @ 2170000: uvm_test_top.env.sb [scoreboard] [IRQ #15] @ 2170000
UVM_INFO scoreboard.sv(143) @ 2190000: uvm_test_top.env.sb [scoreboard] [RX] #21: data=0xffffffff off=2 size=4 err=1 should_drop=1
UVM_INFO scoreboard.sv(156) @ 2190000: uvm_test_top.env.sb [scoreboard] DROP OK: RX#21 off=2 size=4
UVM_INFO md_componentes.sv(41) @ 2210000: uvm_test_top.env.rx_agt.driver [RX_DRV] [RX] data=0xffffffff offset=2 size=4 valid=1 err=1
UVM_INFO md_sequences.sv(144) @ 2210000: uvm_test_top.env.rx_agt.sequencer@@rx_seq [rx_mixed_seq] Enviado ILEGAL: off=2 size=4 data=0xffffffff
UVM_INFO scoreboard.sv(143) @ 2250000: uvm_test_top.env.sb [scoreboard] [RX] #22: data=0xffffffff off=2 size=1 err=0 should_drop=0
UVM_INFO md_componentes.sv(41) @ 2270000: uvm_test_top.env.rx_agt.driver [RX_DRV] [RX] data=0xffffffff offset=2 size=1 valid=1 err=0
UVM_INFO md_sequences.sv(127) @ 2270000: uvm_test_top.env.rx_agt.sequencer@@rx_seq [rx_mixed_seq] Enviado LEGAL: off=2 size=1 data=0xffffffff
UVM_INFO scoreboard.sv(143) @ 2310000: uvm_test_top.env.sb [scoreboard] [RX] #23: data=0xffffffff off=0 size=1 err=0 should_drop=0
UVM_INFO scoreboard.sv(187) @ 2310000: uvm_test_top.env.sb [scoreboard] [TX] data=0xffff0000 off=2 size=2
UVM_INFO scoreboard.sv(214) @ 2310000: uvm_test_top.env.sb [scoreboard] TX MATCH OK: data=0xffff0000 size=2
UVM_INFO md_componentes.sv(234) @ 2330000: uvm_test_top.env.irq_mon [IRQ_MON] [IRQ] @ 2330000
UVM_INFO scoreboard.sv(223) @ 2330000: uvm_test_top.env.sb [scoreboard] [IRQ #16] @ 2330000
UVM_INFO md_componentes.sv(41) @ 2330000: uvm_test_top.env.rx_agt.driver [RX_DRV] [RX] data=0xffffffff offset=0 size=1 valid=1 err=0
UVM_INFO md_sequences.sv(127) @ 2330000: uvm_test_top.env.rx_agt.sequencer@@rx_seq [rx_mixed_seq] Enviado LEGAL: off=0 size=1 data=0xffffffff
UVM_INFO scoreboard.sv(143) @ 2370000: uvm_test_top.env.sb [scoreboard] [RX] #24: data=0xffffffff off=0 size=4 err=0 should_drop=0
UVM_INFO md_componentes.sv(41) @ 2390000: uvm_test_top.env.rx_agt.driver [RX_DRV] [RX] data=0xffffffff offset=0 size=4 valid=1 err=0
UVM_INFO md_sequences.sv(127) @ 2390000: uvm_test_top.env.rx_agt.sequencer@@rx_seq [rx_mixed_seq] Enviado LEGAL: off=0 size=4 data=0xffffffff
UVM_INFO scoreboard.sv(143) @ 2430000: uvm_test_top.env.sb [scoreboard] [RX] #25: data=0xffffffff off=0 size=1 err=0 should_drop=0
UVM_INFO scoreboard.sv(187) @ 2430000: uvm_test_top.env.sb [scoreboard] [TX] data=0xffff0000 off=2 size=2
UVM_INFO scoreboard.sv(214) @ 2430000: uvm_test_top.env.sb [scoreboard] TX MATCH OK: data=0xffff0000 size=2
UVM_INFO scoreboard.sv(187) @ 2450000: uvm_test_top.env.sb [scoreboard] [TX] data=0xffff0000 off=2 size=2
UVM_INFO scoreboard.sv(214) @ 2450000: uvm_test_top.env.sb [scoreboard] TX MATCH OK: data=0xffff0000 size=2
UVM_INFO md_componentes.sv(41) @ 2450000: uvm_test_top.env.rx_agt.driver [RX_DRV] [RX] data=0xffffffff offset=0 size=1 valid=1 err=1
UVM_INFO md_sequences.sv(127) @ 2450000: uvm_test_top.env.rx_agt.sequencer@@rx_seq [rx_mixed_seq] Enviado LEGAL: off=0 size=1 data=0xffffffff
UVM_INFO md_componentes.sv(234) @ 2470000: uvm_test_top.env.irq_mon [IRQ_MON] [IRQ] @ 2470000
UVM_INFO scoreboard.sv(223) @ 2470000: uvm_test_top.env.sb [scoreboard] [IRQ #17] @ 2470000
UVM_INFO scoreboard.sv(143) @ 2490000: uvm_test_top.env.sb [scoreboard] [RX] #26: data=0xffffffff off=1 size=1 err=0 should_drop=0
UVM_INFO scoreboard.sv(187) @ 2490000: uvm_test_top.env.sb [scoreboard] [TX] data=0xffff0000 off=2 size=2
UVM_INFO scoreboard.sv(214) @ 2490000: uvm_test_top.env.sb [scoreboard] TX MATCH OK: data=0xffff0000 size=2
UVM_INFO md_componentes.sv(234) @ 2510000: uvm_test_top.env.irq_mon [IRQ_MON] [IRQ] @ 2510000
UVM_INFO scoreboard.sv(223) @ 2510000: uvm_test_top.env.sb [scoreboard] [IRQ #18] @ 2510000
UVM_INFO md_componentes.sv(41) @ 2510000: uvm_test_top.env.rx_agt.driver [RX_DRV] [RX] data=0xffffffff offset=1 size=1 valid=1 err=1
UVM_INFO md_sequences.sv(127) @ 2510000: uvm_test_top.env.rx_agt.sequencer@@rx_seq [rx_mixed_seq] Enviado LEGAL: off=1 size=1 data=0xffffffff
UVM_INFO scoreboard.sv(143) @ 2550000: uvm_test_top.env.sb [scoreboard] [RX] #27: data=0xffffffff off=3 size=2 err=1 should_drop=1
UVM_INFO scoreboard.sv(156) @ 2550000: uvm_test_top.env.sb [scoreboard] DROP OK: RX#27 off=3 size=2
UVM_INFO md_componentes.sv(41) @ 2570000: uvm_test_top.env.rx_agt.driver [RX_DRV] [RX] data=0xffffffff offset=3 size=2 valid=1 err=0
UVM_INFO md_sequences.sv(144) @ 2570000: uvm_test_top.env.rx_agt.sequencer@@rx_seq [rx_mixed_seq] Enviado ILEGAL: off=3 size=2 data=0xffffffff
UVM_INFO scoreboard.sv(143) @ 2610000: uvm_test_top.env.sb [scoreboard] [RX] #28: data=0xffffffff off=3 size=3 err=1 should_drop=1
UVM_INFO scoreboard.sv(156) @ 2610000: uvm_test_top.env.sb [scoreboard] DROP OK: RX#28 off=3 size=3
UVM_INFO md_componentes.sv(41) @ 2630000: uvm_test_top.env.rx_agt.driver [RX_DRV] [RX] data=0xffffffff offset=3 size=3 valid=1 err=1
UVM_INFO md_sequences.sv(144) @ 2630000: uvm_test_top.env.rx_agt.sequencer@@rx_seq [rx_mixed_seq] Enviado ILEGAL: off=3 size=3 data=0xffffffff
