logs/failed_test_5.log
Chronologic VCS simulator copyright 1991-2020
Contains Synopsys proprietary information.
Compiler version R-2020.12-SP2; Runtime version R-2020.12-SP2;  Jun  8 21:23 2026
UVM_INFO /mnt/vol_NFS_rh003/tools/vcs/R-2020.12-SP2/etc/uvm-1.2/base/uvm_root.svh(402) @ 0: reporter [UVM/RELNOTES] 
----------------------------------------------------------------
UVM-1.2.Synopsys
(C) 2007-2014 Mentor Graphics Corporation
(C) 2007-2014 Cadence Design Systems, Inc.
(C) 2006-2014 Synopsys, Inc.
(C) 2011-2013 Cypress Semiconductor Corp.
(C) 2013-2014 NVIDIA Corporation
----------------------------------------------------------------

  ***********       IMPORTANT RELEASE NOTES         ************

  You are using a version of the UVM library that has been compiled
  with `UVM_NO_DEPRECATED undefined.
  See http://www.eda.org/svdb/view.php?id=3313 for more details.

  You are using a version of the UVM library that has been compiled
  with `UVM_OBJECT_DO_NOT_NEED_CONSTRUCTOR undefined.
  See http://www.eda.org/svdb/view.php?id=3770 for more details.

      (Specify +UVM_NO_RELNOTES to turn off this notice)

UVM_INFO tb_top.sv(133) @ 0: reporter [TB_TOP] All interfaces set in config_db
UVM_INFO tb_top.sv(146) @ 0: reporter [TB_TOP] RAL model created and set in config_db
UVM_INFO @ 0: reporter [RNTST] Running test test_general...
UVM_INFO aligner_env.sv(74) @ 0: uvm_test_top.env [aligner_env] Environment connected
UVM_INFO aligner_env.sv(78) @ 0: uvm_test_top.env [aligner_env] Simulation started
-------------------------------------------------------------------------------------------
Name                     Type                      Size  Value                             
-------------------------------------------------------------------------------------------
regmodel                 cfs_aligner_regs          -     @367                              
  ctrl                   cfs_aligner_regs__ctrl    -     @370                              
    size                 uvm_reg_field             ...    RW ctrl[2:0]=3'h1                
    reserved0            uvm_reg_field             ...    RO ctrl[7:3]=5'h00               
    offset               uvm_reg_field             ...    RW ctrl[9:8]=2'h0                
    reserved1            uvm_reg_field             ...    RO ctrl[15:10]=6'h00             
    clr                  uvm_reg_field             ...    WO ctrl[16:16]=1'h0              
    reserved2            uvm_reg_field             ...    RO ctrl[31:17]=15'h0000          
  status                 cfs_aligner_regs__status  -     @378                              
    cnt_drop             uvm_reg_field             ...    RO status[7:0]=8'h00             
    rx_lvl               uvm_reg_field             ...    RO status[11:8]=4'h0             
    reserved0            uvm_reg_field             ...    RO status[15:12]=4'h0            
    tx_lvl               uvm_reg_field             ...    RO status[19:16]=4'h0            
    reserved1            uvm_reg_field             ...    RO status[31:20]=12'h000         
  irqen                  cfs_aligner_regs__irqen   -     @385                              
    rx_fifo_empty        uvm_reg_field             ...    RW irqen[0:0]=1'h1               
    rx_fifo_full         uvm_reg_field             ...    RW irqen[1:1]=1'h1               
    tx_fifo_empty        uvm_reg_field             ...    RW irqen[2:2]=1'h1               
    tx_fifo_full         uvm_reg_field             ...    RW irqen[3:3]=1'h1               
    max_drop             uvm_reg_field             ...    RW irqen[4:4]=1'h1               
    reserved             uvm_reg_field             ...    RO irqen[31:5]=27'h0000000       
  irq                    cfs_aligner_regs__irq     -     @393                              
    rx_fifo_empty        uvm_reg_field             ...    W1C irq[0:0]=1'h0                
    rx_fifo_full         uvm_reg_field             ...    W1C irq[1:1]=1'h0                
    tx_fifo_empty        uvm_reg_field             ...    W1C irq[2:2]=1'h0                
    tx_fifo_full         uvm_reg_field             ...    W1C irq[3:3]=1'h0                
    max_drop             uvm_reg_field             ...    W1C irq[4:4]=1'h0                
    reserved             uvm_reg_field             ...    RO irq[31:5]=27'h0000000         
  reg_map                uvm_reg_map               -     @369                              
    endian                                         ...   UVM_NO_ENDIAN                     
    effective sequencer  apb_sequencer             ...   uvm_test_top.env.apb_agt.sequencer
    ctrl                 cfs_aligner_regs__ctrl    ...   @370 +'h0                         
    status               cfs_aligner_regs__status  ...   @378 +'hc                         
    irqen                cfs_aligner_regs__irqen   ...   @385 +'hf0                        
    irq                  cfs_aligner_regs__irq     ...   @393 +'hf4                        
-------------------------------------------------------------------------------------------
UVM_INFO test_general.sv(281) @ 0: uvm_test_top [test_general] 
==================================================
  TEST GENERAL CONFIGURATION
==================================================
  SEMILLA            = 781925265
  TEST_MODE          = MD_ONLY
  APB_NUM_TRANS      = 150
  MD_NUM_PKTS        = 218
  MD_PESO_LEGAL      = 71%
  CTRL_SIZE          = 1
  CTRL_OFFSET        = 0
  MD_PATRON          = FIXED
  TIMEOUT_MS         = 197
==================================================
UVM_INFO tb_top.sv(116) @ 190000: reporter [TB_TOP] Reset deasserted
UVM_INFO md_componentes.sv(31) @ 210000: uvm_test_top.env.rx_agt.driver [RX_DRV] Reset liberado
UVM_INFO scoreboard.sv(132) @ 270000: uvm_test_top.env.sb [scoreboard] Config actualizada: offset=0 size=1
UVM_INFO test_general.sv(128) @ 270000: uvm_test_top [test_general] CTRL configurado: size=1 offset=0
UVM_INFO test_general.sv(143) @ 350000: uvm_test_top [test_general] IRQEN configurado (todas las interrupciones habilitadas)
UVM_INFO test_general.sv(236) @ 350000: uvm_test_top [test_general] Iniciando MD: 154 legales, 64 ilegales, patrón=FIXED
UVM_INFO md_componentes.sv(41) @ 370000: uvm_test_top.env.rx_agt.driver [RX_DRV] [RX] data=0xa5a5a5a5 offset=0 size=3 valid=0 err=1
UVM_INFO md_sequences.sv(144) @ 370000: uvm_test_top.env.rx_agt.sequencer@@rx_seq [rx_mixed_seq] Enviado ILEGAL: off=0 size=3 data=0xa5a5a5a5
UVM_INFO scoreboard.sv(142) @ 410000: uvm_test_top.env.sb [scoreboard] [RX] #1: data=0xa5a5a5a5 off=0 size=2 err=0 should_drop=0
UVM_INFO md_componentes.sv(41) @ 430000: uvm_test_top.env.rx_agt.driver [RX_DRV] [RX] data=0xa5a5a5a5 offset=0 size=2 valid=1 err=1
UVM_INFO md_sequences.sv(127) @ 430000: uvm_test_top.env.rx_agt.sequencer@@rx_seq [rx_mixed_seq] Enviado LEGAL: off=0 size=2 data=0xa5a5a5a5
UVM_INFO md_componentes.sv(227) @ 450000: uvm_test_top.env.irq_mon [IRQ_MON] [IRQ] @ 450000
UVM_INFO scoreboard.sv(225) @ 450000: uvm_test_top.env.sb [scoreboard] [IRQ #1] @ 450000
UVM_INFO scoreboard.sv(142) @ 470000: uvm_test_top.env.sb [scoreboard] [RX] #2: data=0xa5a5a5a5 off=0 size=3 err=1 should_drop=1
UVM_INFO scoreboard.sv(155) @ 470000: uvm_test_top.env.sb [scoreboard] DROP OK: RX#2 off=0 size=3
UVM_INFO scoreboard.sv(178) @ 470000: uvm_test_top.env.sb [scoreboard] [TX] data=0x000000a5 off=0 size=1
UVM_INFO scoreboard.sv(216) @ 470000: uvm_test_top.env.sb [scoreboard] TX MATCH OK: data=0x000000a5 size=1
UVM_INFO scoreboard.sv(178) @ 490000: uvm_test_top.env.sb [scoreboard] [TX] data=0x000000a5 off=0 size=1
UVM_INFO scoreboard.sv(216) @ 490000: uvm_test_top.env.sb [scoreboard] TX MATCH OK: data=0x000000a5 size=1
UVM_INFO md_componentes.sv(41) @ 490000: uvm_test_top.env.rx_agt.driver [RX_DRV] [RX] data=0xa5a5a5a5 offset=0 size=3 valid=1 err=1
UVM_INFO md_sequences.sv(144) @ 490000: uvm_test_top.env.rx_agt.sequencer@@rx_seq [rx_mixed_seq] Enviado ILEGAL: off=0 size=3 data=0xa5a5a5a5
UVM_INFO md_componentes.sv(227) @ 510000: uvm_test_top.env.irq_mon [IRQ_MON] [IRQ] @ 510000
UVM_INFO scoreboard.sv(225) @ 510000: uvm_test_top.env.sb [scoreboard] [IRQ #2] @ 510000
UVM_INFO scoreboard.sv(142) @ 530000: uvm_test_top.env.sb [scoreboard] [RX] #3: data=0xa5a5a5a5 off=2 size=3 err=0 should_drop=0
UVM_INFO md_componentes.sv(41) @ 550000: uvm_test_top.env.rx_agt.driver [RX_DRV] [RX] data=0xa5a5a5a5 offset=2 size=3 valid=1 err=1
UVM_INFO md_sequences.sv(127) @ 550000: uvm_test_top.env.rx_agt.sequencer@@rx_seq [rx_mixed_seq] Enviado LEGAL: off=2 size=3 data=0xa5a5a5a5
UVM_INFO md_componentes.sv(227) @ 570000: uvm_test_top.env.irq_mon [IRQ_MON] [IRQ] @ 570000
UVM_INFO scoreboard.sv(225) @ 570000: uvm_test_top.env.sb [scoreboard] [IRQ #3] @ 570000
UVM_INFO scoreboard.sv(142) @ 590000: uvm_test_top.env.sb [scoreboard] [RX] #4: data=0xa5a5a5a5 off=0 size=3 err=1 should_drop=1
UVM_INFO scoreboard.sv(155) @ 590000: uvm_test_top.env.sb [scoreboard] DROP OK: RX#4 off=0 size=3
UVM_INFO scoreboard.sv(178) @ 590000: uvm_test_top.env.sb [scoreboard] [TX] data=0x000000a5 off=0 size=1
UVM_INFO scoreboard.sv(216) @ 590000: uvm_test_top.env.sb [scoreboard] TX MATCH OK: data=0x000000a5 size=1
UVM_INFO scoreboard.sv(178) @ 610000: uvm_test_top.env.sb [scoreboard] [TX] data=0x000000a5 off=0 size=1
UVM_INFO scoreboard.sv(216) @ 610000: uvm_test_top.env.sb [scoreboard] TX MATCH OK: data=0x000000a5 size=1
UVM_INFO md_componentes.sv(41) @ 610000: uvm_test_top.env.rx_agt.driver [RX_DRV] [RX] data=0xa5a5a5a5 offset=0 size=3 valid=1 err=1
UVM_INFO md_sequences.sv(144) @ 610000: uvm_test_top.env.rx_agt.sequencer@@rx_seq [rx_mixed_seq] Enviado ILEGAL: off=0 size=3 data=0xa5a5a5a5
UVM_INFO scoreboard.sv(178) @ 630000: uvm_test_top.env.sb [scoreboard] [TX] data=0x00000000 off=0 size=1
UVM_ERROR scoreboard.sv(191) @ 630000: uvm_test_top.env.sb [scoreboard] TX INESPERADO: data=0x00000000 size=1 (no hay TX esperado en cola)
UVM_INFO md_componentes.sv(227) @ 650000: uvm_test_top.env.irq_mon [IRQ_MON] [IRQ] @ 650000
UVM_INFO scoreboard.sv(225) @ 650000: uvm_test_top.env.sb [scoreboard] [IRQ #4] @ 650000
UVM_INFO scoreboard.sv(142) @ 650000: uvm_test_top.env.sb [scoreboard] [RX] #5: data=0xa5a5a5a5 off=3 size=2 err=1 should_drop=1
UVM_INFO scoreboard.sv(155) @ 650000: uvm_test_top.env.sb [scoreboard] DROP OK: RX#5 off=3 size=2
UVM_INFO md_componentes.sv(41) @ 670000: uvm_test_top.env.rx_agt.driver [RX_DRV] [RX] data=0xa5a5a5a5 offset=3 size=2 valid=1 err=1
UVM_INFO md_sequences.sv(144) @ 670000: uvm_test_top.env.rx_agt.sequencer@@rx_seq [rx_mixed_seq] Enviado ILEGAL: off=3 size=2 data=0xa5a5a5a5
UVM_INFO scoreboard.sv(142) @ 710000: uvm_test_top.env.sb [scoreboard] [RX] #6: data=0xa5a5a5a5 off=2 size=2 err=0 should_drop=0
UVM_INFO md_componentes.sv(41) @ 730000: uvm_test_top.env.rx_agt.driver [RX_DRV] [RX] data=0xa5a5a5a5 offset=2 size=2 valid=1 err=0
UVM_INFO md_sequences.sv(127) @ 730000: uvm_test_top.env.rx_agt.sequencer@@rx_seq [rx_mixed_seq] Enviado LEGAL: off=2 size=2 data=0xa5a5a5a5
UVM_INFO md_componentes.sv(227) @ 750000: uvm_test_top.env.irq_mon [IRQ_MON] [IRQ] @ 750000
UVM_INFO scoreboard.sv(225) @ 750000: uvm_test_top.env.sb [scoreboard] [IRQ #5] @ 750000
UVM_INFO scoreboard.sv(142) @ 770000: uvm_test_top.env.sb [scoreboard] [RX] #7: data=0xa5a5a5a5 off=0 size=4 err=0 should_drop=0
UVM_INFO scoreboard.sv(178) @ 770000: uvm_test_top.env.sb [scoreboard] [TX] data=0x000000a5 off=0 size=1
UVM_INFO scoreboard.sv(216) @ 770000: uvm_test_top.env.sb [scoreboard] TX MATCH OK: data=0x000000a5 size=1
UVM_INFO scoreboard.sv(178) @ 790000: uvm_test_top.env.sb [scoreboard] [TX] data=0x000000a5 off=0 size=1
UVM_INFO scoreboard.sv(216) @ 790000: uvm_test_top.env.sb [scoreboard] TX MATCH OK: data=0x000000a5 size=1
UVM_INFO md_componentes.sv(41) @ 790000: uvm_test_top.env.rx_agt.driver [RX_DRV] [RX] data=0xa5a5a5a5 offset=0 size=4 valid=1 err=1
UVM_INFO md_sequences.sv(127) @ 790000: uvm_test_top.env.rx_agt.sequencer@@rx_seq [rx_mixed_seq] Enviado LEGAL: off=0 size=4 data=0xa5a5a5a5
UVM_INFO md_componentes.sv(227) @ 810000: uvm_test_top.env.irq_mon [IRQ_MON] [IRQ] @ 810000
UVM_INFO scoreboard.sv(225) @ 810000: uvm_test_top.env.sb [scoreboard] [IRQ #6] @ 810000
UVM_INFO scoreboard.sv(142) @ 830000: uvm_test_top.env.sb [scoreboard] [RX] #8: data=0xa5a5a5a5 off=2 size=1 err=0 should_drop=0
UVM_INFO scoreboard.sv(178) @ 830000: uvm_test_top.env.sb [scoreboard] [TX] data=0x000000a5 off=0 size=1
UVM_INFO scoreboard.sv(216) @ 830000: uvm_test_top.env.sb [scoreboard] TX MATCH OK: data=0x000000a5 size=1
UVM_INFO scoreboard.sv(178) @ 850000: uvm_test_top.env.sb [scoreboard] [TX] data=0x000000a5 off=0 size=1
UVM_INFO scoreboard.sv(216) @ 850000: uvm_test_top.env.sb [scoreboard] TX MATCH OK: data=0x000000a5 size=1
UVM_INFO md_componentes.sv(41) @ 850000: uvm_test_top.env.rx_agt.driver [RX_DRV] [RX] data=0xa5a5a5a5 offset=2 size=1 valid=1 err=0
UVM_INFO md_sequences.sv(127) @ 850000: uvm_test_top.env.rx_agt.sequencer@@rx_seq [rx_mixed_seq] Enviado LEGAL: off=2 size=1 data=0xa5a5a5a5
UVM_INFO scoreboard.sv(178) @ 870000: uvm_test_top.env.sb [scoreboard] [TX] data=0x000000a5 off=0 size=1
UVM_INFO scoreboard.sv(216) @ 870000: uvm_test_top.env.sb [scoreboard] TX MATCH OK: data=0x000000a5 size=1
UVM_INFO md_componentes.sv(227) @ 890000: uvm_test_top.env.irq_mon [IRQ_MON] [IRQ] @ 890000
UVM_INFO scoreboard.sv(225) @ 890000: uvm_test_top.env.sb [scoreboard] [IRQ #7] @ 890000
UVM_INFO scoreboard.sv(142) @ 890000: uvm_test_top.env.sb [scoreboard] [RX] #9: data=0xa5a5a5a5 off=3 size=1 err=0 should_drop=0
UVM_INFO scoreboard.sv(178) @ 890000: uvm_test_top.env.sb [scoreboard] [TX] data=0x000000a5 off=0 size=1
UVM_INFO scoreboard.sv(216) @ 890000: uvm_test_top.env.sb [scoreboard] TX MATCH OK: data=0x000000a5 size=1
UVM_INFO scoreboard.sv(178) @ 910000: uvm_test_top.env.sb [scoreboard] [TX] data=0x000000a5 off=0 size=1
UVM_INFO scoreboard.sv(216) @ 910000: uvm_test_top.env.sb [scoreboard] TX MATCH OK: data=0x000000a5 size=1
UVM_INFO md_componentes.sv(41) @ 910000: uvm_test_top.env.rx_agt.driver [RX_DRV] [RX] data=0xa5a5a5a5 offset=3 size=1 valid=1 err=0
UVM_INFO md_sequences.sv(127) @ 910000: uvm_test_top.env.rx_agt.sequencer@@rx_seq [rx_mixed_seq] Enviado LEGAL: off=3 size=1 data=0xa5a5a5a5
UVM_INFO md_componentes.sv(227) @ 930000: uvm_test_top.env.irq_mon [IRQ_MON] [IRQ] @ 930000
UVM_INFO scoreboard.sv(225) @ 930000: uvm_test_top.env.sb [scoreboard] [IRQ #8] @ 930000
UVM_INFO scoreboard.sv(142) @ 950000: uvm_test_top.env.sb [scoreboard] [RX] #10: data=0xa5a5a5a5 off=2 size=4 err=1 should_drop=1
UVM_INFO scoreboard.sv(155) @ 950000: uvm_test_top.env.sb [scoreboard] DROP OK: RX#10 off=2 size=4
UVM_INFO scoreboard.sv(178) @ 950000: uvm_test_top.env.sb [scoreboard] [TX] data=0x000000a5 off=0 size=1
UVM_INFO scoreboard.sv(216) @ 950000: uvm_test_top.env.sb [scoreboard] TX MATCH OK: data=0x000000a5 size=1
UVM_INFO md_componentes.sv(227) @ 970000: uvm_test_top.env.irq_mon [IRQ_MON] [IRQ] @ 970000
UVM_INFO scoreboard.sv(225) @ 970000: uvm_test_top.env.sb [scoreboard] [IRQ #9] @ 970000
UVM_INFO md_componentes.sv(41) @ 970000: uvm_test_top.env.rx_agt.driver [RX_DRV] [RX] data=0xa5a5a5a5 offset=2 size=4 valid=1 err=1
UVM_INFO md_sequences.sv(144) @ 970000: uvm_test_top.env.rx_agt.sequencer@@rx_seq [rx_mixed_seq] Enviado ILEGAL: off=2 size=4 data=0xa5a5a5a5
UVM_INFO scoreboard.sv(142) @ 1010000: uvm_test_top.env.sb [scoreboard] [RX] #11: data=0xa5a5a5a5 off=0 size=1 err=0 should_drop=0
UVM_INFO md_componentes.sv(41) @ 1030000: uvm_test_top.env.rx_agt.driver [RX_DRV] [RX] data=0xa5a5a5a5 offset=0 size=1 valid=1 err=0
UVM_INFO md_sequences.sv(127) @ 1030000: uvm_test_top.env.rx_agt.sequencer@@rx_seq [rx_mixed_seq] Enviado LEGAL: off=0 size=1 data=0xa5a5a5a5
UVM_INFO md_componentes.sv(227) @ 1050000: uvm_test_top.env.irq_mon [IRQ_MON] [IRQ] @ 1050000
UVM_INFO scoreboard.sv(225) @ 1050000: uvm_test_top.env.sb [scoreboard] [IRQ #10] @ 1050000
UVM_INFO scoreboard.sv(142) @ 1070000: uvm_test_top.env.sb [scoreboard] [RX] #12: data=0xa5a5a5a5 off=0 size=3 err=1 should_drop=1
UVM_INFO scoreboard.sv(155) @ 1070000: uvm_test_top.env.sb [scoreboard] DROP OK: RX#12 off=0 size=3
UVM_INFO scoreboard.sv(178) @ 1070000: uvm_test_top.env.sb [scoreboard] [TX] data=0x000000a5 off=0 size=1
UVM_INFO scoreboard.sv(216) @ 1070000: uvm_test_top.env.sb [scoreboard] TX MATCH OK: data=0x000000a5 size=1
UVM_INFO md_componentes.sv(227) @ 1090000: uvm_test_top.env.irq_mon [IRQ_MON] [IRQ] @ 1090000
UVM_INFO scoreboard.sv(225) @ 1090000: uvm_test_top.env.sb [scoreboard] [IRQ #11] @ 1090000
UVM_INFO md_componentes.sv(41) @ 1090000: uvm_test_top.env.rx_agt.driver [RX_DRV] [RX] data=0xa5a5a5a5 offset=0 size=3 valid=1 err=0
UVM_INFO md_sequences.sv(144) @ 1090000: uvm_test_top.env.rx_agt.sequencer@@rx_seq [rx_mixed_seq] Enviado ILEGAL: off=0 size=3 data=0xa5a5a5a5
UVM_INFO scoreboard.sv(142) @ 1130000: uvm_test_top.env.sb [scoreboard] [RX] #13: data=0xa5a5a5a5 off=0 size=1 err=0 should_drop=0
UVM_INFO md_componentes.sv(41) @ 1150000: uvm_test_top.env.rx_agt.driver [RX_DRV] [RX] data=0xa5a5a5a5 offset=0 size=1 valid=1 err=1
UVM_INFO md_sequences.sv(127) @ 1150000: uvm_test_top.env.rx_agt.sequencer@@rx_seq [rx_mixed_seq] Enviado LEGAL: off=0 size=1 data=0xa5a5a5a5
UVM_INFO md_componentes.sv(227) @ 1170000: uvm_test_top.env.irq_mon [IRQ_MON] [IRQ] @ 1170000
UVM_INFO scoreboard.sv(225) @ 1170000: uvm_test_top.env.sb [scoreboard] [IRQ #12] @ 1170000
UVM_INFO scoreboard.sv(142) @ 1190000: uvm_test_top.env.sb [scoreboard] [RX] #14: data=0xa5a5a5a5 off=3 size=1 err=0 should_drop=0
UVM_INFO scoreboard.sv(178) @ 1190000: uvm_test_top.env.sb [scoreboard] [TX] data=0x000000a5 off=0 size=1
UVM_INFO scoreboard.sv(216) @ 1190000: uvm_test_top.env.sb [scoreboard] TX MATCH OK: data=0x000000a5 size=1
UVM_INFO md_componentes.sv(227) @ 1210000: uvm_test_top.env.irq_mon [IRQ_MON] [IRQ] @ 1210000
UVM_INFO scoreboard.sv(225) @ 1210000: uvm_test_top.env.sb [scoreboard] [IRQ #13] @ 1210000
UVM_INFO md_componentes.sv(41) @ 1210000: uvm_test_top.env.rx_agt.driver [RX_DRV] [RX] data=0xa5a5a5a5 offset=3 size=1 valid=1 err=0
UVM_INFO md_sequences.sv(127) @ 1210000: uvm_test_top.env.rx_agt.sequencer@@rx_seq [rx_mixed_seq] Enviado LEGAL: off=3 size=1 data=0xa5a5a5a5
UVM_INFO scoreboard.sv(142) @ 1250000: uvm_test_top.env.sb [scoreboard] [RX] #15: data=0xa5a5a5a5 off=1 size=1 err=0 should_drop=0
UVM_INFO scoreboard.sv(178) @ 1250000: uvm_test_top.env.sb [scoreboard] [TX] data=0x000000a5 off=0 size=1
UVM_INFO scoreboard.sv(216) @ 1250000: uvm_test_top.env.sb [scoreboard] TX MATCH OK: data=0x000000a5 size=1
UVM_INFO md_componentes.sv(227) @ 1270000: uvm_test_top.env.irq_mon [IRQ_MON] [IRQ] @ 1270000
UVM_INFO scoreboard.sv(225) @ 1270000: uvm_test_top.env.sb [scoreboard] [IRQ #14] @ 1270000
UVM_INFO md_componentes.sv(41) @ 1270000: uvm_test_top.env.rx_agt.driver [RX_DRV] [RX] data=0xa5a5a5a5 offset=1 size=1 valid=1 err=0
UVM_INFO md_sequences.sv(127) @ 1270000: uvm_test_top.env.rx_agt.sequencer@@rx_seq [rx_mixed_seq] Enviado LEGAL: off=1 size=1 data=0xa5a5a5a5
UVM_INFO scoreboard.sv(142) @ 1310000: uvm_test_top.env.sb [scoreboard] [RX] #16: data=0xa5a5a5a5 off=3 size=1 err=0 should_drop=0
UVM_INFO scoreboard.sv(178) @ 1310000: uvm_test_top.env.sb [scoreboard] [TX] data=0x000000a5 off=0 size=1
UVM_INFO scoreboard.sv(216) @ 1310000: uvm_test_top.env.sb [scoreboard] TX MATCH OK: data=0x000000a5 size=1
UVM_INFO md_componentes.sv(227) @ 1330000: uvm_test_top.env.irq_mon [IRQ_MON] [IRQ] @ 1330000
UVM_INFO scoreboard.sv(225) @ 1330000: uvm_test_top.env.sb [scoreboard] [IRQ #15] @ 1330000
UVM_INFO md_componentes.sv(41) @ 1330000: uvm_test_top.env.rx_agt.driver [RX_DRV] [RX] data=0xa5a5a5a5 offset=3 size=1 valid=1 err=0
UVM_INFO md_sequences.sv(127) @ 1330000: uvm_test_top.env.rx_agt.sequencer@@rx_seq [rx_mixed_seq] Enviado LEGAL: off=3 size=1 data=0xa5a5a5a5
UVM_INFO scoreboard.sv(142) @ 1370000: uvm_test_top.env.sb [scoreboard] [RX] #17: data=0xa5a5a5a5 off=0 size=4 err=0 should_drop=0
UVM_INFO scoreboard.sv(178) @ 1370000: uvm_test_top.env.sb [scoreboard] [TX] data=0x000000a5 off=0 size=1
UVM_INFO scoreboard.sv(216) @ 1370000: uvm_test_top.env.sb [scoreboard] TX MATCH OK: data=0x000000a5 size=1
UVM_INFO md_componentes.sv(227) @ 1390000: uvm_test_top.env.irq_mon [IRQ_MON] [IRQ] @ 1390000
UVM_INFO scoreboard.sv(225) @ 1390000: uvm_test_top.env.sb [scoreboard] [IRQ #16] @ 1390000
UVM_INFO md_componentes.sv(41) @ 1390000: uvm_test_top.env.rx_agt.driver [RX_DRV] [RX] data=0xa5a5a5a5 offset=0 size=4 valid=1 err=1
UVM_INFO md_sequences.sv(127) @ 1390000: uvm_test_top.env.rx_agt.sequencer@@rx_seq [rx_mixed_seq] Enviado LEGAL: off=0 size=4 data=0xa5a5a5a5
UVM_INFO scoreboard.sv(142) @ 1430000: uvm_test_top.env.sb [scoreboard] [RX] #18: data=0xa5a5a5a5 off=3 size=1 err=0 should_drop=0
UVM_INFO scoreboard.sv(178) @ 1430000: uvm_test_top.env.sb [scoreboard] [TX] data=0x000000a5 off=0 size=1
UVM_INFO scoreboard.sv(216) @ 1430000: uvm_test_top.env.sb [scoreboard] TX MATCH OK: data=0x000000a5 size=1
UVM_INFO scoreboard.sv(178) @ 1450000: uvm_test_top.env.sb [scoreboard] [TX] data=0x000000a5 off=0 size=1
UVM_INFO scoreboard.sv(216) @ 1450000: uvm_test_top.env.sb [scoreboard] TX MATCH OK: data=0x000000a5 size=1
UVM_INFO md_componentes.sv(41) @ 1450000: uvm_test_top.env.rx_agt.driver [RX_DRV] [RX] data=0xa5a5a5a5 offset=3 size=1 valid=1 err=0
UVM_INFO md_sequences.sv(127) @ 1450000: uvm_test_top.env.rx_agt.sequencer@@rx_seq [rx_mixed_seq] Enviado LEGAL: off=3 size=1 data=0xa5a5a5a5
UVM_INFO scoreboard.sv(178) @ 1470000: uvm_test_top.env.sb [scoreboard] [TX] data=0x000000a5 off=0 size=1
UVM_INFO scoreboard.sv(216) @ 1470000: uvm_test_top.env.sb [scoreboard] TX MATCH OK: data=0x000000a5 size=1
UVM_INFO md_componentes.sv(227) @ 1490000: uvm_test_top.env.irq_mon [IRQ_MON] [IRQ] @ 1490000
UVM_INFO scoreboard.sv(225) @ 1490000: uvm_test_top.env.sb [scoreboard] [IRQ #17] @ 1490000
UVM_INFO scoreboard.sv(142) @ 1490000: uvm_test_top.env.sb [scoreboard] [RX] #19: data=0xa5a5a5a5 off=1 size=1 err=0 should_drop=0
UVM_INFO scoreboard.sv(178) @ 1490000: uvm_test_top.env.sb [scoreboard] [TX] data=0x000000a5 off=0 size=1
UVM_INFO scoreboard.sv(216) @ 1490000: uvm_test_top.env.sb [scoreboard] TX MATCH OK: data=0x000000a5 size=1
UVM_INFO scoreboard.sv(178) @ 1510000: uvm_test_top.env.sb [scoreboard] [TX] data=0x000000a5 off=0 size=1
UVM_INFO scoreboard.sv(216) @ 1510000: uvm_test_top.env.sb [scoreboard] TX MATCH OK: data=0x000000a5 size=1
UVM_INFO md_componentes.sv(41) @ 1510000: uvm_test_top.env.rx_agt.driver [RX_DRV] [RX] data=0xa5a5a5a5 offset=1 size=1 valid=1 err=0
UVM_INFO md_sequences.sv(127) @ 1510000: uvm_test_top.env.rx_agt.sequencer@@rx_seq [rx_mixed_seq] Enviado LEGAL: off=1 size=1 data=0xa5a5a5a5
UVM_INFO md_componentes.sv(227) @ 1530000: uvm_test_top.env.irq_mon [IRQ_MON] [IRQ] @ 1530000
UVM_INFO scoreboard.sv(225) @ 1530000: uvm_test_top.env.sb [scoreboard] [IRQ #18] @ 1530000
UVM_INFO scoreboard.sv(142) @ 1550000: uvm_test_top.env.sb [scoreboard] [RX] #20: data=0xa5a5a5a5 off=2 size=1 err=0 should_drop=0
UVM_INFO scoreboard.sv(178) @ 1550000: uvm_test_top.env.sb [scoreboard] [TX] data=0x000000a5 off=0 size=1
UVM_INFO scoreboard.sv(216) @ 1550000: uvm_test_top.env.sb [scoreboard] TX MATCH OK: data=0x000000a5 size=1
UVM_INFO md_componentes.sv(227) @ 1570000: uvm_test_top.env.irq_mon [IRQ_MON] [IRQ] @ 1570000
UVM_INFO scoreboard.sv(225) @ 1570000: uvm_test_top.env.sb [scoreboard] [IRQ #19] @ 1570000
UVM_INFO md_componentes.sv(41) @ 1570000: uvm_test_top.env.rx_agt.driver [RX_DRV] [RX] data=0xa5a5a5a5 offset=2 size=1 valid=1 err=0
UVM_INFO md_sequences.sv(127) @ 1570000: uvm_test_top.env.rx_agt.sequencer@@rx_seq [rx_mixed_seq] Enviado LEGAL: off=2 size=1 data=0xa5a5a5a5
UVM_INFO scoreboard.sv(142) @ 1610000: uvm_test_top.env.sb [scoreboard] [RX] #21: data=0xa5a5a5a5 off=0 size=4 err=0 should_drop=0
UVM_INFO scoreboard.sv(178) @ 1610000: uvm_test_top.env.sb [scoreboard] [TX] data=0x000000a5 off=0 size=1
UVM_INFO scoreboard.sv(216) @ 1610000: uvm_test_top.env.sb [scoreboard] TX MATCH OK: data=0x000000a5 size=1
UVM_INFO md_componentes.sv(227) @ 1630000: uvm_test_top.env.irq_mon [IRQ_MON] [IRQ] @ 1630000
UVM_INFO scoreboard.sv(225) @ 1630000: uvm_test_top.env.sb [scoreboard] [IRQ #20] @ 1630000
UVM_INFO md_componentes.sv(41) @ 1630000: uvm_test_top.env.rx_agt.driver [RX_DRV] [RX] data=0xa5a5a5a5 offset=0 size=4 valid=1 err=0
UVM_INFO md_sequences.sv(127) @ 1630000: uvm_test_top.env.rx_agt.sequencer@@rx_seq [rx_mixed_seq] Enviado LEGAL: off=0 size=4 data=0xa5a5a5a5
UVM_INFO scoreboard.sv(142) @ 1670000: uvm_test_top.env.sb [scoreboard] [RX] #22: data=0xa5a5a5a5 off=2 size=4 err=1 should_drop=1
UVM_INFO scoreboard.sv(155) @ 1670000: uvm_test_top.env.sb [scoreboard] DROP OK: RX#22 off=2 size=4
UVM_INFO scoreboard.sv(178) @ 1670000: uvm_test_top.env.sb [scoreboard] [TX] data=0x000000a5 off=0 size=1
UVM_INFO scoreboard.sv(216) @ 1670000: uvm_test_top.env.sb [scoreboard] TX MATCH OK: data=0x000000a5 size=1
UVM_INFO scoreboard.sv(178) @ 1690000: uvm_test_top.env.sb [scoreboard] [TX] data=0x000000a5 off=0 size=1
UVM_INFO scoreboard.sv(216) @ 1690000: uvm_test_top.env.sb [scoreboard] TX MATCH OK: data=0x000000a5 size=1
UVM_INFO md_componentes.sv(41) @ 1690000: uvm_test_top.env.rx_agt.driver [RX_DRV] [RX] data=0xa5a5a5a5 offset=2 size=4 valid=1 err=1
UVM_INFO md_sequences.sv(144) @ 1690000: uvm_test_top.env.rx_agt.sequencer@@rx_seq [rx_mixed_seq] Enviado ILEGAL: off=2 size=4 data=0xa5a5a5a5
UVM_INFO scoreboard.sv(178) @ 1710000: uvm_test_top.env.sb [scoreboard] [TX] data=0x000000a5 off=0 size=1
UVM_INFO scoreboard.sv(216) @ 1710000: uvm_test_top.env.sb [scoreboard] TX MATCH OK: data=0x000000a5 size=1
UVM_INFO scoreboard.sv(142) @ 1730000: uvm_test_top.env.sb [scoreboard] [RX] #23: data=0xa5a5a5a5 off=3 size=2 err=1 should_drop=1
