logs/failed_test_5.log
Chronologic VCS simulator copyright 1991-2020
Contains Synopsys proprietary information.
Compiler version R-2020.12-SP2; Runtime version R-2020.12-SP2;  Jun  9 00:29 2026
UVM_INFO /mnt/vol_NFS_rh003/tools/vcs/R-2020.12-SP2/etc/uvm-1.2/base/uvm_root.svh(402) @ 0: reporter [UVM/RELNOTES] 
----------------------------------------------------------------
UVM-1.2.Synopsys
(C) 2007-2014 Mentor Graphics Corporation
(C) 2007-2014 Cadence Design Systems, Inc.
(C) 2006-2014 Synopsys, Inc.
(C) 2011-2013 Cypress Semiconductor Corp.
(C) 2013-2014 NVIDIA Corporation
----------------------------------------------------------------

  ***********       IMPORTANT RELEASE NOTES         ************

  You are using a version of the UVM library that has been compiled
  with `UVM_NO_DEPRECATED undefined.
  See http://www.eda.org/svdb/view.php?id=3313 for more details.

  You are using a version of the UVM library that has been compiled
  with `UVM_OBJECT_DO_NOT_NEED_CONSTRUCTOR undefined.
  See http://www.eda.org/svdb/view.php?id=3770 for more details.

      (Specify +UVM_NO_RELNOTES to turn off this notice)

UVM_INFO tb_top.sv(133) @ 0: reporter [TB_TOP] All interfaces set in config_db
UVM_INFO tb_top.sv(146) @ 0: reporter [TB_TOP] RAL model created and set in config_db
UVM_INFO @ 0: reporter [RNTST] Running test test_general...
UVM_INFO aligner_env.sv(74) @ 0: uvm_test_top.env [aligner_env] Environment connected
UVM_INFO aligner_env.sv(78) @ 0: uvm_test_top.env [aligner_env] Simulation started
-------------------------------------------------------------------------------------------
Name                     Type                      Size  Value                             
-------------------------------------------------------------------------------------------
regmodel                 cfs_aligner_regs          -     @367                              
  ctrl                   cfs_aligner_regs__ctrl    -     @370                              
    size                 uvm_reg_field             ...    RW ctrl[2:0]=3'h1                
    reserved0            uvm_reg_field             ...    RO ctrl[7:3]=5'h00               
    offset               uvm_reg_field             ...    RW ctrl[9:8]=2'h0                
    reserved1            uvm_reg_field             ...    RO ctrl[15:10]=6'h00             
    clr                  uvm_reg_field             ...    WO ctrl[16:16]=1'h0              
    reserved2            uvm_reg_field             ...    RO ctrl[31:17]=15'h0000          
  status                 cfs_aligner_regs__status  -     @378                              
    cnt_drop             uvm_reg_field             ...    RO status[7:0]=8'h00             
    rx_lvl               uvm_reg_field             ...    RO status[11:8]=4'h0             
    reserved0            uvm_reg_field             ...    RO status[15:12]=4'h0            
    tx_lvl               uvm_reg_field             ...    RO status[19:16]=4'h0            
    reserved1            uvm_reg_field             ...    RO status[31:20]=12'h000         
  irqen                  cfs_aligner_regs__irqen   -     @385                              
    rx_fifo_empty        uvm_reg_field             ...    RW irqen[0:0]=1'h1               
    rx_fifo_full         uvm_reg_field             ...    RW irqen[1:1]=1'h1               
    tx_fifo_empty        uvm_reg_field             ...    RW irqen[2:2]=1'h1               
    tx_fifo_full         uvm_reg_field             ...    RW irqen[3:3]=1'h1               
    max_drop             uvm_reg_field             ...    RW irqen[4:4]=1'h1               
    reserved             uvm_reg_field             ...    RO irqen[31:5]=27'h0000000       
  irq                    cfs_aligner_regs__irq     -     @393                              
    rx_fifo_empty        uvm_reg_field             ...    W1C irq[0:0]=1'h0                
    rx_fifo_full         uvm_reg_field             ...    W1C irq[1:1]=1'h0                
    tx_fifo_empty        uvm_reg_field             ...    W1C irq[2:2]=1'h0                
    tx_fifo_full         uvm_reg_field             ...    W1C irq[3:3]=1'h0                
    max_drop             uvm_reg_field             ...    W1C irq[4:4]=1'h0                
    reserved             uvm_reg_field             ...    RO irq[31:5]=27'h0000000         
  reg_map                uvm_reg_map               -     @369                              
    endian                                         ...   UVM_NO_ENDIAN                     
    effective sequencer  apb_sequencer             ...   uvm_test_top.env.apb_agt.sequencer
    ctrl                 cfs_aligner_regs__ctrl    ...   @370 +'h0                         
    status               cfs_aligner_regs__status  ...   @378 +'hc                         
    irqen                cfs_aligner_regs__irqen   ...   @385 +'hf0                        
    irq                  cfs_aligner_regs__irq     ...   @393 +'hf4                        
-------------------------------------------------------------------------------------------
UVM_INFO test_general.sv(316) @ 0: uvm_test_top [test_general] 
==================================================
  TEST GENERAL CONFIGURATION
==================================================
  SEMILLA            = 818078666
  TEST_MODE          = MD_ONLY
  APB_NUM_TRANS      = 66
  MD_NUM_PKTS        = 119
  MD_PESO_LEGAL      = 72%
  CTRL_SIZE          = 1
  CTRL_OFFSET        = 0
  MD_PATRON          = FIXED
  TIMEOUT_MS         = 329
==================================================
UVM_INFO tb_top.sv(116) @ 190000: reporter [TB_TOP] Reset deasserted
UVM_INFO md_componentes.sv(31) @ 210000: uvm_test_top.env.rx_agt.driver [RX_DRV] Reset liberado
UVM_INFO scoreboard.sv(127) @ 270000: uvm_test_top.env.sb [scoreboard] Config actualizada: offset=0 size=1 (pending_bytes=0 flushed)
UVM_INFO test_general.sv(118) @ 270000: uvm_test_top [test_general] CTRL configurado: size=1 offset=0
UVM_INFO test_general.sv(131) @ 350000: uvm_test_top [test_general] IRQEN configurado (todas las interrupciones habilitadas)
UVM_INFO test_general.sv(144) @ 350000: uvm_test_top [test_general] Drenando pipeline del DUT...
UVM_INFO test_general.sv(154) @ 430000: uvm_test_top [test_general] Pipeline drenado OK
UVM_INFO scoreboard.sv(122) @ 430000: uvm_test_top.env.sb [scoreboard] Scoreboard ARMADO — verificación activa
UVM_INFO test_general.sv(251) @ 430000: uvm_test_top [test_general] Iniciando MD: 85 legales, 34 ilegales, patrón=FIXED
UVM_INFO scoreboard.sv(143) @ 450000: uvm_test_top.env.sb [scoreboard] [RX] #1: data=0xa5a5a5a5 off=0 size=3 err=1 should_drop=1
UVM_INFO scoreboard.sv(156) @ 450000: uvm_test_top.env.sb [scoreboard] DROP OK: RX#1 off=0 size=3
UVM_INFO md_componentes.sv(41) @ 470000: uvm_test_top.env.rx_agt.driver [RX_DRV] [RX] data=0xa5a5a5a5 offset=0 size=3 valid=1 err=1
UVM_INFO md_sequences.sv(144) @ 470000: uvm_test_top.env.rx_agt.sequencer@@rx_seq [rx_mixed_seq] Enviado ILEGAL: off=0 size=3 data=0xa5a5a5a5
UVM_INFO scoreboard.sv(143) @ 510000: uvm_test_top.env.sb [scoreboard] [RX] #2: data=0xa5a5a5a5 off=0 size=3 err=1 should_drop=1
UVM_INFO scoreboard.sv(156) @ 510000: uvm_test_top.env.sb [scoreboard] DROP OK: RX#2 off=0 size=3
UVM_INFO md_componentes.sv(41) @ 530000: uvm_test_top.env.rx_agt.driver [RX_DRV] [RX] data=0xa5a5a5a5 offset=0 size=3 valid=1 err=0
UVM_INFO md_sequences.sv(144) @ 530000: uvm_test_top.env.rx_agt.sequencer@@rx_seq [rx_mixed_seq] Enviado ILEGAL: off=0 size=3 data=0xa5a5a5a5
UVM_INFO scoreboard.sv(143) @ 570000: uvm_test_top.env.sb [scoreboard] [RX] #3: data=0xa5a5a5a5 off=0 size=4 err=0 should_drop=0
UVM_INFO md_componentes.sv(41) @ 590000: uvm_test_top.env.rx_agt.driver [RX_DRV] [RX] data=0xa5a5a5a5 offset=0 size=4 valid=1 err=1
UVM_INFO md_sequences.sv(127) @ 590000: uvm_test_top.env.rx_agt.sequencer@@rx_seq [rx_mixed_seq] Enviado LEGAL: off=0 size=4 data=0xa5a5a5a5
UVM_INFO md_componentes.sv(227) @ 610000: uvm_test_top.env.irq_mon [IRQ_MON] [IRQ] @ 610000
UVM_INFO scoreboard.sv(223) @ 610000: uvm_test_top.env.sb [scoreboard] [IRQ #1] @ 610000
UVM_INFO scoreboard.sv(143) @ 630000: uvm_test_top.env.sb [scoreboard] [RX] #4: data=0xa5a5a5a5 off=3 size=3 err=1 should_drop=1
UVM_INFO scoreboard.sv(156) @ 630000: uvm_test_top.env.sb [scoreboard] DROP OK: RX#4 off=3 size=3
UVM_INFO scoreboard.sv(187) @ 630000: uvm_test_top.env.sb [scoreboard] [TX] data=0x000000a5 off=0 size=1
UVM_INFO scoreboard.sv(214) @ 630000: uvm_test_top.env.sb [scoreboard] TX MATCH OK: data=0x000000a5 size=1
UVM_INFO scoreboard.sv(187) @ 650000: uvm_test_top.env.sb [scoreboard] [TX] data=0x000000a5 off=0 size=1
UVM_INFO scoreboard.sv(214) @ 650000: uvm_test_top.env.sb [scoreboard] TX MATCH OK: data=0x000000a5 size=1
UVM_INFO md_componentes.sv(41) @ 650000: uvm_test_top.env.rx_agt.driver [RX_DRV] [RX] data=0xa5a5a5a5 offset=3 size=3 valid=1 err=0
UVM_INFO md_sequences.sv(144) @ 650000: uvm_test_top.env.rx_agt.sequencer@@rx_seq [rx_mixed_seq] Enviado ILEGAL: off=3 size=3 data=0xa5a5a5a5
UVM_INFO scoreboard.sv(187) @ 670000: uvm_test_top.env.sb [scoreboard] [TX] data=0x000000a5 off=0 size=1
UVM_INFO scoreboard.sv(214) @ 670000: uvm_test_top.env.sb [scoreboard] TX MATCH OK: data=0x000000a5 size=1
UVM_INFO scoreboard.sv(143) @ 690000: uvm_test_top.env.sb [scoreboard] [RX] #5: data=0xa5a5a5a5 off=0 size=2 err=0 should_drop=0
UVM_INFO scoreboard.sv(187) @ 690000: uvm_test_top.env.sb [scoreboard] [TX] data=0x000000a5 off=0 size=1
UVM_INFO scoreboard.sv(214) @ 690000: uvm_test_top.env.sb [scoreboard] TX MATCH OK: data=0x000000a5 size=1
UVM_INFO md_componentes.sv(227) @ 710000: uvm_test_top.env.irq_mon [IRQ_MON] [IRQ] @ 710000
UVM_INFO scoreboard.sv(223) @ 710000: uvm_test_top.env.sb [scoreboard] [IRQ #2] @ 710000
UVM_INFO md_componentes.sv(41) @ 710000: uvm_test_top.env.rx_agt.driver [RX_DRV] [RX] data=0xa5a5a5a5 offset=0 size=2 valid=1 err=1
UVM_INFO md_sequences.sv(127) @ 710000: uvm_test_top.env.rx_agt.sequencer@@rx_seq [rx_mixed_seq] Enviado LEGAL: off=0 size=2 data=0xa5a5a5a5
UVM_INFO scoreboard.sv(143) @ 750000: uvm_test_top.env.sb [scoreboard] [RX] #6: data=0xa5a5a5a5 off=2 size=1 err=0 should_drop=0
UVM_INFO scoreboard.sv(187) @ 750000: uvm_test_top.env.sb [scoreboard] [TX] data=0x000000a5 off=0 size=1
UVM_INFO scoreboard.sv(214) @ 750000: uvm_test_top.env.sb [scoreboard] TX MATCH OK: data=0x000000a5 size=1
UVM_INFO scoreboard.sv(187) @ 770000: uvm_test_top.env.sb [scoreboard] [TX] data=0x000000a5 off=0 size=1
UVM_INFO scoreboard.sv(214) @ 770000: uvm_test_top.env.sb [scoreboard] TX MATCH OK: data=0x000000a5 size=1
UVM_INFO md_componentes.sv(41) @ 770000: uvm_test_top.env.rx_agt.driver [RX_DRV] [RX] data=0xa5a5a5a5 offset=2 size=1 valid=1 err=0
UVM_INFO md_sequences.sv(127) @ 770000: uvm_test_top.env.rx_agt.sequencer@@rx_seq [rx_mixed_seq] Enviado LEGAL: off=2 size=1 data=0xa5a5a5a5
UVM_INFO md_componentes.sv(227) @ 790000: uvm_test_top.env.irq_mon [IRQ_MON] [IRQ] @ 790000
UVM_INFO scoreboard.sv(223) @ 790000: uvm_test_top.env.sb [scoreboard] [IRQ #3] @ 790000
UVM_INFO scoreboard.sv(143) @ 810000: uvm_test_top.env.sb [scoreboard] [RX] #7: data=0xa5a5a5a5 off=0 size=4 err=0 should_drop=0
UVM_INFO scoreboard.sv(187) @ 810000: uvm_test_top.env.sb [scoreboard] [TX] data=0x000000a5 off=0 size=1
UVM_INFO scoreboard.sv(214) @ 810000: uvm_test_top.env.sb [scoreboard] TX MATCH OK: data=0x000000a5 size=1
UVM_INFO md_componentes.sv(227) @ 830000: uvm_test_top.env.irq_mon [IRQ_MON] [IRQ] @ 830000
UVM_INFO scoreboard.sv(223) @ 830000: uvm_test_top.env.sb [scoreboard] [IRQ #4] @ 830000
UVM_INFO md_componentes.sv(41) @ 830000: uvm_test_top.env.rx_agt.driver [RX_DRV] [RX] data=0xa5a5a5a5 offset=0 size=4 valid=1 err=1
UVM_INFO md_sequences.sv(127) @ 830000: uvm_test_top.env.rx_agt.sequencer@@rx_seq [rx_mixed_seq] Enviado LEGAL: off=0 size=4 data=0xa5a5a5a5
UVM_INFO scoreboard.sv(143) @ 870000: uvm_test_top.env.sb [scoreboard] [RX] #8: data=0xa5a5a5a5 off=1 size=3 err=1 should_drop=1
UVM_INFO scoreboard.sv(156) @ 870000: uvm_test_top.env.sb [scoreboard] DROP OK: RX#8 off=1 size=3
UVM_INFO scoreboard.sv(187) @ 870000: uvm_test_top.env.sb [scoreboard] [TX] data=0x000000a5 off=0 size=1
UVM_INFO scoreboard.sv(214) @ 870000: uvm_test_top.env.sb [scoreboard] TX MATCH OK: data=0x000000a5 size=1
UVM_INFO scoreboard.sv(187) @ 890000: uvm_test_top.env.sb [scoreboard] [TX] data=0x000000a5 off=0 size=1
UVM_INFO scoreboard.sv(214) @ 890000: uvm_test_top.env.sb [scoreboard] TX MATCH OK: data=0x000000a5 size=1
UVM_INFO md_componentes.sv(41) @ 890000: uvm_test_top.env.rx_agt.driver [RX_DRV] [RX] data=0xa5a5a5a5 offset=1 size=3 valid=1 err=1
UVM_INFO md_sequences.sv(144) @ 890000: uvm_test_top.env.rx_agt.sequencer@@rx_seq [rx_mixed_seq] Enviado ILEGAL: off=1 size=3 data=0xa5a5a5a5
UVM_INFO scoreboard.sv(187) @ 910000: uvm_test_top.env.sb [scoreboard] [TX] data=0x000000a5 off=0 size=1
UVM_INFO scoreboard.sv(214) @ 910000: uvm_test_top.env.sb [scoreboard] TX MATCH OK: data=0x000000a5 size=1
UVM_INFO scoreboard.sv(143) @ 930000: uvm_test_top.env.sb [scoreboard] [RX] #9: data=0xa5a5a5a5 off=0 size=3 err=1 should_drop=1
UVM_INFO scoreboard.sv(156) @ 930000: uvm_test_top.env.sb [scoreboard] DROP OK: RX#9 off=0 size=3
UVM_INFO scoreboard.sv(187) @ 930000: uvm_test_top.env.sb [scoreboard] [TX] data=0x000000a5 off=0 size=1
UVM_INFO scoreboard.sv(214) @ 930000: uvm_test_top.env.sb [scoreboard] TX MATCH OK: data=0x000000a5 size=1
UVM_INFO md_componentes.sv(227) @ 950000: uvm_test_top.env.irq_mon [IRQ_MON] [IRQ] @ 950000
UVM_INFO scoreboard.sv(223) @ 950000: uvm_test_top.env.sb [scoreboard] [IRQ #5] @ 950000
UVM_INFO md_componentes.sv(41) @ 950000: uvm_test_top.env.rx_agt.driver [RX_DRV] [RX] data=0xa5a5a5a5 offset=0 size=3 valid=1 err=1
UVM_INFO md_sequences.sv(144) @ 950000: uvm_test_top.env.rx_agt.sequencer@@rx_seq [rx_mixed_seq] Enviado ILEGAL: off=0 size=3 data=0xa5a5a5a5
UVM_INFO scoreboard.sv(143) @ 990000: uvm_test_top.env.sb [scoreboard] [RX] #10: data=0xa5a5a5a5 off=0 size=3 err=1 should_drop=1
UVM_INFO scoreboard.sv(156) @ 990000: uvm_test_top.env.sb [scoreboard] DROP OK: RX#10 off=0 size=3
UVM_INFO md_componentes.sv(41) @ 1010000: uvm_test_top.env.rx_agt.driver [RX_DRV] [RX] data=0xa5a5a5a5 offset=0 size=3 valid=1 err=1
UVM_INFO md_sequences.sv(144) @ 1010000: uvm_test_top.env.rx_agt.sequencer@@rx_seq [rx_mixed_seq] Enviado ILEGAL: off=0 size=3 data=0xa5a5a5a5
UVM_INFO scoreboard.sv(143) @ 1050000: uvm_test_top.env.sb [scoreboard] [RX] #11: data=0xa5a5a5a5 off=0 size=4 err=0 should_drop=0
UVM_INFO md_componentes.sv(41) @ 1070000: uvm_test_top.env.rx_agt.driver [RX_DRV] [RX] data=0xa5a5a5a5 offset=0 size=4 valid=1 err=0
UVM_INFO md_sequences.sv(127) @ 1070000: uvm_test_top.env.rx_agt.sequencer@@rx_seq [rx_mixed_seq] Enviado LEGAL: off=0 size=4 data=0xa5a5a5a5
UVM_INFO md_componentes.sv(227) @ 1090000: uvm_test_top.env.irq_mon [IRQ_MON] [IRQ] @ 1090000
UVM_INFO scoreboard.sv(223) @ 1090000: uvm_test_top.env.sb [scoreboard] [IRQ #6] @ 1090000
UVM_INFO scoreboard.sv(143) @ 1110000: uvm_test_top.env.sb [scoreboard] [RX] #12: data=0xa5a5a5a5 off=3 size=2 err=1 should_drop=1
UVM_INFO scoreboard.sv(156) @ 1110000: uvm_test_top.env.sb [scoreboard] DROP OK: RX#12 off=3 size=2
UVM_INFO scoreboard.sv(187) @ 1110000: uvm_test_top.env.sb [scoreboard] [TX] data=0x000000a5 off=0 size=1
UVM_INFO scoreboard.sv(214) @ 1110000: uvm_test_top.env.sb [scoreboard] TX MATCH OK: data=0x000000a5 size=1
UVM_INFO scoreboard.sv(187) @ 1130000: uvm_test_top.env.sb [scoreboard] [TX] data=0x000000a5 off=0 size=1
UVM_INFO scoreboard.sv(214) @ 1130000: uvm_test_top.env.sb [scoreboard] TX MATCH OK: data=0x000000a5 size=1
UVM_INFO md_componentes.sv(41) @ 1130000: uvm_test_top.env.rx_agt.driver [RX_DRV] [RX] data=0xa5a5a5a5 offset=3 size=2 valid=1 err=0
UVM_INFO md_sequences.sv(144) @ 1130000: uvm_test_top.env.rx_agt.sequencer@@rx_seq [rx_mixed_seq] Enviado ILEGAL: off=3 size=2 data=0xa5a5a5a5
UVM_INFO scoreboard.sv(187) @ 1150000: uvm_test_top.env.sb [scoreboard] [TX] data=0x000000a5 off=0 size=1
UVM_INFO scoreboard.sv(214) @ 1150000: uvm_test_top.env.sb [scoreboard] TX MATCH OK: data=0x000000a5 size=1
UVM_INFO scoreboard.sv(143) @ 1170000: uvm_test_top.env.sb [scoreboard] [RX] #13: data=0xa5a5a5a5 off=2 size=1 err=0 should_drop=0
UVM_INFO scoreboard.sv(187) @ 1170000: uvm_test_top.env.sb [scoreboard] [TX] data=0x000000a5 off=0 size=1
UVM_INFO scoreboard.sv(214) @ 1170000: uvm_test_top.env.sb [scoreboard] TX MATCH OK: data=0x000000a5 size=1
UVM_INFO md_componentes.sv(227) @ 1190000: uvm_test_top.env.irq_mon [IRQ_MON] [IRQ] @ 1190000
UVM_INFO scoreboard.sv(223) @ 1190000: uvm_test_top.env.sb [scoreboard] [IRQ #7] @ 1190000
UVM_INFO md_componentes.sv(41) @ 1190000: uvm_test_top.env.rx_agt.driver [RX_DRV] [RX] data=0xa5a5a5a5 offset=2 size=1 valid=1 err=0
UVM_INFO md_sequences.sv(127) @ 1190000: uvm_test_top.env.rx_agt.sequencer@@rx_seq [rx_mixed_seq] Enviado LEGAL: off=2 size=1 data=0xa5a5a5a5
UVM_INFO scoreboard.sv(143) @ 1230000: uvm_test_top.env.sb [scoreboard] [RX] #14: data=0xa5a5a5a5 off=3 size=2 err=1 should_drop=1
UVM_INFO scoreboard.sv(156) @ 1230000: uvm_test_top.env.sb [scoreboard] DROP OK: RX#14 off=3 size=2
UVM_INFO scoreboard.sv(187) @ 1230000: uvm_test_top.env.sb [scoreboard] [TX] data=0x000000a5 off=0 size=1
UVM_INFO scoreboard.sv(214) @ 1230000: uvm_test_top.env.sb [scoreboard] TX MATCH OK: data=0x000000a5 size=1
UVM_INFO md_componentes.sv(227) @ 1250000: uvm_test_top.env.irq_mon [IRQ_MON] [IRQ] @ 1250000
UVM_INFO scoreboard.sv(223) @ 1250000: uvm_test_top.env.sb [scoreboard] [IRQ #8] @ 1250000
UVM_INFO md_componentes.sv(41) @ 1250000: uvm_test_top.env.rx_agt.driver [RX_DRV] [RX] data=0xa5a5a5a5 offset=3 size=2 valid=1 err=1
UVM_INFO md_sequences.sv(144) @ 1250000: uvm_test_top.env.rx_agt.sequencer@@rx_seq [rx_mixed_seq] Enviado ILEGAL: off=3 size=2 data=0xa5a5a5a5
UVM_INFO scoreboard.sv(143) @ 1290000: uvm_test_top.env.sb [scoreboard] [RX] #15: data=0xa5a5a5a5 off=1 size=1 err=0 should_drop=0
UVM_INFO md_componentes.sv(41) @ 1310000: uvm_test_top.env.rx_agt.driver [RX_DRV] [RX] data=0xa5a5a5a5 offset=1 size=1 valid=1 err=0
UVM_INFO md_sequences.sv(127) @ 1310000: uvm_test_top.env.rx_agt.sequencer@@rx_seq [rx_mixed_seq] Enviado LEGAL: off=1 size=1 data=0xa5a5a5a5
UVM_INFO md_componentes.sv(227) @ 1330000: uvm_test_top.env.irq_mon [IRQ_MON] [IRQ] @ 1330000
UVM_INFO scoreboard.sv(223) @ 1330000: uvm_test_top.env.sb [scoreboard] [IRQ #9] @ 1330000
UVM_INFO scoreboard.sv(143) @ 1350000: uvm_test_top.env.sb [scoreboard] [RX] #16: data=0xa5a5a5a5 off=0 size=2 err=0 should_drop=0
UVM_INFO scoreboard.sv(187) @ 1350000: uvm_test_top.env.sb [scoreboard] [TX] data=0x000000a5 off=0 size=1
UVM_INFO scoreboard.sv(214) @ 1350000: uvm_test_top.env.sb [scoreboard] TX MATCH OK: data=0x000000a5 size=1
UVM_INFO md_componentes.sv(227) @ 1370000: uvm_test_top.env.irq_mon [IRQ_MON] [IRQ] @ 1370000
UVM_INFO scoreboard.sv(223) @ 1370000: uvm_test_top.env.sb [scoreboard] [IRQ #10] @ 1370000
UVM_INFO md_componentes.sv(41) @ 1370000: uvm_test_top.env.rx_agt.driver [RX_DRV] [RX] data=0xa5a5a5a5 offset=0 size=2 valid=1 err=1
UVM_INFO md_sequences.sv(127) @ 1370000: uvm_test_top.env.rx_agt.sequencer@@rx_seq [rx_mixed_seq] Enviado LEGAL: off=0 size=2 data=0xa5a5a5a5
UVM_INFO scoreboard.sv(143) @ 1410000: uvm_test_top.env.sb [scoreboard] [RX] #17: data=0xa5a5a5a5 off=0 size=4 err=0 should_drop=0
UVM_INFO scoreboard.sv(187) @ 1410000: uvm_test_top.env.sb [scoreboard] [TX] data=0x000000a5 off=0 size=1
UVM_INFO scoreboard.sv(214) @ 1410000: uvm_test_top.env.sb [scoreboard] TX MATCH OK: data=0x000000a5 size=1
UVM_INFO scoreboard.sv(187) @ 1430000: uvm_test_top.env.sb [scoreboard] [TX] data=0x000000a5 off=0 size=1
UVM_INFO scoreboard.sv(214) @ 1430000: uvm_test_top.env.sb [scoreboard] TX MATCH OK: data=0x000000a5 size=1
UVM_INFO md_componentes.sv(41) @ 1430000: uvm_test_top.env.rx_agt.driver [RX_DRV] [RX] data=0xa5a5a5a5 offset=0 size=4 valid=1 err=0
UVM_INFO md_sequences.sv(127) @ 1430000: uvm_test_top.env.rx_agt.sequencer@@rx_seq [rx_mixed_seq] Enviado LEGAL: off=0 size=4 data=0xa5a5a5a5
UVM_INFO md_componentes.sv(227) @ 1450000: uvm_test_top.env.irq_mon [IRQ_MON] [IRQ] @ 1450000
UVM_INFO scoreboard.sv(223) @ 1450000: uvm_test_top.env.sb [scoreboard] [IRQ #11] @ 1450000
UVM_INFO scoreboard.sv(143) @ 1470000: uvm_test_top.env.sb [scoreboard] [RX] #18: data=0xa5a5a5a5 off=0 size=4 err=0 should_drop=0
UVM_INFO scoreboard.sv(187) @ 1470000: uvm_test_top.env.sb [scoreboard] [TX] data=0x000000a5 off=0 size=1
UVM_INFO scoreboard.sv(214) @ 1470000: uvm_test_top.env.sb [scoreboard] TX MATCH OK: data=0x000000a5 size=1
UVM_INFO scoreboard.sv(187) @ 1490000: uvm_test_top.env.sb [scoreboard] [TX] data=0x000000a5 off=0 size=1
UVM_INFO scoreboard.sv(214) @ 1490000: uvm_test_top.env.sb [scoreboard] TX MATCH OK: data=0x000000a5 size=1
UVM_INFO md_componentes.sv(41) @ 1490000: uvm_test_top.env.rx_agt.driver [RX_DRV] [RX] data=0xa5a5a5a5 offset=0 size=4 valid=1 err=0
UVM_INFO md_sequences.sv(127) @ 1490000: uvm_test_top.env.rx_agt.sequencer@@rx_seq [rx_mixed_seq] Enviado LEGAL: off=0 size=4 data=0xa5a5a5a5
UVM_INFO scoreboard.sv(187) @ 1510000: uvm_test_top.env.sb [scoreboard] [TX] data=0x000000a5 off=0 size=1
UVM_INFO scoreboard.sv(214) @ 1510000: uvm_test_top.env.sb [scoreboard] TX MATCH OK: data=0x000000a5 size=1
UVM_INFO md_componentes.sv(227) @ 1530000: uvm_test_top.env.irq_mon [IRQ_MON] [IRQ] @ 1530000
UVM_INFO scoreboard.sv(223) @ 1530000: uvm_test_top.env.sb [scoreboard] [IRQ #12] @ 1530000
UVM_INFO scoreboard.sv(143) @ 1530000: uvm_test_top.env.sb [scoreboard] [RX] #19: data=0xa5a5a5a5 off=2 size=3 err=0 should_drop=0
UVM_INFO scoreboard.sv(187) @ 1530000: uvm_test_top.env.sb [scoreboard] [TX] data=0x000000a5 off=0 size=1
UVM_INFO scoreboard.sv(214) @ 1530000: uvm_test_top.env.sb [scoreboard] TX MATCH OK: data=0x000000a5 size=1
UVM_INFO scoreboard.sv(187) @ 1550000: uvm_test_top.env.sb [scoreboard] [TX] data=0x000000a5 off=0 size=1
UVM_INFO scoreboard.sv(214) @ 1550000: uvm_test_top.env.sb [scoreboard] TX MATCH OK: data=0x000000a5 size=1
UVM_INFO md_componentes.sv(41) @ 1550000: uvm_test_top.env.rx_agt.driver [RX_DRV] [RX] data=0xa5a5a5a5 offset=2 size=3 valid=1 err=0
UVM_INFO md_sequences.sv(127) @ 1550000: uvm_test_top.env.rx_agt.sequencer@@rx_seq [rx_mixed_seq] Enviado LEGAL: off=2 size=3 data=0xa5a5a5a5
UVM_INFO scoreboard.sv(187) @ 1570000: uvm_test_top.env.sb [scoreboard] [TX] data=0x000000a5 off=0 size=1
UVM_INFO scoreboard.sv(214) @ 1570000: uvm_test_top.env.sb [scoreboard] TX MATCH OK: data=0x000000a5 size=1
UVM_INFO scoreboard.sv(143) @ 1590000: uvm_test_top.env.sb [scoreboard] [RX] #20: data=0xa5a5a5a5 off=2 size=3 err=0 should_drop=0
UVM_INFO scoreboard.sv(187) @ 1590000: uvm_test_top.env.sb [scoreboard] [TX] data=0x000000a5 off=0 size=1
UVM_INFO scoreboard.sv(214) @ 1590000: uvm_test_top.env.sb [scoreboard] TX MATCH OK: data=0x000000a5 size=1
UVM_INFO scoreboard.sv(187) @ 1610000: uvm_test_top.env.sb [scoreboard] [TX] data=0x000000a5 off=0 size=1
UVM_INFO scoreboard.sv(214) @ 1610000: uvm_test_top.env.sb [scoreboard] TX MATCH OK: data=0x000000a5 size=1
UVM_INFO md_componentes.sv(41) @ 1610000: uvm_test_top.env.rx_agt.driver [RX_DRV] [RX] data=0xa5a5a5a5 offset=2 size=3 valid=1 err=1
UVM_INFO md_sequences.sv(127) @ 1610000: uvm_test_top.env.rx_agt.sequencer@@rx_seq [rx_mixed_seq] Enviado LEGAL: off=2 size=3 data=0xa5a5a5a5
UVM_INFO scoreboard.sv(187) @ 1630000: uvm_test_top.env.sb [scoreboard] [TX] data=0x000000a5 off=0 size=1
UVM_INFO scoreboard.sv(214) @ 1630000: uvm_test_top.env.sb [scoreboard] TX MATCH OK: data=0x000000a5 size=1
UVM_INFO scoreboard.sv(143) @ 1650000: uvm_test_top.env.sb [scoreboard] [RX] #21: data=0xa5a5a5a5 off=2 size=2 err=0 should_drop=0
UVM_INFO scoreboard.sv(187) @ 1650000: uvm_test_top.env.sb [scoreboard] [TX] data=0x000000a5 off=0 size=1
UVM_INFO scoreboard.sv(214) @ 1650000: uvm_test_top.env.sb [scoreboard] TX MATCH OK: data=0x000000a5 size=1
UVM_INFO scoreboard.sv(187) @ 1670000: uvm_test_top.env.sb [scoreboard] [TX] data=0x00000000 off=0 size=1
UVM_ERROR scoreboard.sv(202) @ 1670000: uvm_test_top.env.sb [scoreboard] TX DATA MISMATCH:
  Esperado: 0x000000a5 (size=1)
  Recibido: 0x00000000 (size=1)
UVM_INFO md_componentes.sv(41) @ 1670000: uvm_test_top.env.rx_agt.driver [RX_DRV] [RX] data=0xa5a5a5a5 offset=2 size=2 valid=1 err=0
UVM_INFO md_sequences.sv(127) @ 1670000: uvm_test_top.env.rx_agt.sequencer@@rx_seq [rx_mixed_seq] Enviado LEGAL: off=2 size=2 data=0xa5a5a5a5
UVM_INFO scoreboard.sv(187) @ 1690000: uvm_test_top.env.sb [scoreboard] [TX] data=0x000000a5 off=0 size=1
UVM_INFO scoreboard.sv(214) @ 1690000: uvm_test_top.env.sb [scoreboard] TX MATCH OK: data=0x000000a5 size=1
UVM_INFO scoreboard.sv(143) @ 1710000: uvm_test_top.env.sb [scoreboard] [RX] #22: data=0xa5a5a5a5 off=2 size=3 err=0 should_drop=0
UVM_INFO scoreboard.sv(187) @ 1710000: uvm_test_top.env.sb [scoreboard] [TX] data=0x000000a5 off=0 size=1
UVM_INFO scoreboard.sv(214) @ 1710000: uvm_test_top.env.sb [scoreboard] TX MATCH OK: data=0x000000a5 size=1
UVM_INFO scoreboard.sv(187) @ 1730000: uvm_test_top.env.sb [scoreboard] [TX] data=0x00000000 off=0 size=1
UVM_ERROR scoreboard.sv(202) @ 1730000: uvm_test_top.env.sb [scoreboard] TX DATA MISMATCH:
  Esperado: 0x000000a5 (size=1)
  Recibido: 0x00000000 (size=1)
UVM_INFO md_componentes.sv(41) @ 1730000: uvm_test_top.env.rx_agt.driver [RX_DRV] [RX] data=0xa5a5a5a5 offset=2 size=3 valid=1 err=0
UVM_INFO md_sequences.sv(127) @ 1730000: uvm_test_top.env.rx_agt.sequencer@@rx_seq [rx_mixed_seq] Enviado LEGAL: off=2 size=3 data=0xa5a5a5a5
UVM_INFO scoreboard.sv(187) @ 1750000: uvm_test_top.env.sb [scoreboard] [TX] data=0x000000a5 off=0 size=1
UVM_INFO scoreboard.sv(214) @ 1750000: uvm_test_top.env.sb [scoreboard] TX MATCH OK: data=0x000000a5 size=1
UVM_INFO md_componentes.sv(227) @ 1770000: uvm_test_top.env.irq_mon [IRQ_MON] [IRQ] @ 1770000
