logs/failed_test_3.log
Chronologic VCS simulator copyright 1991-2020
Contains Synopsys proprietary information.
Compiler version R-2020.12-SP2; Runtime version R-2020.12-SP2;  Jun  9 00:37 2026
UVM_INFO /mnt/vol_NFS_rh003/tools/vcs/R-2020.12-SP2/etc/uvm-1.2/base/uvm_root.svh(402) @ 0: reporter [UVM/RELNOTES] 
----------------------------------------------------------------
UVM-1.2.Synopsys
(C) 2007-2014 Mentor Graphics Corporation
(C) 2007-2014 Cadence Design Systems, Inc.
(C) 2006-2014 Synopsys, Inc.
(C) 2011-2013 Cypress Semiconductor Corp.
(C) 2013-2014 NVIDIA Corporation
----------------------------------------------------------------

  ***********       IMPORTANT RELEASE NOTES         ************

  You are using a version of the UVM library that has been compiled
  with `UVM_NO_DEPRECATED undefined.
  See http://www.eda.org/svdb/view.php?id=3313 for more details.

  You are using a version of the UVM library that has been compiled
  with `UVM_OBJECT_DO_NOT_NEED_CONSTRUCTOR undefined.
  See http://www.eda.org/svdb/view.php?id=3770 for more details.

      (Specify +UVM_NO_RELNOTES to turn off this notice)

UVM_INFO tb_top.sv(133) @ 0: reporter [TB_TOP] All interfaces set in config_db
UVM_INFO tb_top.sv(146) @ 0: reporter [TB_TOP] RAL model created and set in config_db
UVM_INFO @ 0: reporter [RNTST] Running test test_general...
UVM_INFO aligner_env.sv(74) @ 0: uvm_test_top.env [aligner_env] Environment connected
UVM_INFO aligner_env.sv(78) @ 0: uvm_test_top.env [aligner_env] Simulation started
-------------------------------------------------------------------------------------------
Name                     Type                      Size  Value                             
-------------------------------------------------------------------------------------------
regmodel                 cfs_aligner_regs          -     @367                              
  ctrl                   cfs_aligner_regs__ctrl    -     @370                              
    size                 uvm_reg_field             ...    RW ctrl[2:0]=3'h1                
    reserved0            uvm_reg_field             ...    RO ctrl[7:3]=5'h00               
    offset               uvm_reg_field             ...    RW ctrl[9:8]=2'h0                
    reserved1            uvm_reg_field             ...    RO ctrl[15:10]=6'h00             
    clr                  uvm_reg_field             ...    WO ctrl[16:16]=1'h0              
    reserved2            uvm_reg_field             ...    RO ctrl[31:17]=15'h0000          
  status                 cfs_aligner_regs__status  -     @378                              
    cnt_drop             uvm_reg_field             ...    RO status[7:0]=8'h00             
    rx_lvl               uvm_reg_field             ...    RO status[11:8]=4'h0             
    reserved0            uvm_reg_field             ...    RO status[15:12]=4'h0            
    tx_lvl               uvm_reg_field             ...    RO status[19:16]=4'h0            
    reserved1            uvm_reg_field             ...    RO status[31:20]=12'h000         
  irqen                  cfs_aligner_regs__irqen   -     @385                              
    rx_fifo_empty        uvm_reg_field             ...    RW irqen[0:0]=1'h1               
    rx_fifo_full         uvm_reg_field             ...    RW irqen[1:1]=1'h1               
    tx_fifo_empty        uvm_reg_field             ...    RW irqen[2:2]=1'h1               
    tx_fifo_full         uvm_reg_field             ...    RW irqen[3:3]=1'h1               
    max_drop             uvm_reg_field             ...    RW irqen[4:4]=1'h1               
    reserved             uvm_reg_field             ...    RO irqen[31:5]=27'h0000000       
  irq                    cfs_aligner_regs__irq     -     @393                              
    rx_fifo_empty        uvm_reg_field             ...    W1C irq[0:0]=1'h0                
    rx_fifo_full         uvm_reg_field             ...    W1C irq[1:1]=1'h0                
    tx_fifo_empty        uvm_reg_field             ...    W1C irq[2:2]=1'h0                
    tx_fifo_full         uvm_reg_field             ...    W1C irq[3:3]=1'h0                
    max_drop             uvm_reg_field             ...    W1C irq[4:4]=1'h0                
    reserved             uvm_reg_field             ...    RO irq[31:5]=27'h0000000         
  reg_map                uvm_reg_map               -     @369                              
    endian                                         ...   UVM_NO_ENDIAN                     
    effective sequencer  apb_sequencer             ...   uvm_test_top.env.apb_agt.sequencer
    ctrl                 cfs_aligner_regs__ctrl    ...   @370 +'h0                         
    status               cfs_aligner_regs__status  ...   @378 +'hc                         
    irqen                cfs_aligner_regs__irqen   ...   @385 +'hf0                        
    irq                  cfs_aligner_regs__irq     ...   @393 +'hf4                        
-------------------------------------------------------------------------------------------
UVM_INFO test_general.sv(316) @ 0: uvm_test_top [test_general] 
==================================================
  TEST GENERAL CONFIGURATION
==================================================
  SEMILLA            = 990966690
  TEST_MODE          = FULL
  APB_NUM_TRANS      = 187
  MD_NUM_PKTS        = 211
  MD_PESO_LEGAL      = 40%
  CTRL_SIZE          = 1
  CTRL_OFFSET        = 0
  MD_PATRON          = RANDOM
  TIMEOUT_MS         = 311
==================================================
UVM_INFO tb_top.sv(116) @ 190000: reporter [TB_TOP] Reset deasserted
UVM_INFO md_componentes.sv(31) @ 210000: uvm_test_top.env.rx_agt.driver [RX_DRV] Reset liberado
UVM_INFO scoreboard.sv(127) @ 270000: uvm_test_top.env.sb [scoreboard] Config actualizada: offset=0 size=1 (pending_bytes=0 flushed)
UVM_INFO test_general.sv(118) @ 270000: uvm_test_top [test_general] CTRL configurado: size=1 offset=0
UVM_INFO test_general.sv(131) @ 350000: uvm_test_top [test_general] IRQEN configurado (todas las interrupciones habilitadas)
UVM_INFO test_general.sv(144) @ 350000: uvm_test_top [test_general] Drenando pipeline del DUT...
UVM_INFO test_general.sv(154) @ 430000: uvm_test_top [test_general] Pipeline drenado OK
UVM_INFO scoreboard.sv(122) @ 430000: uvm_test_top.env.sb [scoreboard] Scoreboard ARMADO — verificación activa
UVM_INFO test_general.sv(166) @ 430000: uvm_test_top [test_general] Iniciando 187 transacciones APB
UVM_INFO scoreboard.sv(127) @ 590000: uvm_test_top.env.sb [scoreboard] Config actualizada: offset=3 size=1 (pending_bytes=0 flushed)
UVM_INFO scoreboard.sv(127) @ 750000: uvm_test_top.env.sb [scoreboard] Config actualizada: offset=1 size=1 (pending_bytes=0 flushed)
UVM_INFO scoreboard.sv(127) @ 830000: uvm_test_top.env.sb [scoreboard] Config actualizada: offset=3 size=1 (pending_bytes=0 flushed)
UVM_INFO test_general.sv(251) @ 930000: uvm_test_top [test_general] Iniciando MD: 84 legales, 127 ilegales, patrón=RANDOM
UVM_INFO md_componentes.sv(41) @ 950000: uvm_test_top.env.rx_agt.driver [RX_DRV] [RX] data=0x7185d283 offset=0 size=3 valid=0 err=1
UVM_INFO md_sequences.sv(144) @ 950000: uvm_test_top.env.rx_agt.sequencer@@rx_seq [rx_mixed_seq] Enviado ILEGAL: off=0 size=3 data=0x7185d283
UVM_INFO scoreboard.sv(143) @ 990000: uvm_test_top.env.sb [scoreboard] [RX] #1: data=0x15a78144 off=3 size=1 err=0 should_drop=0
UVM_INFO md_componentes.sv(41) @ 1010000: uvm_test_top.env.rx_agt.driver [RX_DRV] [RX] data=0x15a78144 offset=3 size=1 valid=1 err=1
UVM_INFO md_sequences.sv(127) @ 1010000: uvm_test_top.env.rx_agt.sequencer@@rx_seq [rx_mixed_seq] Enviado LEGAL: off=3 size=1 data=0x15a78144
UVM_INFO scoreboard.sv(143) @ 1050000: uvm_test_top.env.sb [scoreboard] [RX] #2: data=0xb7a9e292 off=0 size=1 err=0 should_drop=0
UVM_INFO scoreboard.sv(187) @ 1050000: uvm_test_top.env.sb [scoreboard] [TX] data=0x15000000 off=3 size=1
UVM_INFO scoreboard.sv(214) @ 1050000: uvm_test_top.env.sb [scoreboard] TX MATCH OK: data=0x15000000 size=1
UVM_INFO scoreboard.sv(127) @ 1070000: uvm_test_top.env.sb [scoreboard] Config actualizada: offset=2 size=2 (pending_bytes=0 flushed)
UVM_INFO md_componentes.sv(227) @ 1070000: uvm_test_top.env.irq_mon [IRQ_MON] [IRQ] @ 1070000
UVM_INFO scoreboard.sv(223) @ 1070000: uvm_test_top.env.sb [scoreboard] [IRQ #1] @ 1070000
UVM_INFO md_componentes.sv(41) @ 1070000: uvm_test_top.env.rx_agt.driver [RX_DRV] [RX] data=0xb7a9e292 offset=0 size=1 valid=1 err=1
UVM_INFO md_sequences.sv(127) @ 1070000: uvm_test_top.env.rx_agt.sequencer@@rx_seq [rx_mixed_seq] Enviado LEGAL: off=0 size=1 data=0xb7a9e292
UVM_INFO md_componentes.sv(41) @ 1110000: uvm_test_top.env.rx_agt.driver [RX_DRV] [RX] data=0x042863cf offset=2 size=4 valid=0 err=0
UVM_INFO md_sequences.sv(144) @ 1110000: uvm_test_top.env.rx_agt.sequencer@@rx_seq [rx_mixed_seq] Enviado ILEGAL: off=2 size=4 data=0x042863cf
UVM_INFO scoreboard.sv(127) @ 1150000: uvm_test_top.env.sb [scoreboard] Config actualizada: offset=0 size=2 (pending_bytes=0 flushed)
UVM_INFO scoreboard.sv(143) @ 1150000: uvm_test_top.env.sb [scoreboard] [RX] #3: data=0xa191f71c off=3 size=1 err=0 should_drop=0
UVM_INFO md_componentes.sv(41) @ 1170000: uvm_test_top.env.rx_agt.driver [RX_DRV] [RX] data=0xa191f71c offset=3 size=1 valid=1 err=0
UVM_INFO md_sequences.sv(127) @ 1170000: uvm_test_top.env.rx_agt.sequencer@@rx_seq [rx_mixed_seq] Enviado LEGAL: off=3 size=1 data=0xa191f71c
UVM_INFO scoreboard.sv(143) @ 1210000: uvm_test_top.env.sb [scoreboard] [RX] #4: data=0xd84734e9 off=3 size=4 err=1 should_drop=1
UVM_INFO scoreboard.sv(156) @ 1210000: uvm_test_top.env.sb [scoreboard] DROP OK: RX#4 off=3 size=4
UVM_INFO scoreboard.sv(187) @ 1210000: uvm_test_top.env.sb [scoreboard] [TX] data=0x0092a100 off=0 size=2
UVM_ERROR scoreboard.sv(202) @ 1210000: uvm_test_top.env.sb [scoreboard] TX DATA MISMATCH:
  Esperado: 0x92000000 (size=1)
  Recibido: 0x0092a100 (size=2)
UVM_INFO md_componentes.sv(227) @ 1230000: uvm_test_top.env.irq_mon [IRQ_MON] [IRQ] @ 1230000
UVM_INFO scoreboard.sv(223) @ 1230000: uvm_test_top.env.sb [scoreboard] [IRQ #2] @ 1230000
UVM_INFO md_componentes.sv(41) @ 1230000: uvm_test_top.env.rx_agt.driver [RX_DRV] [RX] data=0xd84734e9 offset=3 size=4 valid=1 err=1
UVM_INFO md_sequences.sv(144) @ 1230000: uvm_test_top.env.rx_agt.sequencer@@rx_seq [rx_mixed_seq] Enviado ILEGAL: off=3 size=4 data=0xd84734e9
UVM_INFO scoreboard.sv(143) @ 1270000: uvm_test_top.env.sb [scoreboard] [RX] #5: data=0xe62bcec6 off=0 size=1 err=0 should_drop=0
UVM_INFO md_componentes.sv(41) @ 1290000: uvm_test_top.env.rx_agt.driver [RX_DRV] [RX] data=0xe62bcec6 offset=0 size=1 valid=1 err=1
UVM_INFO md_sequences.sv(127) @ 1290000: uvm_test_top.env.rx_agt.sequencer@@rx_seq [rx_mixed_seq] Enviado LEGAL: off=0 size=1 data=0xe62bcec6
UVM_WARNING apb_componentes.sv(142) @ 1330000: uvm_test_top.env.apb_agt.driver [apb_driver] APB WRITE at addr 0x0 returned error (pslverr=1)
UVM_INFO scoreboard.sv(143) @ 1330000: uvm_test_top.env.sb [scoreboard] [RX] #6: data=0x3221a0fc off=2 size=1 err=0 should_drop=0
UVM_INFO md_componentes.sv(41) @ 1350000: uvm_test_top.env.rx_agt.driver [RX_DRV] [RX] data=0x3221a0fc offset=2 size=1 valid=1 err=0
UVM_INFO md_sequences.sv(127) @ 1350000: uvm_test_top.env.rx_agt.sequencer@@rx_seq [rx_mixed_seq] Enviado LEGAL: off=2 size=1 data=0x3221a0fc
UVM_INFO scoreboard.sv(143) @ 1390000: uvm_test_top.env.sb [scoreboard] [RX] #7: data=0xaac70387 off=1 size=4 err=1 should_drop=1
UVM_INFO scoreboard.sv(156) @ 1390000: uvm_test_top.env.sb [scoreboard] DROP OK: RX#7 off=1 size=4
UVM_INFO scoreboard.sv(187) @ 1390000: uvm_test_top.env.sb [scoreboard] [TX] data=0x000021c6 off=0 size=2
UVM_ERROR scoreboard.sv(202) @ 1390000: uvm_test_top.env.sb [scoreboard] TX DATA MISMATCH:
  Esperado: 0x0000c6a1 (size=2)
  Recibido: 0x000021c6 (size=2)
UVM_INFO md_componentes.sv(227) @ 1410000: uvm_test_top.env.irq_mon [IRQ_MON] [IRQ] @ 1410000
UVM_INFO scoreboard.sv(223) @ 1410000: uvm_test_top.env.sb [scoreboard] [IRQ #3] @ 1410000
UVM_INFO md_componentes.sv(41) @ 1410000: uvm_test_top.env.rx_agt.driver [RX_DRV] [RX] data=0xaac70387 offset=1 size=4 valid=1 err=0
UVM_INFO md_sequences.sv(144) @ 1410000: uvm_test_top.env.rx_agt.sequencer@@rx_seq [rx_mixed_seq] Enviado ILEGAL: off=1 size=4 data=0xaac70387
UVM_INFO scoreboard.sv(143) @ 1450000: uvm_test_top.env.sb [scoreboard] [RX] #8: data=0xe1c4a86b off=1 size=1 err=0 should_drop=0
UVM_INFO md_componentes.sv(41) @ 1470000: uvm_test_top.env.rx_agt.driver [RX_DRV] [RX] data=0xe1c4a86b offset=1 size=1 valid=1 err=0
UVM_INFO md_sequences.sv(127) @ 1470000: uvm_test_top.env.rx_agt.sequencer@@rx_seq [rx_mixed_seq] Enviado LEGAL: off=1 size=1 data=0xe1c4a86b
UVM_INFO scoreboard.sv(143) @ 1510000: uvm_test_top.env.sb [scoreboard] [RX] #9: data=0x4356f21a off=1 size=2 err=1 should_drop=1
UVM_INFO scoreboard.sv(156) @ 1510000: uvm_test_top.env.sb [scoreboard] DROP OK: RX#9 off=1 size=2
UVM_INFO md_componentes.sv(41) @ 1530000: uvm_test_top.env.rx_agt.driver [RX_DRV] [RX] data=0x4356f21a offset=1 size=2 valid=1 err=0
UVM_INFO md_sequences.sv(144) @ 1530000: uvm_test_top.env.rx_agt.sequencer@@rx_seq [rx_mixed_seq] Enviado ILEGAL: off=1 size=2 data=0x4356f21a
UVM_INFO scoreboard.sv(143) @ 1570000: uvm_test_top.env.sb [scoreboard] [RX] #10: data=0x0d38ddf4 off=1 size=1 err=0 should_drop=0
UVM_INFO md_componentes.sv(41) @ 1590000: uvm_test_top.env.rx_agt.driver [RX_DRV] [RX] data=0x0d38ddf4 offset=1 size=1 valid=1 err=0
UVM_INFO md_sequences.sv(127) @ 1590000: uvm_test_top.env.rx_agt.sequencer@@rx_seq [rx_mixed_seq] Enviado LEGAL: off=1 size=1 data=0x0d38ddf4
UVM_INFO scoreboard.sv(143) @ 1630000: uvm_test_top.env.sb [scoreboard] [RX] #11: data=0xbd38437f off=0 size=3 err=1 should_drop=1
UVM_INFO scoreboard.sv(156) @ 1630000: uvm_test_top.env.sb [scoreboard] DROP OK: RX#11 off=0 size=3
UVM_INFO scoreboard.sv(187) @ 1630000: uvm_test_top.env.sb [scoreboard] [TX] data=0x0000dda8 off=0 size=2
UVM_ERROR scoreboard.sv(202) @ 1630000: uvm_test_top.env.sb [scoreboard] TX DATA MISMATCH:
  Esperado: 0x0000a821 (size=2)
  Recibido: 0x0000dda8 (size=2)
UVM_INFO scoreboard.sv(127) @ 1650000: uvm_test_top.env.sb [scoreboard] Config actualizada: offset=0 size=4 (pending_bytes=1 flushed)
UVM_INFO md_componentes.sv(227) @ 1650000: uvm_test_top.env.irq_mon [IRQ_MON] [IRQ] @ 1650000
UVM_INFO scoreboard.sv(223) @ 1650000: uvm_test_top.env.sb [scoreboard] [IRQ #4] @ 1650000
UVM_INFO md_componentes.sv(41) @ 1650000: uvm_test_top.env.rx_agt.driver [RX_DRV] [RX] data=0xbd38437f offset=0 size=3 valid=1 err=0
UVM_INFO md_sequences.sv(144) @ 1650000: uvm_test_top.env.rx_agt.sequencer@@rx_seq [rx_mixed_seq] Enviado ILEGAL: off=0 size=3 data=0xbd38437f
UVM_INFO scoreboard.sv(143) @ 1690000: uvm_test_top.env.sb [scoreboard] [RX] #12: data=0x6e340dec off=0 size=1 err=0 should_drop=0
UVM_INFO md_componentes.sv(41) @ 1710000: uvm_test_top.env.rx_agt.driver [RX_DRV] [RX] data=0x6e340dec offset=0 size=1 valid=1 err=1
UVM_INFO md_sequences.sv(127) @ 1710000: uvm_test_top.env.rx_agt.sequencer@@rx_seq [rx_mixed_seq] Enviado LEGAL: off=0 size=1 data=0x6e340dec
UVM_INFO scoreboard.sv(143) @ 1750000: uvm_test_top.env.sb [scoreboard] [RX] #13: data=0x41d6bbb8 off=3 size=2 err=1 should_drop=1
UVM_INFO scoreboard.sv(156) @ 1750000: uvm_test_top.env.sb [scoreboard] DROP OK: RX#13 off=3 size=2
UVM_INFO md_componentes.sv(41) @ 1770000: uvm_test_top.env.rx_agt.driver [RX_DRV] [RX] data=0x41d6bbb8 offset=3 size=2 valid=1 err=0
UVM_INFO md_sequences.sv(144) @ 1770000: uvm_test_top.env.rx_agt.sequencer@@rx_seq [rx_mixed_seq] Enviado ILEGAL: off=3 size=2 data=0x41d6bbb8
UVM_INFO scoreboard.sv(143) @ 1810000: uvm_test_top.env.sb [scoreboard] [RX] #14: data=0x3c58e6f4 off=3 size=4 err=1 should_drop=1
UVM_INFO scoreboard.sv(156) @ 1810000: uvm_test_top.env.sb [scoreboard] DROP OK: RX#14 off=3 size=4
UVM_INFO md_componentes.sv(41) @ 1830000: uvm_test_top.env.rx_agt.driver [RX_DRV] [RX] data=0x3c58e6f4 offset=3 size=4 valid=1 err=0
UVM_INFO md_sequences.sv(144) @ 1830000: uvm_test_top.env.rx_agt.sequencer@@rx_seq [rx_mixed_seq] Enviado ILEGAL: off=3 size=4 data=0x3c58e6f4
UVM_INFO scoreboard.sv(143) @ 1870000: uvm_test_top.env.sb [scoreboard] [RX] #15: data=0x58e2020d off=3 size=2 err=1 should_drop=1
UVM_INFO scoreboard.sv(156) @ 1870000: uvm_test_top.env.sb [scoreboard] DROP OK: RX#15 off=3 size=2
UVM_INFO md_componentes.sv(41) @ 1890000: uvm_test_top.env.rx_agt.driver [RX_DRV] [RX] data=0x58e2020d offset=3 size=2 valid=1 err=0
UVM_INFO md_sequences.sv(144) @ 1890000: uvm_test_top.env.rx_agt.sequencer@@rx_seq [rx_mixed_seq] Enviado ILEGAL: off=3 size=2 data=0x58e2020d
UVM_INFO scoreboard.sv(143) @ 1930000: uvm_test_top.env.sb [scoreboard] [RX] #16: data=0xdcbf5d65 off=1 size=1 err=0 should_drop=0
UVM_INFO md_componentes.sv(41) @ 1950000: uvm_test_top.env.rx_agt.driver [RX_DRV] [RX] data=0xdcbf5d65 offset=1 size=1 valid=1 err=0
UVM_INFO md_sequences.sv(127) @ 1950000: uvm_test_top.env.rx_agt.sequencer@@rx_seq [rx_mixed_seq] Enviado LEGAL: off=1 size=1 data=0xdcbf5d65
UVM_INFO scoreboard.sv(127) @ 1970000: uvm_test_top.env.sb [scoreboard] Config actualizada: offset=1 size=1 (pending_bytes=2 flushed)
UVM_INFO scoreboard.sv(143) @ 1990000: uvm_test_top.env.sb [scoreboard] [RX] #17: data=0x7d370396 off=2 size=1 err=0 should_drop=0
UVM_INFO md_componentes.sv(41) @ 2010000: uvm_test_top.env.rx_agt.driver [RX_DRV] [RX] data=0x7d370396 offset=2 size=1 valid=1 err=0
UVM_INFO md_sequences.sv(127) @ 2010000: uvm_test_top.env.rx_agt.sequencer@@rx_seq [rx_mixed_seq] Enviado LEGAL: off=2 size=1 data=0x7d370396
UVM_INFO scoreboard.sv(143) @ 2050000: uvm_test_top.env.sb [scoreboard] [RX] #18: data=0xdf796eb1 off=3 size=3 err=1 should_drop=1
UVM_INFO scoreboard.sv(156) @ 2050000: uvm_test_top.env.sb [scoreboard] DROP OK: RX#18 off=3 size=3
UVM_INFO md_componentes.sv(41) @ 2070000: uvm_test_top.env.rx_agt.driver [RX_DRV] [RX] data=0xdf796eb1 offset=3 size=3 valid=1 err=1
UVM_INFO md_sequences.sv(144) @ 2070000: uvm_test_top.env.rx_agt.sequencer@@rx_seq [rx_mixed_seq] Enviado ILEGAL: off=3 size=3 data=0xdf796eb1
UVM_INFO scoreboard.sv(143) @ 2110000: uvm_test_top.env.sb [scoreboard] [RX] #19: data=0x4a3b7289 off=0 size=4 err=0 should_drop=0
UVM_INFO md_componentes.sv(41) @ 2130000: uvm_test_top.env.rx_agt.driver [RX_DRV] [RX] data=0x4a3b7289 offset=0 size=4 valid=1 err=0
UVM_INFO md_sequences.sv(127) @ 2130000: uvm_test_top.env.rx_agt.sequencer@@rx_seq [rx_mixed_seq] Enviado LEGAL: off=0 size=4 data=0x4a3b7289
UVM_WARNING apb_componentes.sv(142) @ 2150000: uvm_test_top.env.apb_agt.driver [apb_driver] APB WRITE at addr 0x0 returned error (pslverr=1)
UVM_INFO scoreboard.sv(143) @ 2170000: uvm_test_top.env.sb [scoreboard] [RX] #20: data=0xb73d6b92 off=0 size=3 err=1 should_drop=1
UVM_INFO scoreboard.sv(156) @ 2170000: uvm_test_top.env.sb [scoreboard] DROP OK: RX#20 off=0 size=3
UVM_INFO md_componentes.sv(41) @ 2190000: uvm_test_top.env.rx_agt.driver [RX_DRV] [RX] data=0xb73d6b92 offset=0 size=3 valid=1 err=1
UVM_INFO md_sequences.sv(144) @ 2190000: uvm_test_top.env.rx_agt.sequencer@@rx_seq [rx_mixed_seq] Enviado ILEGAL: off=0 size=3 data=0xb73d6b92
UVM_INFO scoreboard.sv(127) @ 2230000: uvm_test_top.env.sb [scoreboard] Config actualizada: offset=0 size=4 (pending_bytes=0 flushed)
UVM_INFO scoreboard.sv(143) @ 2230000: uvm_test_top.env.sb [scoreboard] [RX] #21: data=0xaf2e8cc4 off=0 size=3 err=1 should_drop=1
UVM_INFO scoreboard.sv(156) @ 2230000: uvm_test_top.env.sb [scoreboard] DROP OK: RX#21 off=0 size=3
UVM_INFO md_componentes.sv(41) @ 2250000: uvm_test_top.env.rx_agt.driver [RX_DRV] [RX] data=0xaf2e8cc4 offset=0 size=3 valid=1 err=1
UVM_INFO md_sequences.sv(144) @ 2250000: uvm_test_top.env.rx_agt.sequencer@@rx_seq [rx_mixed_seq] Enviado ILEGAL: off=0 size=3 data=0xaf2e8cc4
UVM_INFO scoreboard.sv(143) @ 2290000: uvm_test_top.env.sb [scoreboard] [RX] #22: data=0xf3b62d19 off=1 size=4 err=1 should_drop=1
UVM_INFO scoreboard.sv(156) @ 2290000: uvm_test_top.env.sb [scoreboard] DROP OK: RX#22 off=1 size=4
UVM_INFO md_componentes.sv(41) @ 2310000: uvm_test_top.env.rx_agt.driver [RX_DRV] [RX] data=0xf3b62d19 offset=1 size=4 valid=1 err=1
UVM_INFO md_sequences.sv(144) @ 2310000: uvm_test_top.env.rx_agt.sequencer@@rx_seq [rx_mixed_seq] Enviado ILEGAL: off=1 size=4 data=0xf3b62d19
UVM_INFO scoreboard.sv(143) @ 2350000: uvm_test_top.env.sb [scoreboard] [RX] #23: data=0x6f617cb9 off=2 size=1 err=0 should_drop=0
UVM_INFO md_componentes.sv(41) @ 2370000: uvm_test_top.env.rx_agt.driver [RX_DRV] [RX] data=0x6f617cb9 offset=2 size=1 valid=1 err=1
UVM_INFO md_sequences.sv(127) @ 2370000: uvm_test_top.env.rx_agt.sequencer@@rx_seq [rx_mixed_seq] Enviado LEGAL: off=2 size=1 data=0x6f617cb9
UVM_INFO scoreboard.sv(143) @ 2410000: uvm_test_top.env.sb [scoreboard] [RX] #24: data=0x386417c6 off=0 size=3 err=1 should_drop=1
UVM_INFO scoreboard.sv(156) @ 2410000: uvm_test_top.env.sb [scoreboard] DROP OK: RX#24 off=0 size=3
UVM_INFO md_componentes.sv(41) @ 2430000: uvm_test_top.env.rx_agt.driver [RX_DRV] [RX] data=0x386417c6 offset=0 size=3 valid=1 err=0
UVM_INFO md_sequences.sv(144) @ 2430000: uvm_test_top.env.rx_agt.sequencer@@rx_seq [rx_mixed_seq] Enviado ILEGAL: off=0 size=3 data=0x386417c6
UVM_INFO scoreboard.sv(143) @ 2470000: uvm_test_top.env.sb [scoreboard] [RX] #25: data=0x4e61fa6e off=3 size=2 err=1 should_drop=1
UVM_INFO scoreboard.sv(156) @ 2470000: uvm_test_top.env.sb [scoreboard] DROP OK: RX#25 off=3 size=2
UVM_INFO md_componentes.sv(41) @ 2490000: uvm_test_top.env.rx_agt.driver [RX_DRV] [RX] data=0x4e61fa6e offset=3 size=2 valid=1 err=0
UVM_INFO md_sequences.sv(144) @ 2490000: uvm_test_top.env.rx_agt.sequencer@@rx_seq [rx_mixed_seq] Enviado ILEGAL: off=3 size=2 data=0x4e61fa6e
UVM_INFO scoreboard.sv(143) @ 2530000: uvm_test_top.env.sb [scoreboard] [RX] #26: data=0x1f310c87 off=3 size=3 err=1 should_drop=1
UVM_INFO scoreboard.sv(156) @ 2530000: uvm_test_top.env.sb [scoreboard] DROP OK: RX#26 off=3 size=3
UVM_INFO md_componentes.sv(41) @ 2550000: uvm_test_top.env.rx_agt.driver [RX_DRV] [RX] data=0x1f310c87 offset=3 size=3 valid=1 err=0
UVM_INFO md_sequences.sv(144) @ 2550000: uvm_test_top.env.rx_agt.sequencer@@rx_seq [rx_mixed_seq] Enviado ILEGAL: off=3 size=3 data=0x1f310c87
UVM_INFO scoreboard.sv(143) @ 2590000: uvm_test_top.env.sb [scoreboard] [RX] #27: data=0x1dff8bfe off=0 size=4 err=0 should_drop=0
UVM_INFO md_componentes.sv(41) @ 2610000: uvm_test_top.env.rx_agt.driver [RX_DRV] [RX] data=0x1dff8bfe offset=0 size=4 valid=1 err=0
UVM_INFO md_sequences.sv(127) @ 2610000: uvm_test_top.env.rx_agt.sequencer@@rx_seq [rx_mixed_seq] Enviado LEGAL: off=0 size=4 data=0x1dff8bfe
UVM_INFO scoreboard.sv(143) @ 2650000: uvm_test_top.env.sb [scoreboard] [RX] #28: data=0xbcf5b772 off=2 size=4 err=1 should_drop=1
UVM_INFO scoreboard.sv(156) @ 2650000: uvm_test_top.env.sb [scoreboard] DROP OK: RX#28 off=2 size=4
UVM_INFO scoreboard.sv(187) @ 2650000: uvm_test_top.env.sb [scoreboard] [TX] data=0x3fffdffe off=0 size=4
UVM_ERROR scoreboard.sv(202) @ 2650000: uvm_test_top.env.sb [scoreboard] TX DATA MISMATCH:
  Esperado: 0x00003700 (size=1)
  Recibido: 0x3fffdffe (size=4)
UVM_INFO md_componentes.sv(227) @ 2670000: uvm_test_top.env.irq_mon [IRQ_MON] [IRQ] @ 2670000
UVM_INFO scoreboard.sv(223) @ 2670000: uvm_test_top.env.sb [scoreboard] [IRQ #5] @ 2670000
UVM_INFO md_componentes.sv(41) @ 2670000: uvm_test_top.env.rx_agt.driver [RX_DRV] [RX] data=0xbcf5b772 offset=2 size=4 valid=1 err=1
UVM_INFO md_sequences.sv(144) @ 2670000: uvm_test_top.env.rx_agt.sequencer@@rx_seq [rx_mixed_seq] Enviado ILEGAL: off=2 size=4 data=0xbcf5b772
UVM_INFO md_componentes.sv(41) @ 2710000: uvm_test_top.env.rx_agt.driver [RX_DRV] [RX] data=0x5b855dc1 offset=1 size=3 valid=0 err=1
UVM_INFO md_sequences.sv(144) @ 2710000: uvm_test_top.env.rx_agt.sequencer@@rx_seq [rx_mixed_seq] Enviado ILEGAL: off=1 size=3 data=0x5b855dc1
UVM_INFO scoreboard.sv(143) @ 2750000: uvm_test_top.env.sb [scoreboard] [RX] #29: data=0x24162787 off=3 size=2 err=1 should_drop=1
UVM_INFO scoreboard.sv(156) @ 2750000: uvm_test_top.env.sb [scoreboard] DROP OK: RX#29 off=3 size=2
UVM_INFO md_componentes.sv(41) @ 2770000: uvm_test_top.env.rx_agt.driver [RX_DRV] [RX] data=0x24162787 offset=3 size=2 valid=1 err=1
UVM_INFO md_sequences.sv(144) @ 2770000: uvm_test_top.env.rx_agt.sequencer@@rx_seq [rx_mixed_seq] Enviado ILEGAL: off=3 size=2 data=0x24162787
UVM_INFO scoreboard.sv(143) @ 2810000: uvm_test_top.env.sb [scoreboard] [RX] #30: data=0x37060968 off=0 size=2 err=0 should_drop=0
UVM_INFO md_componentes.sv(41) @ 2830000: uvm_test_top.env.rx_agt.driver [RX_DRV] [RX] data=0x37060968 offset=0 size=2 valid=1 err=0
UVM_INFO md_sequences.sv(127) @ 2830000: uvm_test_top.env.rx_agt.sequencer@@rx_seq [rx_mixed_seq] Enviado LEGAL: off=0 size=2 data=0x37060968
UVM_INFO scoreboard.sv(143) @ 2870000: uvm_test_top.env.sb [scoreboard] [RX] #31: data=0xa19174db off=0 size=3 err=1 should_drop=1
UVM_INFO scoreboard.sv(156) @ 2870000: uvm_test_top.env.sb [scoreboard] DROP OK: RX#31 off=0 size=3
UVM_INFO md_componentes.sv(41) @ 2890000: uvm_test_top.env.rx_agt.driver [RX_DRV] [RX] data=0xa19174db offset=0 size=3 valid=1 err=1
UVM_INFO md_sequences.sv(144) @ 2890000: uvm_test_top.env.rx_agt.sequencer@@rx_seq [rx_mixed_seq] Enviado ILEGAL: off=0 size=3 data=0xa19174db
UVM_INFO scoreboard.sv(143) @ 2930000: uvm_test_top.env.sb [scoreboard] [RX] #32: data=0x0fd9c51c off=1 size=2 err=1 should_drop=1
UVM_INFO scoreboard.sv(156) @ 2930000: uvm_test_top.env.sb [scoreboard] DROP OK: RX#32 off=1 size=2
UVM_INFO scoreboard.sv(127) @ 2950000: uvm_test_top.env.sb [scoreboard] Config actualizada: offset=1 size=1 (pending_bytes=3 flushed)
UVM_INFO md_componentes.sv(41) @ 2950000: uvm_test_top.env.rx_agt.driver [RX_DRV] [RX] data=0x0fd9c51c offset=1 size=2 valid=1 err=1
UVM_INFO md_sequences.sv(144) @ 2950000: uvm_test_top.env.rx_agt.sequencer@@rx_seq [rx_mixed_seq] Enviado ILEGAL: off=1 size=2 data=0x0fd9c51c
UVM_INFO scoreboard.sv(143) @ 2990000: uvm_test_top.env.sb [scoreboard] [RX] #33: data=0xf70194c7 off=2 size=4 err=1 should_drop=1
UVM_INFO scoreboard.sv(156) @ 2990000: uvm_test_top.env.sb [scoreboard] DROP OK: RX#33 off=2 size=4
