logs/failed_test_2.log
Chronologic VCS simulator copyright 1991-2020
Contains Synopsys proprietary information.
Compiler version R-2020.12-SP2; Runtime version R-2020.12-SP2;  Jun  8 18:04 2026
UVM_INFO /mnt/vol_NFS_rh003/tools/vcs/R-2020.12-SP2/etc/uvm-1.2/base/uvm_root.svh(402) @ 0: reporter [UVM/RELNOTES] 
----------------------------------------------------------------
UVM-1.2.Synopsys
(C) 2007-2014 Mentor Graphics Corporation
(C) 2007-2014 Cadence Design Systems, Inc.
(C) 2006-2014 Synopsys, Inc.
(C) 2011-2013 Cypress Semiconductor Corp.
(C) 2013-2014 NVIDIA Corporation
----------------------------------------------------------------

  ***********       IMPORTANT RELEASE NOTES         ************

  You are using a version of the UVM library that has been compiled
  with `UVM_NO_DEPRECATED undefined.
  See http://www.eda.org/svdb/view.php?id=3313 for more details.

  You are using a version of the UVM library that has been compiled
  with `UVM_OBJECT_DO_NOT_NEED_CONSTRUCTOR undefined.
  See http://www.eda.org/svdb/view.php?id=3770 for more details.

      (Specify +UVM_NO_RELNOTES to turn off this notice)

UVM_INFO tb_top.sv(133) @ 0: reporter [TB_TOP] All interfaces set in config_db
UVM_INFO tb_top.sv(146) @ 0: reporter [TB_TOP] RAL model created and set in config_db
UVM_INFO @ 0: reporter [RNTST] Running test test_general...
UVM_INFO aligner_env.sv(74) @ 0: uvm_test_top.env [aligner_env] Environment connected
UVM_INFO aligner_env.sv(78) @ 0: uvm_test_top.env [aligner_env] Simulation started
-------------------------------------------------------------------------------------------
Name                     Type                      Size  Value                             
-------------------------------------------------------------------------------------------
regmodel                 cfs_aligner_regs          -     @367                              
  ctrl                   cfs_aligner_regs__ctrl    -     @370                              
    size                 uvm_reg_field             ...    RW ctrl[2:0]=3'h1                
    reserved0            uvm_reg_field             ...    RO ctrl[7:3]=5'h00               
    offset               uvm_reg_field             ...    RW ctrl[9:8]=2'h0                
    reserved1            uvm_reg_field             ...    RO ctrl[15:10]=6'h00             
    clr                  uvm_reg_field             ...    WO ctrl[16:16]=1'h0              
    reserved2            uvm_reg_field             ...    RO ctrl[31:17]=15'h0000          
  status                 cfs_aligner_regs__status  -     @378                              
    cnt_drop             uvm_reg_field             ...    RO status[7:0]=8'h00             
    rx_lvl               uvm_reg_field             ...    RO status[11:8]=4'h0             
    reserved0            uvm_reg_field             ...    RO status[15:12]=4'h0            
    tx_lvl               uvm_reg_field             ...    RO status[19:16]=4'h0            
    reserved1            uvm_reg_field             ...    RO status[31:20]=12'h000         
  irqen                  cfs_aligner_regs__irqen   -     @385                              
    rx_fifo_empty        uvm_reg_field             ...    RW irqen[0:0]=1'h1               
    rx_fifo_full         uvm_reg_field             ...    RW irqen[1:1]=1'h1               
    tx_fifo_empty        uvm_reg_field             ...    RW irqen[2:2]=1'h1               
    tx_fifo_full         uvm_reg_field             ...    RW irqen[3:3]=1'h1               
    max_drop             uvm_reg_field             ...    RW irqen[4:4]=1'h1               
    reserved             uvm_reg_field             ...    RO irqen[31:5]=27'h0000000       
  irq                    cfs_aligner_regs__irq     -     @393                              
    rx_fifo_empty        uvm_reg_field             ...    W1C irq[0:0]=1'h0                
    rx_fifo_full         uvm_reg_field             ...    W1C irq[1:1]=1'h0                
    tx_fifo_empty        uvm_reg_field             ...    W1C irq[2:2]=1'h0                
    tx_fifo_full         uvm_reg_field             ...    W1C irq[3:3]=1'h0                
    max_drop             uvm_reg_field             ...    W1C irq[4:4]=1'h0                
    reserved             uvm_reg_field             ...    RO irq[31:5]=27'h0000000         
  reg_map                uvm_reg_map               -     @369                              
    endian                                         ...   UVM_NO_ENDIAN                     
    effective sequencer  apb_sequencer             ...   uvm_test_top.env.apb_agt.sequencer
    ctrl                 cfs_aligner_regs__ctrl    ...   @370 +'h0                         
    status               cfs_aligner_regs__status  ...   @378 +'hc                         
    irqen                cfs_aligner_regs__irqen   ...   @385 +'hf0                        
    irq                  cfs_aligner_regs__irq     ...   @393 +'hf4                        
-------------------------------------------------------------------------------------------
UVM_INFO test_general.sv(281) @ 0: uvm_test_top [test_general] 
==================================================
  TEST GENERAL CONFIGURATION
==================================================
  SEMILLA            = 203576908
  TEST_MODE          = FULL
  APB_NUM_TRANS      = 388
  MD_NUM_PKTS        = 106
  MD_PESO_LEGAL      = 28%
  CTRL_SIZE          = 1
  CTRL_OFFSET        = 0
  MD_PATRON          = INCR
  TIMEOUT_MS         = 406
==================================================
UVM_INFO tb_top.sv(116) @ 190000: reporter [TB_TOP] Reset deasserted
UVM_INFO md_componentes.sv(31) @ 210000: uvm_test_top.env.rx_agt.driver [RX_DRV] Reset liberado
UVM_INFO scoreboard.sv(132) @ 270000: uvm_test_top.env.sb [scoreboard] Config actualizada: offset=0 size=1
UVM_INFO test_general.sv(128) @ 270000: uvm_test_top [test_general] CTRL configurado: size=1 offset=0
UVM_INFO test_general.sv(143) @ 350000: uvm_test_top [test_general] IRQEN configurado (todas las interrupciones habilitadas)
UVM_INFO test_general.sv(158) @ 350000: uvm_test_top [test_general] Iniciando 388 transacciones APB
UVM_INFO scoreboard.sv(132) @ 510000: uvm_test_top.env.sb [scoreboard] Config actualizada: offset=3 size=1
UVM_WARNING apb_componentes.sv(142) @ 770000: uvm_test_top.env.apb_agt.driver [apb_driver] APB WRITE at addr 0x0 returned error (pslverr=1)
UVM_INFO test_general.sv(236) @ 850000: uvm_test_top [test_general] Iniciando MD: 29 legales, 77 ilegales, patrón=INCR
UVM_INFO scoreboard.sv(142) @ 870000: uvm_test_top.env.sb [scoreboard] [RX] #1: data=0x00000000 off=1 size=3 err=1 should_drop=1
UVM_INFO scoreboard.sv(155) @ 870000: uvm_test_top.env.sb [scoreboard] DROP OK: RX#1 off=1 size=3
UVM_INFO md_componentes.sv(41) @ 890000: uvm_test_top.env.rx_agt.driver [RX_DRV] [RX] data=0x00000000 offset=1 size=3 valid=1 err=0
UVM_INFO md_sequences.sv(144) @ 890000: uvm_test_top.env.rx_agt.sequencer@@rx_seq [rx_mixed_seq] Enviado ILEGAL: off=1 size=3 data=0x00000000
UVM_INFO md_componentes.sv(41) @ 930000: uvm_test_top.env.rx_agt.driver [RX_DRV] [RX] data=0x00000001 offset=2 size=4 valid=0 err=1
UVM_INFO md_sequences.sv(144) @ 930000: uvm_test_top.env.rx_agt.sequencer@@rx_seq [rx_mixed_seq] Enviado ILEGAL: off=2 size=4 data=0x00000001
UVM_INFO scoreboard.sv(142) @ 970000: uvm_test_top.env.sb [scoreboard] [RX] #2: data=0x00000002 off=2 size=1 err=0 should_drop=0
UVM_INFO md_componentes.sv(41) @ 990000: uvm_test_top.env.rx_agt.driver [RX_DRV] [RX] data=0x00000002 offset=2 size=1 valid=1 err=1
UVM_INFO md_sequences.sv(127) @ 990000: uvm_test_top.env.rx_agt.sequencer@@rx_seq [rx_mixed_seq] Enviado LEGAL: off=2 size=1 data=0x00000002
UVM_INFO scoreboard.sv(142) @ 1030000: uvm_test_top.env.sb [scoreboard] [RX] #3: data=0x00000003 off=3 size=4 err=1 should_drop=1
UVM_INFO scoreboard.sv(155) @ 1030000: uvm_test_top.env.sb [scoreboard] DROP OK: RX#3 off=3 size=4
UVM_INFO scoreboard.sv(178) @ 1030000: uvm_test_top.env.sb [scoreboard] [TX] data=0x00000000 off=3 size=1
UVM_ERROR scoreboard.sv(183) @ 1030000: uvm_test_top.env.sb [scoreboard] TX OFFSET INCORRECTO: recibido=3 esperado=0 (debe ser siempre 0)
"aligner_if.sv", 106: tb_top.vif.ast_tx_offset: started at 1030000ps failed at 1030000ps
	Offending '(md_tx_offset == 2'b0)'
Error: "aligner_if.sv", 106: tb_top.vif.ast_tx_offset: at time 1030000 ps
[IF] md_tx_offset != 0
UVM_INFO md_componentes.sv(227) @ 1050000: uvm_test_top.env.irq_mon [IRQ_MON] [IRQ] @ 1050000
UVM_INFO scoreboard.sv(225) @ 1050000: uvm_test_top.env.sb [scoreboard] [IRQ #1] @ 1050000
UVM_INFO md_componentes.sv(41) @ 1050000: uvm_test_top.env.rx_agt.driver [RX_DRV] [RX] data=0x00000003 offset=3 size=4 valid=1 err=0
UVM_INFO md_sequences.sv(144) @ 1050000: uvm_test_top.env.rx_agt.sequencer@@rx_seq [rx_mixed_seq] Enviado ILEGAL: off=3 size=4 data=0x00000003
UVM_INFO scoreboard.sv(132) @ 1090000: uvm_test_top.env.sb [scoreboard] Config actualizada: offset=2 size=3
UVM_INFO scoreboard.sv(142) @ 1090000: uvm_test_top.env.sb [scoreboard] [RX] #4: data=0x00000004 off=3 size=2 err=1 should_drop=1
UVM_INFO scoreboard.sv(155) @ 1090000: uvm_test_top.env.sb [scoreboard] DROP OK: RX#4 off=3 size=2
UVM_INFO md_componentes.sv(41) @ 1110000: uvm_test_top.env.rx_agt.driver [RX_DRV] [RX] data=0x00000004 offset=3 size=2 valid=1 err=0
UVM_INFO md_sequences.sv(144) @ 1110000: uvm_test_top.env.rx_agt.sequencer@@rx_seq [rx_mixed_seq] Enviado ILEGAL: off=3 size=2 data=0x00000004
UVM_INFO scoreboard.sv(142) @ 1150000: uvm_test_top.env.sb [scoreboard] [RX] #5: data=0x00000005 off=3 size=4 err=1 should_drop=1
UVM_INFO scoreboard.sv(155) @ 1150000: uvm_test_top.env.sb [scoreboard] DROP OK: RX#5 off=3 size=4
UVM_INFO md_componentes.sv(41) @ 1170000: uvm_test_top.env.rx_agt.driver [RX_DRV] [RX] data=0x00000005 offset=3 size=4 valid=1 err=1
UVM_INFO md_sequences.sv(144) @ 1170000: uvm_test_top.env.rx_agt.sequencer@@rx_seq [rx_mixed_seq] Enviado ILEGAL: off=3 size=4 data=0x00000005
UVM_INFO scoreboard.sv(142) @ 1210000: uvm_test_top.env.sb [scoreboard] [RX] #6: data=0x00000006 off=3 size=4 err=1 should_drop=1
UVM_INFO scoreboard.sv(155) @ 1210000: uvm_test_top.env.sb [scoreboard] DROP OK: RX#6 off=3 size=4
UVM_INFO md_componentes.sv(41) @ 1230000: uvm_test_top.env.rx_agt.driver [RX_DRV] [RX] data=0x00000006 offset=3 size=4 valid=1 err=0
UVM_INFO md_sequences.sv(144) @ 1230000: uvm_test_top.env.rx_agt.sequencer@@rx_seq [rx_mixed_seq] Enviado ILEGAL: off=3 size=4 data=0x00000006
UVM_INFO scoreboard.sv(142) @ 1270000: uvm_test_top.env.sb [scoreboard] [RX] #7: data=0x00000007 off=1 size=4 err=1 should_drop=1
UVM_INFO scoreboard.sv(155) @ 1270000: uvm_test_top.env.sb [scoreboard] DROP OK: RX#7 off=1 size=4
UVM_INFO md_componentes.sv(41) @ 1290000: uvm_test_top.env.rx_agt.driver [RX_DRV] [RX] data=0x00000007 offset=1 size=4 valid=1 err=1
UVM_INFO md_sequences.sv(144) @ 1290000: uvm_test_top.env.rx_agt.sequencer@@rx_seq [rx_mixed_seq] Enviado ILEGAL: off=1 size=4 data=0x00000007
UVM_INFO scoreboard.sv(142) @ 1330000: uvm_test_top.env.sb [scoreboard] [RX] #8: data=0x00000008 off=0 size=2 err=0 should_drop=0
UVM_INFO md_componentes.sv(41) @ 1350000: uvm_test_top.env.rx_agt.driver [RX_DRV] [RX] data=0x00000008 offset=0 size=2 valid=1 err=1
UVM_INFO md_sequences.sv(127) @ 1350000: uvm_test_top.env.rx_agt.sequencer@@rx_seq [rx_mixed_seq] Enviado LEGAL: off=0 size=2 data=0x00000008
UVM_INFO md_componentes.sv(227) @ 1370000: uvm_test_top.env.irq_mon [IRQ_MON] [IRQ] @ 1370000
UVM_INFO scoreboard.sv(225) @ 1370000: uvm_test_top.env.sb [scoreboard] [IRQ #2] @ 1370000
UVM_INFO scoreboard.sv(142) @ 1390000: uvm_test_top.env.sb [scoreboard] [RX] #9: data=0x00000009 off=3 size=3 err=1 should_drop=1
UVM_INFO scoreboard.sv(155) @ 1390000: uvm_test_top.env.sb [scoreboard] DROP OK: RX#9 off=3 size=3
UVM_INFO md_componentes.sv(41) @ 1410000: uvm_test_top.env.rx_agt.driver [RX_DRV] [RX] data=0x00000009 offset=3 size=3 valid=1 err=0
UVM_INFO md_sequences.sv(144) @ 1410000: uvm_test_top.env.rx_agt.sequencer@@rx_seq [rx_mixed_seq] Enviado ILEGAL: off=3 size=3 data=0x00000009
UVM_INFO scoreboard.sv(142) @ 1450000: uvm_test_top.env.sb [scoreboard] [RX] #10: data=0x0000000a off=0 size=3 err=1 should_drop=1
UVM_INFO scoreboard.sv(155) @ 1450000: uvm_test_top.env.sb [scoreboard] DROP OK: RX#10 off=0 size=3
UVM_INFO md_componentes.sv(41) @ 1470000: uvm_test_top.env.rx_agt.driver [RX_DRV] [RX] data=0x0000000a offset=0 size=3 valid=1 err=1
UVM_INFO md_sequences.sv(144) @ 1470000: uvm_test_top.env.rx_agt.sequencer@@rx_seq [rx_mixed_seq] Enviado ILEGAL: off=0 size=3 data=0x0000000a
UVM_INFO scoreboard.sv(142) @ 1510000: uvm_test_top.env.sb [scoreboard] [RX] #11: data=0x0000000b off=2 size=2 err=0 should_drop=0
UVM_INFO md_componentes.sv(41) @ 1530000: uvm_test_top.env.rx_agt.driver [RX_DRV] [RX] data=0x0000000b offset=2 size=2 valid=1 err=0
UVM_INFO md_sequences.sv(127) @ 1530000: uvm_test_top.env.rx_agt.sequencer@@rx_seq [rx_mixed_seq] Enviado LEGAL: off=2 size=2 data=0x0000000b
UVM_INFO md_componentes.sv(227) @ 1550000: uvm_test_top.env.irq_mon [IRQ_MON] [IRQ] @ 1550000
UVM_INFO scoreboard.sv(225) @ 1550000: uvm_test_top.env.sb [scoreboard] [IRQ #3] @ 1550000
UVM_INFO scoreboard.sv(142) @ 1570000: uvm_test_top.env.sb [scoreboard] [RX] #12: data=0x0000000c off=2 size=4 err=1 should_drop=1
UVM_INFO scoreboard.sv(155) @ 1570000: uvm_test_top.env.sb [scoreboard] DROP OK: RX#12 off=2 size=4
UVM_INFO scoreboard.sv(178) @ 1570000: uvm_test_top.env.sb [scoreboard] [TX] data=0x00080000 off=2 size=3
UVM_ERROR scoreboard.sv(183) @ 1570000: uvm_test_top.env.sb [scoreboard] TX OFFSET INCORRECTO: recibido=2 esperado=0 (debe ser siempre 0)
"aligner_if.sv", 106: tb_top.vif.ast_tx_offset: started at 1570000ps failed at 1570000ps
	Offending '(md_tx_offset == 2'b0)'
Error: "aligner_if.sv", 106: tb_top.vif.ast_tx_offset: at time 1570000 ps
[IF] md_tx_offset != 0
UVM_INFO md_componentes.sv(227) @ 1590000: uvm_test_top.env.irq_mon [IRQ_MON] [IRQ] @ 1590000
UVM_INFO scoreboard.sv(225) @ 1590000: uvm_test_top.env.sb [scoreboard] [IRQ #4] @ 1590000
UVM_INFO md_componentes.sv(41) @ 1590000: uvm_test_top.env.rx_agt.driver [RX_DRV] [RX] data=0x0000000c offset=2 size=4 valid=1 err=0
UVM_INFO md_sequences.sv(144) @ 1590000: uvm_test_top.env.rx_agt.sequencer@@rx_seq [rx_mixed_seq] Enviado ILEGAL: off=2 size=4 data=0x0000000c
UVM_INFO scoreboard.sv(142) @ 1630000: uvm_test_top.env.sb [scoreboard] [RX] #13: data=0x0000000d off=0 size=4 err=0 should_drop=0
UVM_INFO md_componentes.sv(41) @ 1650000: uvm_test_top.env.rx_agt.driver [RX_DRV] [RX] data=0x0000000d offset=0 size=4 valid=1 err=1
UVM_INFO md_sequences.sv(127) @ 1650000: uvm_test_top.env.rx_agt.sequencer@@rx_seq [rx_mixed_seq] Enviado LEGAL: off=0 size=4 data=0x0000000d
UVM_INFO scoreboard.sv(142) @ 1690000: uvm_test_top.env.sb [scoreboard] [RX] #14: data=0x0000000e off=0 size=3 err=1 should_drop=1
UVM_INFO scoreboard.sv(155) @ 1690000: uvm_test_top.env.sb [scoreboard] DROP OK: RX#14 off=0 size=3
UVM_INFO scoreboard.sv(178) @ 1690000: uvm_test_top.env.sb [scoreboard] [TX] data=0x0d000000 off=2 size=3
UVM_ERROR scoreboard.sv(183) @ 1690000: uvm_test_top.env.sb [scoreboard] TX OFFSET INCORRECTO: recibido=2 esperado=0 (debe ser siempre 0)
"aligner_if.sv", 106: tb_top.vif.ast_tx_offset: started at 1690000ps failed at 1690000ps
	Offending '(md_tx_offset == 2'b0)'
Error: "aligner_if.sv", 106: tb_top.vif.ast_tx_offset: at time 1690000 ps
[IF] md_tx_offset != 0
UVM_INFO md_componentes.sv(227) @ 1710000: uvm_test_top.env.irq_mon [IRQ_MON] [IRQ] @ 1710000
UVM_INFO scoreboard.sv(225) @ 1710000: uvm_test_top.env.sb [scoreboard] [IRQ #5] @ 1710000
UVM_INFO md_componentes.sv(41) @ 1710000: uvm_test_top.env.rx_agt.driver [RX_DRV] [RX] data=0x0000000e offset=0 size=3 valid=1 err=0
UVM_INFO md_sequences.sv(144) @ 1710000: uvm_test_top.env.rx_agt.sequencer@@rx_seq [rx_mixed_seq] Enviado ILEGAL: off=0 size=3 data=0x0000000e
UVM_INFO scoreboard.sv(142) @ 1750000: uvm_test_top.env.sb [scoreboard] [RX] #15: data=0x0000000f off=2 size=3 err=0 should_drop=0
UVM_INFO md_componentes.sv(41) @ 1770000: uvm_test_top.env.rx_agt.driver [RX_DRV] [RX] data=0x0000000f offset=2 size=3 valid=1 err=0
UVM_INFO md_sequences.sv(127) @ 1770000: uvm_test_top.env.rx_agt.sequencer@@rx_seq [rx_mixed_seq] Enviado LEGAL: off=2 size=3 data=0x0000000f
UVM_INFO scoreboard.sv(142) @ 1810000: uvm_test_top.env.sb [scoreboard] [RX] #16: data=0x00000010 off=2 size=4 err=1 should_drop=1
UVM_INFO scoreboard.sv(155) @ 1810000: uvm_test_top.env.sb [scoreboard] DROP OK: RX#16 off=2 size=4
UVM_INFO scoreboard.sv(178) @ 1810000: uvm_test_top.env.sb [scoreboard] [TX] data=0x00000000 off=2 size=3
UVM_ERROR scoreboard.sv(183) @ 1810000: uvm_test_top.env.sb [scoreboard] TX OFFSET INCORRECTO: recibido=2 esperado=0 (debe ser siempre 0)
"aligner_if.sv", 106: tb_top.vif.ast_tx_offset: started at 1810000ps failed at 1810000ps
	Offending '(md_tx_offset == 2'b0)'
Error: "aligner_if.sv", 106: tb_top.vif.ast_tx_offset: at time 1810000 ps
[IF] md_tx_offset != 0
UVM_INFO md_componentes.sv(227) @ 1830000: uvm_test_top.env.irq_mon [IRQ_MON] [IRQ] @ 1830000
UVM_INFO scoreboard.sv(225) @ 1830000: uvm_test_top.env.sb [scoreboard] [IRQ #6] @ 1830000
UVM_INFO md_componentes.sv(41) @ 1830000: uvm_test_top.env.rx_agt.driver [RX_DRV] [RX] data=0x00000010 offset=2 size=4 valid=1 err=1
UVM_INFO md_sequences.sv(144) @ 1830000: uvm_test_top.env.rx_agt.sequencer@@rx_seq [rx_mixed_seq] Enviado ILEGAL: off=2 size=4 data=0x00000010
UVM_INFO scoreboard.sv(142) @ 1870000: uvm_test_top.env.sb [scoreboard] [RX] #17: data=0x00000011 off=1 size=2 err=1 should_drop=1
UVM_INFO scoreboard.sv(155) @ 1870000: uvm_test_top.env.sb [scoreboard] DROP OK: RX#17 off=1 size=2
UVM_INFO md_componentes.sv(41) @ 1890000: uvm_test_top.env.rx_agt.driver [RX_DRV] [RX] data=0x00000011 offset=1 size=2 valid=1 err=0
UVM_INFO md_sequences.sv(144) @ 1890000: uvm_test_top.env.rx_agt.sequencer@@rx_seq [rx_mixed_seq] Enviado ILEGAL: off=1 size=2 data=0x00000011
UVM_INFO scoreboard.sv(142) @ 1930000: uvm_test_top.env.sb [scoreboard] [RX] #18: data=0x00000012 off=3 size=2 err=1 should_drop=1
UVM_INFO scoreboard.sv(155) @ 1930000: uvm_test_top.env.sb [scoreboard] DROP OK: RX#18 off=3 size=2
UVM_INFO md_componentes.sv(41) @ 1950000: uvm_test_top.env.rx_agt.driver [RX_DRV] [RX] data=0x00000012 offset=3 size=2 valid=1 err=0
UVM_INFO md_sequences.sv(144) @ 1950000: uvm_test_top.env.rx_agt.sequencer@@rx_seq [rx_mixed_seq] Enviado ILEGAL: off=3 size=2 data=0x00000012
UVM_INFO scoreboard.sv(132) @ 1970000: uvm_test_top.env.sb [scoreboard] Config actualizada: offset=2 size=1
UVM_INFO scoreboard.sv(142) @ 1990000: uvm_test_top.env.sb [scoreboard] [RX] #19: data=0x00000013 off=2 size=4 err=1 should_drop=1
UVM_INFO scoreboard.sv(155) @ 1990000: uvm_test_top.env.sb [scoreboard] DROP OK: RX#19 off=2 size=4
UVM_INFO md_componentes.sv(41) @ 2010000: uvm_test_top.env.rx_agt.driver [RX_DRV] [RX] data=0x00000013 offset=2 size=4 valid=1 err=1
UVM_INFO md_sequences.sv(144) @ 2010000: uvm_test_top.env.rx_agt.sequencer@@rx_seq [rx_mixed_seq] Enviado ILEGAL: off=2 size=4 data=0x00000013
UVM_INFO scoreboard.sv(142) @ 2050000: uvm_test_top.env.sb [scoreboard] [RX] #20: data=0x00000014 off=0 size=3 err=1 should_drop=1
UVM_INFO scoreboard.sv(155) @ 2050000: uvm_test_top.env.sb [scoreboard] DROP OK: RX#20 off=0 size=3
UVM_INFO md_componentes.sv(41) @ 2070000: uvm_test_top.env.rx_agt.driver [RX_DRV] [RX] data=0x00000014 offset=0 size=3 valid=1 err=0
UVM_INFO md_sequences.sv(144) @ 2070000: uvm_test_top.env.rx_agt.sequencer@@rx_seq [rx_mixed_seq] Enviado ILEGAL: off=0 size=3 data=0x00000014
UVM_INFO scoreboard.sv(142) @ 2110000: uvm_test_top.env.sb [scoreboard] [RX] #21: data=0x00000015 off=3 size=2 err=1 should_drop=1
UVM_INFO scoreboard.sv(155) @ 2110000: uvm_test_top.env.sb [scoreboard] DROP OK: RX#21 off=3 size=2
UVM_INFO md_componentes.sv(41) @ 2130000: uvm_test_top.env.rx_agt.driver [RX_DRV] [RX] data=0x00000015 offset=3 size=2 valid=1 err=0
UVM_INFO md_sequences.sv(144) @ 2130000: uvm_test_top.env.rx_agt.sequencer@@rx_seq [rx_mixed_seq] Enviado ILEGAL: off=3 size=2 data=0x00000015
UVM_INFO scoreboard.sv(142) @ 2170000: uvm_test_top.env.sb [scoreboard] [RX] #22: data=0x00000016 off=0 size=3 err=1 should_drop=1
UVM_INFO scoreboard.sv(155) @ 2170000: uvm_test_top.env.sb [scoreboard] DROP OK: RX#22 off=0 size=3
UVM_INFO md_componentes.sv(41) @ 2190000: uvm_test_top.env.rx_agt.driver [RX_DRV] [RX] data=0x00000016 offset=0 size=3 valid=1 err=0
UVM_INFO md_sequences.sv(144) @ 2190000: uvm_test_top.env.rx_agt.sequencer@@rx_seq [rx_mixed_seq] Enviado ILEGAL: off=0 size=3 data=0x00000016
UVM_INFO scoreboard.sv(132) @ 2210000: uvm_test_top.env.sb [scoreboard] Config actualizada: offset=2 size=2
UVM_INFO scoreboard.sv(142) @ 2230000: uvm_test_top.env.sb [scoreboard] [RX] #23: data=0x00000017 off=0 size=3 err=1 should_drop=1
UVM_INFO scoreboard.sv(155) @ 2230000: uvm_test_top.env.sb [scoreboard] DROP OK: RX#23 off=0 size=3
UVM_INFO md_componentes.sv(41) @ 2250000: uvm_test_top.env.rx_agt.driver [RX_DRV] [RX] data=0x00000017 offset=0 size=3 valid=1 err=0
UVM_INFO md_sequences.sv(144) @ 2250000: uvm_test_top.env.rx_agt.sequencer@@rx_seq [rx_mixed_seq] Enviado ILEGAL: off=0 size=3 data=0x00000017
UVM_INFO scoreboard.sv(142) @ 2290000: uvm_test_top.env.sb [scoreboard] [RX] #24: data=0x00000018 off=1 size=1 err=0 should_drop=0
UVM_WARNING apb_componentes.sv(142) @ 2310000: uvm_test_top.env.apb_agt.driver [apb_driver] APB WRITE at addr 0x0 returned error (pslverr=1)
UVM_INFO md_componentes.sv(41) @ 2310000: uvm_test_top.env.rx_agt.driver [RX_DRV] [RX] data=0x00000018 offset=1 size=1 valid=1 err=0
UVM_INFO md_sequences.sv(127) @ 2310000: uvm_test_top.env.rx_agt.sequencer@@rx_seq [rx_mixed_seq] Enviado LEGAL: off=1 size=1 data=0x00000018
UVM_INFO md_componentes.sv(227) @ 2330000: uvm_test_top.env.irq_mon [IRQ_MON] [IRQ] @ 2330000
UVM_INFO scoreboard.sv(225) @ 2330000: uvm_test_top.env.sb [scoreboard] [IRQ #7] @ 2330000
UVM_INFO scoreboard.sv(142) @ 2350000: uvm_test_top.env.sb [scoreboard] [RX] #25: data=0x00000019 off=0 size=3 err=1 should_drop=1
UVM_INFO scoreboard.sv(155) @ 2350000: uvm_test_top.env.sb [scoreboard] DROP OK: RX#25 off=0 size=3
UVM_INFO scoreboard.sv(178) @ 2350000: uvm_test_top.env.sb [scoreboard] [TX] data=0x00000000 off=2 size=2
UVM_ERROR scoreboard.sv(183) @ 2350000: uvm_test_top.env.sb [scoreboard] TX OFFSET INCORRECTO: recibido=2 esperado=0 (debe ser siempre 0)
"aligner_if.sv", 106: tb_top.vif.ast_tx_offset: started at 2350000ps failed at 2350000ps
	Offending '(md_tx_offset == 2'b0)'
Error: "aligner_if.sv", 106: tb_top.vif.ast_tx_offset: at time 2350000 ps
[IF] md_tx_offset != 0
UVM_INFO md_componentes.sv(227) @ 2370000: uvm_test_top.env.irq_mon [IRQ_MON] [IRQ] @ 2370000
UVM_INFO scoreboard.sv(225) @ 2370000: uvm_test_top.env.sb [scoreboard] [IRQ #8] @ 2370000
UVM_INFO md_componentes.sv(41) @ 2370000: uvm_test_top.env.rx_agt.driver [RX_DRV] [RX] data=0x00000019 offset=0 size=3 valid=1 err=1
UVM_INFO md_sequences.sv(144) @ 2370000: uvm_test_top.env.rx_agt.sequencer@@rx_seq [rx_mixed_seq] Enviado ILEGAL: off=0 size=3 data=0x00000019
UVM_WARNING apb_componentes.sv(142) @ 2410000: uvm_test_top.env.apb_agt.driver [apb_driver] APB WRITE at addr 0x0 returned error (pslverr=1)
UVM_INFO scoreboard.sv(142) @ 2410000: uvm_test_top.env.sb [scoreboard] [RX] #26: data=0x0000001a off=3 size=3 err=1 should_drop=1
UVM_INFO scoreboard.sv(155) @ 2410000: uvm_test_top.env.sb [scoreboard] DROP OK: RX#26 off=3 size=3
UVM_INFO md_componentes.sv(41) @ 2430000: uvm_test_top.env.rx_agt.driver [RX_DRV] [RX] data=0x0000001a offset=3 size=3 valid=1 err=0
UVM_INFO md_sequences.sv(144) @ 2430000: uvm_test_top.env.rx_agt.sequencer@@rx_seq [rx_mixed_seq] Enviado ILEGAL: off=3 size=3 data=0x0000001a
UVM_INFO scoreboard.sv(142) @ 2470000: uvm_test_top.env.sb [scoreboard] [RX] #27: data=0x0000001b off=0 size=3 err=1 should_drop=1
UVM_INFO scoreboard.sv(155) @ 2470000: uvm_test_top.env.sb [scoreboard] DROP OK: RX#27 off=0 size=3
UVM_INFO md_componentes.sv(41) @ 2490000: uvm_test_top.env.rx_agt.driver [RX_DRV] [RX] data=0x0000001b offset=0 size=3 valid=1 err=1
UVM_INFO md_sequences.sv(144) @ 2490000: uvm_test_top.env.rx_agt.sequencer@@rx_seq [rx_mixed_seq] Enviado ILEGAL: off=0 size=3 data=0x0000001b
UVM_INFO scoreboard.sv(142) @ 2530000: uvm_test_top.env.sb [scoreboard] [RX] #28: data=0x0000001c off=2 size=3 err=0 should_drop=0
UVM_INFO md_componentes.sv(41) @ 2550000: uvm_test_top.env.rx_agt.driver [RX_DRV] [RX] data=0x0000001c offset=2 size=3 valid=1 err=0
UVM_INFO md_sequences.sv(127) @ 2550000: uvm_test_top.env.rx_agt.sequencer@@rx_seq [rx_mixed_seq] Enviado LEGAL: off=2 size=3 data=0x0000001c
UVM_INFO md_componentes.sv(227) @ 2570000: uvm_test_top.env.irq_mon [IRQ_MON] [IRQ] @ 2570000
UVM_INFO scoreboard.sv(225) @ 2570000: uvm_test_top.env.sb [scoreboard] [IRQ #9] @ 2570000
UVM_INFO scoreboard.sv(142) @ 2590000: uvm_test_top.env.sb [scoreboard] [RX] #29: data=0x0000001d off=0 size=4 err=0 should_drop=0
UVM_INFO scoreboard.sv(178) @ 2590000: uvm_test_top.env.sb [scoreboard] [TX] data=0x00000000 off=2 size=2
UVM_ERROR scoreboard.sv(183) @ 2590000: uvm_test_top.env.sb [scoreboard] TX OFFSET INCORRECTO: recibido=2 esperado=0 (debe ser siempre 0)
"aligner_if.sv", 106: tb_top.vif.ast_tx_offset: started at 2590000ps failed at 2590000ps
	Offending '(md_tx_offset == 2'b0)'
Error: "aligner_if.sv", 106: tb_top.vif.ast_tx_offset: at time 2590000 ps
[IF] md_tx_offset != 0
UVM_INFO scoreboard.sv(178) @ 2610000: uvm_test_top.env.sb [scoreboard] [TX] data=0x00000000 off=2 size=2
UVM_ERROR scoreboard.sv(183) @ 2610000: uvm_test_top.env.sb [scoreboard] TX OFFSET INCORRECTO: recibido=2 esperado=0 (debe ser siempre 0)
UVM_INFO md_componentes.sv(41) @ 2610000: uvm_test_top.env.rx_agt.driver [RX_DRV] [RX] data=0x0000001d offset=0 size=4 valid=1 err=1
UVM_INFO md_sequences.sv(127) @ 2610000: uvm_test_top.env.rx_agt.sequencer@@rx_seq [rx_mixed_seq] Enviado LEGAL: off=0 size=4 data=0x0000001d
"aligner_if.sv", 106: tb_top.vif.ast_tx_offset: started at 2610000ps failed at 2610000ps
	Offending '(md_tx_offset == 2'b0)'
Error: "aligner_if.sv", 106: tb_top.vif.ast_tx_offset: at time 2610000 ps
[IF] md_tx_offset != 0
UVM_INFO md_componentes.sv(227) @ 2630000: uvm_test_top.env.irq_mon [IRQ_MON] [IRQ] @ 2630000
UVM_INFO scoreboard.sv(225) @ 2630000: uvm_test_top.env.sb [scoreboard] [IRQ #10] @ 2630000
