logs/test_1.log
Chronologic VCS simulator copyright 1991-2020
Contains Synopsys proprietary information.
Compiler version R-2020.12-SP2; Runtime version R-2020.12-SP2;  Jun 15 12:05 2026
UVM_INFO /mnt/vol_NFS_rh003/tools/vcs/R-2020.12-SP2/etc/uvm-1.2/base/uvm_root.svh(402) @ 0: reporter [UVM/RELNOTES] 
----------------------------------------------------------------
UVM-1.2.Synopsys
(C) 2007-2014 Mentor Graphics Corporation
(C) 2007-2014 Cadence Design Systems, Inc.
(C) 2006-2014 Synopsys, Inc.
(C) 2011-2013 Cypress Semiconductor Corp.
(C) 2013-2014 NVIDIA Corporation
----------------------------------------------------------------

  ***********       IMPORTANT RELEASE NOTES         ************

  You are using a version of the UVM library that has been compiled
  with `UVM_NO_DEPRECATED undefined.
  See http://www.eda.org/svdb/view.php?id=3313 for more details.

  You are using a version of the UVM library that has been compiled
  with `UVM_OBJECT_DO_NOT_NEED_CONSTRUCTOR undefined.
  See http://www.eda.org/svdb/view.php?id=3770 for more details.

      (Specify +UVM_NO_RELNOTES to turn off this notice)

UVM_INFO tb_top.sv(133) @ 0: reporter [TB_TOP] All interfaces set in config_db
UVM_INFO tb_top.sv(146) @ 0: reporter [TB_TOP] RAL model created and set in config_db
UVM_INFO @ 0: reporter [RNTST] Running test test_general...
UVM_INFO aligner_env.sv(74) @ 0: uvm_test_top.env [aligner_env] Environment connected
UVM_INFO aligner_env.sv(78) @ 0: uvm_test_top.env [aligner_env] Simulation started
-------------------------------------------------------------------------------------------
Name                     Type                      Size  Value                             
-------------------------------------------------------------------------------------------
regmodel                 cfs_aligner_regs          -     @367                              
  ctrl                   cfs_aligner_regs__ctrl    -     @370                              
    size                 uvm_reg_field             ...    RW ctrl[2:0]=3'h1                
    reserved0            uvm_reg_field             ...    RO ctrl[7:3]=5'h00               
    offset               uvm_reg_field             ...    RW ctrl[9:8]=2'h0                
    reserved1            uvm_reg_field             ...    RO ctrl[15:10]=6'h00             
    clr                  uvm_reg_field             ...    WO ctrl[16:16]=1'h0              
    reserved2            uvm_reg_field             ...    RO ctrl[31:17]=15'h0000          
  status                 cfs_aligner_regs__status  -     @378                              
    cnt_drop             uvm_reg_field             ...    RO status[7:0]=8'h00             
    rx_lvl               uvm_reg_field             ...    RO status[11:8]=4'h0             
    reserved0            uvm_reg_field             ...    RO status[15:12]=4'h0            
    tx_lvl               uvm_reg_field             ...    RO status[19:16]=4'h0            
    reserved1            uvm_reg_field             ...    RO status[31:20]=12'h000         
  irqen                  cfs_aligner_regs__irqen   -     @385                              
    rx_fifo_empty        uvm_reg_field             ...    RW irqen[0:0]=1'h1               
    rx_fifo_full         uvm_reg_field             ...    RW irqen[1:1]=1'h1               
    tx_fifo_empty        uvm_reg_field             ...    RW irqen[2:2]=1'h1               
    tx_fifo_full         uvm_reg_field             ...    RW irqen[3:3]=1'h1               
    max_drop             uvm_reg_field             ...    RW irqen[4:4]=1'h1               
    reserved             uvm_reg_field             ...    RO irqen[31:5]=27'h0000000       
  irq                    cfs_aligner_regs__irq     -     @393                              
    rx_fifo_empty        uvm_reg_field             ...    W1C irq[0:0]=1'h0                
    rx_fifo_full         uvm_reg_field             ...    W1C irq[1:1]=1'h0                
    tx_fifo_empty        uvm_reg_field             ...    W1C irq[2:2]=1'h0                
    tx_fifo_full         uvm_reg_field             ...    W1C irq[3:3]=1'h0                
    max_drop             uvm_reg_field             ...    W1C irq[4:4]=1'h0                
    reserved             uvm_reg_field             ...    RO irq[31:5]=27'h0000000         
  reg_map                uvm_reg_map               -     @369                              
    endian                                         ...   UVM_NO_ENDIAN                     
    effective sequencer  apb_sequencer             ...   uvm_test_top.env.apb_agt.sequencer
    ctrl                 cfs_aligner_regs__ctrl    ...   @370 +'h0                         
    status               cfs_aligner_regs__status  ...   @378 +'hc                         
    irqen                cfs_aligner_regs__irqen   ...   @385 +'hf0                        
    irq                  cfs_aligner_regs__irq     ...   @393 +'hf4                        
-------------------------------------------------------------------------------------------
UVM_INFO test_general.sv(316) @ 0: uvm_test_top [test_general] 
==================================================
  TEST GENERAL CONFIGURATION
==================================================
  SEMILLA            = 193602466
  TEST_MODE          = MD_ONLY
  APB_NUM_TRANS      = 81
  MD_NUM_PKTS        = 88
  MD_PESO_LEGAL      = 13%
  CTRL_SIZE          = 3
  CTRL_OFFSET        = 2
  MD_PATRON          = DECR
  TIMEOUT_MS         = 227
==================================================
UVM_INFO tb_top.sv(116) @ 190000: reporter [TB_TOP] Reset deasserted
UVM_INFO md_componentes.sv(31) @ 210000: uvm_test_top.env.rx_agt.driver [RX_DRV] Reset liberado
UVM_INFO scoreboard.sv(127) @ 270000: uvm_test_top.env.sb [scoreboard] Config actualizada: offset=2 size=3 (pending_bytes=0 flushed, expected_tx_queue=0 flushed)
UVM_INFO test_general.sv(118) @ 270000: uvm_test_top [test_general] CTRL configurado: size=3 offset=2
UVM_INFO test_general.sv(131) @ 350000: uvm_test_top [test_general] IRQEN configurado (todas las interrupciones habilitadas)
UVM_INFO test_general.sv(144) @ 350000: uvm_test_top [test_general] Drenando pipeline del DUT...
UVM_INFO test_general.sv(154) @ 430000: uvm_test_top [test_general] Pipeline drenado OK
UVM_INFO scoreboard.sv(122) @ 430000: uvm_test_top.env.sb [scoreboard] Scoreboard ARMADO — verificación activa
UVM_INFO test_general.sv(251) @ 430000: uvm_test_top [test_general] Iniciando MD: 11 legales, 77 ilegales, patrón=DECR
UVM_INFO scoreboard.sv(148) @ 450000: uvm_test_top.env.sb [scoreboard] [RX] #1: data=0x00000000 off=0 size=3 err=1 should_drop=1
UVM_INFO scoreboard.sv(161) @ 450000: uvm_test_top.env.sb [scoreboard] DROP OK: RX#1 off=0 size=3
UVM_INFO md_componentes.sv(41) @ 470000: uvm_test_top.env.rx_agt.driver [RX_DRV] [RX] data=0x00000000 offset=0 size=3 valid=1 err=0
UVM_INFO md_sequences.sv(144) @ 470000: uvm_test_top.env.rx_agt.sequencer@@rx_seq [rx_mixed_seq] Enviado ILEGAL: off=0 size=3 data=0x00000000
UVM_INFO md_componentes.sv(41) @ 510000: uvm_test_top.env.rx_agt.driver [RX_DRV] [RX] data=0xffffffff offset=3 size=3 valid=0 err=1
UVM_INFO md_sequences.sv(144) @ 510000: uvm_test_top.env.rx_agt.sequencer@@rx_seq [rx_mixed_seq] Enviado ILEGAL: off=3 size=3 data=0xffffffff
UVM_INFO scoreboard.sv(148) @ 550000: uvm_test_top.env.sb [scoreboard] [RX] #2: data=0xfffffffe off=3 size=4 err=1 should_drop=1
UVM_INFO scoreboard.sv(161) @ 550000: uvm_test_top.env.sb [scoreboard] DROP OK: RX#2 off=3 size=4
UVM_INFO md_componentes.sv(41) @ 570000: uvm_test_top.env.rx_agt.driver [RX_DRV] [RX] data=0xfffffffe offset=3 size=4 valid=1 err=1
UVM_INFO md_sequences.sv(144) @ 570000: uvm_test_top.env.rx_agt.sequencer@@rx_seq [rx_mixed_seq] Enviado ILEGAL: off=3 size=4 data=0xfffffffe
UVM_INFO scoreboard.sv(148) @ 610000: uvm_test_top.env.sb [scoreboard] [RX] #3: data=0xfffffffd off=1 size=2 err=1 should_drop=1
UVM_INFO scoreboard.sv(161) @ 610000: uvm_test_top.env.sb [scoreboard] DROP OK: RX#3 off=1 size=2
UVM_INFO md_componentes.sv(41) @ 630000: uvm_test_top.env.rx_agt.driver [RX_DRV] [RX] data=0xfffffffd offset=1 size=2 valid=1 err=1
UVM_INFO md_sequences.sv(144) @ 630000: uvm_test_top.env.rx_agt.sequencer@@rx_seq [rx_mixed_seq] Enviado ILEGAL: off=1 size=2 data=0xfffffffd
UVM_INFO scoreboard.sv(148) @ 670000: uvm_test_top.env.sb [scoreboard] [RX] #4: data=0xfffffffc off=0 size=3 err=1 should_drop=1
UVM_INFO scoreboard.sv(161) @ 670000: uvm_test_top.env.sb [scoreboard] DROP OK: RX#4 off=0 size=3
UVM_INFO md_componentes.sv(41) @ 690000: uvm_test_top.env.rx_agt.driver [RX_DRV] [RX] data=0xfffffffc offset=0 size=3 valid=1 err=0
UVM_INFO md_sequences.sv(144) @ 690000: uvm_test_top.env.rx_agt.sequencer@@rx_seq [rx_mixed_seq] Enviado ILEGAL: off=0 size=3 data=0xfffffffc
UVM_INFO scoreboard.sv(148) @ 730000: uvm_test_top.env.sb [scoreboard] [RX] #5: data=0xfffffffb off=1 size=4 err=1 should_drop=1
UVM_INFO scoreboard.sv(161) @ 730000: uvm_test_top.env.sb [scoreboard] DROP OK: RX#5 off=1 size=4
UVM_INFO md_componentes.sv(41) @ 750000: uvm_test_top.env.rx_agt.driver [RX_DRV] [RX] data=0xfffffffb offset=1 size=4 valid=1 err=1
UVM_INFO md_sequences.sv(144) @ 750000: uvm_test_top.env.rx_agt.sequencer@@rx_seq [rx_mixed_seq] Enviado ILEGAL: off=1 size=4 data=0xfffffffb
UVM_INFO scoreboard.sv(148) @ 790000: uvm_test_top.env.sb [scoreboard] [RX] #6: data=0xfffffffa off=1 size=4 err=1 should_drop=1
UVM_INFO scoreboard.sv(161) @ 790000: uvm_test_top.env.sb [scoreboard] DROP OK: RX#6 off=1 size=4
UVM_INFO md_componentes.sv(41) @ 810000: uvm_test_top.env.rx_agt.driver [RX_DRV] [RX] data=0xfffffffa offset=1 size=4 valid=1 err=0
UVM_INFO md_sequences.sv(144) @ 810000: uvm_test_top.env.rx_agt.sequencer@@rx_seq [rx_mixed_seq] Enviado ILEGAL: off=1 size=4 data=0xfffffffa
UVM_INFO scoreboard.sv(148) @ 850000: uvm_test_top.env.sb [scoreboard] [RX] #7: data=0xfffffff9 off=2 size=1 err=0 should_drop=0
UVM_INFO md_componentes.sv(41) @ 870000: uvm_test_top.env.rx_agt.driver [RX_DRV] [RX] data=0xfffffff9 offset=2 size=1 valid=1 err=1
UVM_INFO md_sequences.sv(127) @ 870000: uvm_test_top.env.rx_agt.sequencer@@rx_seq [rx_mixed_seq] Enviado LEGAL: off=2 size=1 data=0xfffffff9
UVM_INFO md_componentes.sv(234) @ 890000: uvm_test_top.env.irq_mon [IRQ_MON] [IRQ] @ 890000
UVM_INFO scoreboard.sv(228) @ 890000: uvm_test_top.env.sb [scoreboard] [IRQ #1] @ 890000
UVM_INFO scoreboard.sv(148) @ 910000: uvm_test_top.env.sb [scoreboard] [RX] #8: data=0xfffffff8 off=1 size=2 err=1 should_drop=1
UVM_INFO scoreboard.sv(161) @ 910000: uvm_test_top.env.sb [scoreboard] DROP OK: RX#8 off=1 size=2
UVM_INFO md_componentes.sv(41) @ 930000: uvm_test_top.env.rx_agt.driver [RX_DRV] [RX] data=0xfffffff8 offset=1 size=2 valid=1 err=1
UVM_INFO md_sequences.sv(144) @ 930000: uvm_test_top.env.rx_agt.sequencer@@rx_seq [rx_mixed_seq] Enviado ILEGAL: off=1 size=2 data=0xfffffff8
UVM_INFO scoreboard.sv(148) @ 970000: uvm_test_top.env.sb [scoreboard] [RX] #9: data=0xfffffff7 off=1 size=2 err=1 should_drop=1
UVM_INFO scoreboard.sv(161) @ 970000: uvm_test_top.env.sb [scoreboard] DROP OK: RX#9 off=1 size=2
UVM_INFO md_componentes.sv(41) @ 990000: uvm_test_top.env.rx_agt.driver [RX_DRV] [RX] data=0xfffffff7 offset=1 size=2 valid=1 err=1
UVM_INFO md_sequences.sv(144) @ 990000: uvm_test_top.env.rx_agt.sequencer@@rx_seq [rx_mixed_seq] Enviado ILEGAL: off=1 size=2 data=0xfffffff7
UVM_INFO scoreboard.sv(148) @ 1030000: uvm_test_top.env.sb [scoreboard] [RX] #10: data=0xfffffff6 off=3 size=2 err=1 should_drop=1
UVM_INFO scoreboard.sv(161) @ 1030000: uvm_test_top.env.sb [scoreboard] DROP OK: RX#10 off=3 size=2
UVM_INFO md_componentes.sv(41) @ 1050000: uvm_test_top.env.rx_agt.driver [RX_DRV] [RX] data=0xfffffff6 offset=3 size=2 valid=1 err=0
UVM_INFO md_sequences.sv(144) @ 1050000: uvm_test_top.env.rx_agt.sequencer@@rx_seq [rx_mixed_seq] Enviado ILEGAL: off=3 size=2 data=0xfffffff6
UVM_INFO scoreboard.sv(148) @ 1090000: uvm_test_top.env.sb [scoreboard] [RX] #11: data=0xfffffff5 off=1 size=2 err=1 should_drop=1
UVM_INFO scoreboard.sv(161) @ 1090000: uvm_test_top.env.sb [scoreboard] DROP OK: RX#11 off=1 size=2
UVM_INFO md_componentes.sv(41) @ 1110000: uvm_test_top.env.rx_agt.driver [RX_DRV] [RX] data=0xfffffff5 offset=1 size=2 valid=1 err=1
UVM_INFO md_sequences.sv(144) @ 1110000: uvm_test_top.env.rx_agt.sequencer@@rx_seq [rx_mixed_seq] Enviado ILEGAL: off=1 size=2 data=0xfffffff5
UVM_INFO scoreboard.sv(148) @ 1150000: uvm_test_top.env.sb [scoreboard] [RX] #12: data=0xfffffff4 off=3 size=3 err=1 should_drop=1
UVM_INFO scoreboard.sv(161) @ 1150000: uvm_test_top.env.sb [scoreboard] DROP OK: RX#12 off=3 size=3
UVM_INFO md_componentes.sv(41) @ 1170000: uvm_test_top.env.rx_agt.driver [RX_DRV] [RX] data=0xfffffff4 offset=3 size=3 valid=1 err=0
UVM_INFO md_sequences.sv(144) @ 1170000: uvm_test_top.env.rx_agt.sequencer@@rx_seq [rx_mixed_seq] Enviado ILEGAL: off=3 size=3 data=0xfffffff4
UVM_INFO scoreboard.sv(148) @ 1210000: uvm_test_top.env.sb [scoreboard] [RX] #13: data=0xfffffff3 off=2 size=4 err=1 should_drop=1
UVM_INFO scoreboard.sv(161) @ 1210000: uvm_test_top.env.sb [scoreboard] DROP OK: RX#13 off=2 size=4
UVM_INFO md_componentes.sv(41) @ 1230000: uvm_test_top.env.rx_agt.driver [RX_DRV] [RX] data=0xfffffff3 offset=2 size=4 valid=1 err=0
UVM_INFO md_sequences.sv(144) @ 1230000: uvm_test_top.env.rx_agt.sequencer@@rx_seq [rx_mixed_seq] Enviado ILEGAL: off=2 size=4 data=0xfffffff3
UVM_INFO scoreboard.sv(148) @ 1270000: uvm_test_top.env.sb [scoreboard] [RX] #14: data=0xfffffff2 off=1 size=3 err=1 should_drop=1
UVM_INFO scoreboard.sv(161) @ 1270000: uvm_test_top.env.sb [scoreboard] DROP OK: RX#14 off=1 size=3
UVM_INFO md_componentes.sv(41) @ 1290000: uvm_test_top.env.rx_agt.driver [RX_DRV] [RX] data=0xfffffff2 offset=1 size=3 valid=1 err=0
UVM_INFO md_sequences.sv(144) @ 1290000: uvm_test_top.env.rx_agt.sequencer@@rx_seq [rx_mixed_seq] Enviado ILEGAL: off=1 size=3 data=0xfffffff2
UVM_INFO scoreboard.sv(148) @ 1330000: uvm_test_top.env.sb [scoreboard] [RX] #15: data=0xfffffff1 off=3 size=2 err=1 should_drop=1
UVM_INFO scoreboard.sv(161) @ 1330000: uvm_test_top.env.sb [scoreboard] DROP OK: RX#15 off=3 size=2
UVM_INFO md_componentes.sv(41) @ 1350000: uvm_test_top.env.rx_agt.driver [RX_DRV] [RX] data=0xfffffff1 offset=3 size=2 valid=1 err=0
UVM_INFO md_sequences.sv(144) @ 1350000: uvm_test_top.env.rx_agt.sequencer@@rx_seq [rx_mixed_seq] Enviado ILEGAL: off=3 size=2 data=0xfffffff1
UVM_INFO scoreboard.sv(148) @ 1390000: uvm_test_top.env.sb [scoreboard] [RX] #16: data=0xfffffff0 off=1 size=3 err=1 should_drop=1
UVM_INFO scoreboard.sv(161) @ 1390000: uvm_test_top.env.sb [scoreboard] DROP OK: RX#16 off=1 size=3
UVM_INFO md_componentes.sv(41) @ 1410000: uvm_test_top.env.rx_agt.driver [RX_DRV] [RX] data=0xfffffff0 offset=1 size=3 valid=1 err=0
UVM_INFO md_sequences.sv(144) @ 1410000: uvm_test_top.env.rx_agt.sequencer@@rx_seq [rx_mixed_seq] Enviado ILEGAL: off=1 size=3 data=0xfffffff0
UVM_INFO scoreboard.sv(148) @ 1450000: uvm_test_top.env.sb [scoreboard] [RX] #17: data=0xffffffef off=3 size=4 err=1 should_drop=1
UVM_INFO scoreboard.sv(161) @ 1450000: uvm_test_top.env.sb [scoreboard] DROP OK: RX#17 off=3 size=4
UVM_INFO md_componentes.sv(41) @ 1470000: uvm_test_top.env.rx_agt.driver [RX_DRV] [RX] data=0xffffffef offset=3 size=4 valid=1 err=0
UVM_INFO md_sequences.sv(144) @ 1470000: uvm_test_top.env.rx_agt.sequencer@@rx_seq [rx_mixed_seq] Enviado ILEGAL: off=3 size=4 data=0xffffffef
UVM_INFO scoreboard.sv(148) @ 1510000: uvm_test_top.env.sb [scoreboard] [RX] #18: data=0xffffffee off=1 size=2 err=1 should_drop=1
UVM_INFO scoreboard.sv(161) @ 1510000: uvm_test_top.env.sb [scoreboard] DROP OK: RX#18 off=1 size=2
UVM_INFO md_componentes.sv(41) @ 1530000: uvm_test_top.env.rx_agt.driver [RX_DRV] [RX] data=0xffffffee offset=1 size=2 valid=1 err=1
UVM_INFO md_sequences.sv(144) @ 1530000: uvm_test_top.env.rx_agt.sequencer@@rx_seq [rx_mixed_seq] Enviado ILEGAL: off=1 size=2 data=0xffffffee
UVM_INFO scoreboard.sv(148) @ 1570000: uvm_test_top.env.sb [scoreboard] [RX] #19: data=0xffffffed off=3 size=2 err=1 should_drop=1
UVM_INFO scoreboard.sv(161) @ 1570000: uvm_test_top.env.sb [scoreboard] DROP OK: RX#19 off=3 size=2
UVM_INFO md_componentes.sv(41) @ 1590000: uvm_test_top.env.rx_agt.driver [RX_DRV] [RX] data=0xffffffed offset=3 size=2 valid=1 err=0
UVM_INFO md_sequences.sv(144) @ 1590000: uvm_test_top.env.rx_agt.sequencer@@rx_seq [rx_mixed_seq] Enviado ILEGAL: off=3 size=2 data=0xffffffed
UVM_INFO scoreboard.sv(148) @ 1630000: uvm_test_top.env.sb [scoreboard] [RX] #20: data=0xffffffec off=3 size=2 err=1 should_drop=1
UVM_INFO scoreboard.sv(161) @ 1630000: uvm_test_top.env.sb [scoreboard] DROP OK: RX#20 off=3 size=2
UVM_INFO md_componentes.sv(41) @ 1650000: uvm_test_top.env.rx_agt.driver [RX_DRV] [RX] data=0xffffffec offset=3 size=2 valid=1 err=0
UVM_INFO md_sequences.sv(144) @ 1650000: uvm_test_top.env.rx_agt.sequencer@@rx_seq [rx_mixed_seq] Enviado ILEGAL: off=3 size=2 data=0xffffffec
UVM_INFO scoreboard.sv(148) @ 1690000: uvm_test_top.env.sb [scoreboard] [RX] #21: data=0xffffffeb off=2 size=1 err=0 should_drop=0
UVM_INFO md_componentes.sv(41) @ 1710000: uvm_test_top.env.rx_agt.driver [RX_DRV] [RX] data=0xffffffeb offset=2 size=1 valid=1 err=1
UVM_INFO md_sequences.sv(127) @ 1710000: uvm_test_top.env.rx_agt.sequencer@@rx_seq [rx_mixed_seq] Enviado LEGAL: off=2 size=1 data=0xffffffeb
UVM_INFO md_componentes.sv(234) @ 1730000: uvm_test_top.env.irq_mon [IRQ_MON] [IRQ] @ 1730000
UVM_INFO scoreboard.sv(228) @ 1730000: uvm_test_top.env.sb [scoreboard] [IRQ #2] @ 1730000
UVM_INFO scoreboard.sv(148) @ 1750000: uvm_test_top.env.sb [scoreboard] [RX] #22: data=0xffffffea off=2 size=2 err=0 should_drop=0
UVM_INFO md_componentes.sv(41) @ 1770000: uvm_test_top.env.rx_agt.driver [RX_DRV] [RX] data=0xffffffea offset=2 size=2 valid=1 err=0
UVM_INFO md_sequences.sv(127) @ 1770000: uvm_test_top.env.rx_agt.sequencer@@rx_seq [rx_mixed_seq] Enviado LEGAL: off=2 size=2 data=0xffffffea
UVM_INFO md_componentes.sv(234) @ 1790000: uvm_test_top.env.irq_mon [IRQ_MON] [IRQ] @ 1790000
UVM_INFO scoreboard.sv(228) @ 1790000: uvm_test_top.env.sb [scoreboard] [IRQ #3] @ 1790000
UVM_INFO scoreboard.sv(148) @ 1810000: uvm_test_top.env.sb [scoreboard] [RX] #23: data=0xffffffe9 off=1 size=1 err=0 should_drop=0
UVM_INFO scoreboard.sv(192) @ 1810000: uvm_test_top.env.sb [scoreboard] [TX] data=0xffff0000 off=2 size=3
UVM_INFO scoreboard.sv(219) @ 1810000: uvm_test_top.env.sb [scoreboard] TX MATCH OK: data=0xffff0000 size=3
UVM_INFO md_componentes.sv(234) @ 1830000: uvm_test_top.env.irq_mon [IRQ_MON] [IRQ] @ 1830000
UVM_INFO scoreboard.sv(228) @ 1830000: uvm_test_top.env.sb [scoreboard] [IRQ #4] @ 1830000
UVM_INFO md_componentes.sv(41) @ 1830000: uvm_test_top.env.rx_agt.driver [RX_DRV] [RX] data=0xffffffe9 offset=1 size=1 valid=1 err=1
UVM_INFO md_sequences.sv(127) @ 1830000: uvm_test_top.env.rx_agt.sequencer@@rx_seq [rx_mixed_seq] Enviado LEGAL: off=1 size=1 data=0xffffffe9
UVM_INFO scoreboard.sv(148) @ 1870000: uvm_test_top.env.sb [scoreboard] [RX] #24: data=0xffffffe8 off=0 size=3 err=1 should_drop=1
UVM_INFO scoreboard.sv(161) @ 1870000: uvm_test_top.env.sb [scoreboard] DROP OK: RX#24 off=0 size=3
UVM_INFO md_componentes.sv(41) @ 1890000: uvm_test_top.env.rx_agt.driver [RX_DRV] [RX] data=0xffffffe8 offset=0 size=3 valid=1 err=0
UVM_INFO md_sequences.sv(144) @ 1890000: uvm_test_top.env.rx_agt.sequencer@@rx_seq [rx_mixed_seq] Enviado ILEGAL: off=0 size=3 data=0xffffffe8
UVM_INFO scoreboard.sv(148) @ 1930000: uvm_test_top.env.sb [scoreboard] [RX] #25: data=0xffffffe7 off=2 size=4 err=1 should_drop=1
UVM_INFO scoreboard.sv(161) @ 1930000: uvm_test_top.env.sb [scoreboard] DROP OK: RX#25 off=2 size=4
UVM_INFO md_componentes.sv(41) @ 1950000: uvm_test_top.env.rx_agt.driver [RX_DRV] [RX] data=0xffffffe7 offset=2 size=4 valid=1 err=1
UVM_INFO md_sequences.sv(144) @ 1950000: uvm_test_top.env.rx_agt.sequencer@@rx_seq [rx_mixed_seq] Enviado ILEGAL: off=2 size=4 data=0xffffffe7
UVM_INFO scoreboard.sv(148) @ 1990000: uvm_test_top.env.sb [scoreboard] [RX] #26: data=0xffffffe6 off=0 size=3 err=1 should_drop=1
UVM_INFO scoreboard.sv(161) @ 1990000: uvm_test_top.env.sb [scoreboard] DROP OK: RX#26 off=0 size=3
UVM_INFO md_componentes.sv(41) @ 2010000: uvm_test_top.env.rx_agt.driver [RX_DRV] [RX] data=0xffffffe6 offset=0 size=3 valid=1 err=0
UVM_INFO md_sequences.sv(144) @ 2010000: uvm_test_top.env.rx_agt.sequencer@@rx_seq [rx_mixed_seq] Enviado ILEGAL: off=0 size=3 data=0xffffffe6
UVM_INFO scoreboard.sv(148) @ 2050000: uvm_test_top.env.sb [scoreboard] [RX] #27: data=0xffffffe5 off=0 size=1 err=0 should_drop=0
UVM_INFO md_componentes.sv(41) @ 2070000: uvm_test_top.env.rx_agt.driver [RX_DRV] [RX] data=0xffffffe5 offset=0 size=1 valid=1 err=0
UVM_INFO md_sequences.sv(127) @ 2070000: uvm_test_top.env.rx_agt.sequencer@@rx_seq [rx_mixed_seq] Enviado LEGAL: off=0 size=1 data=0xffffffe5
UVM_INFO md_componentes.sv(234) @ 2090000: uvm_test_top.env.irq_mon [IRQ_MON] [IRQ] @ 2090000
UVM_INFO scoreboard.sv(228) @ 2090000: uvm_test_top.env.sb [scoreboard] [IRQ #5] @ 2090000
UVM_INFO scoreboard.sv(148) @ 2110000: uvm_test_top.env.sb [scoreboard] [RX] #28: data=0xffffffe4 off=1 size=3 err=1 should_drop=1
UVM_INFO scoreboard.sv(161) @ 2110000: uvm_test_top.env.sb [scoreboard] DROP OK: RX#28 off=1 size=3
UVM_INFO scoreboard.sv(192) @ 2110000: uvm_test_top.env.sb [scoreboard] [TX] data=0xffff0000 off=2 size=3
UVM_INFO scoreboard.sv(219) @ 2110000: uvm_test_top.env.sb [scoreboard] TX MATCH OK: data=0xffff0000 size=3
UVM_INFO md_componentes.sv(234) @ 2130000: uvm_test_top.env.irq_mon [IRQ_MON] [IRQ] @ 2130000
UVM_INFO scoreboard.sv(228) @ 2130000: uvm_test_top.env.sb [scoreboard] [IRQ #6] @ 2130000
UVM_INFO md_componentes.sv(41) @ 2130000: uvm_test_top.env.rx_agt.driver [RX_DRV] [RX] data=0xffffffe4 offset=1 size=3 valid=1 err=0
UVM_INFO md_sequences.sv(144) @ 2130000: uvm_test_top.env.rx_agt.sequencer@@rx_seq [rx_mixed_seq] Enviado ILEGAL: off=1 size=3 data=0xffffffe4
UVM_INFO scoreboard.sv(148) @ 2170000: uvm_test_top.env.sb [scoreboard] [RX] #29: data=0xffffffe3 off=0 size=3 err=1 should_drop=1
UVM_INFO scoreboard.sv(161) @ 2170000: uvm_test_top.env.sb [scoreboard] DROP OK: RX#29 off=0 size=3
UVM_INFO md_componentes.sv(41) @ 2190000: uvm_test_top.env.rx_agt.driver [RX_DRV] [RX] data=0xffffffe3 offset=0 size=3 valid=1 err=1
UVM_INFO md_sequences.sv(144) @ 2190000: uvm_test_top.env.rx_agt.sequencer@@rx_seq [rx_mixed_seq] Enviado ILEGAL: off=0 size=3 data=0xffffffe3
UVM_INFO scoreboard.sv(148) @ 2230000: uvm_test_top.env.sb [scoreboard] [RX] #30: data=0xffffffe2 off=1 size=4 err=1 should_drop=1
UVM_INFO scoreboard.sv(161) @ 2230000: uvm_test_top.env.sb [scoreboard] DROP OK: RX#30 off=1 size=4
UVM_INFO md_componentes.sv(41) @ 2250000: uvm_test_top.env.rx_agt.driver [RX_DRV] [RX] data=0xffffffe2 offset=1 size=4 valid=1 err=1
UVM_INFO md_sequences.sv(144) @ 2250000: uvm_test_top.env.rx_agt.sequencer@@rx_seq [rx_mixed_seq] Enviado ILEGAL: off=1 size=4 data=0xffffffe2
UVM_INFO scoreboard.sv(148) @ 2290000: uvm_test_top.env.sb [scoreboard] [RX] #31: data=0xffffffe1 off=0 size=2 err=0 should_drop=0
UVM_INFO md_componentes.sv(41) @ 2310000: uvm_test_top.env.rx_agt.driver [RX_DRV] [RX] data=0xffffffe1 offset=0 size=2 valid=1 err=0
UVM_INFO md_sequences.sv(127) @ 2310000: uvm_test_top.env.rx_agt.sequencer@@rx_seq [rx_mixed_seq] Enviado LEGAL: off=0 size=2 data=0xffffffe1
UVM_INFO md_componentes.sv(234) @ 2330000: uvm_test_top.env.irq_mon [IRQ_MON] [IRQ] @ 2330000
UVM_INFO scoreboard.sv(228) @ 2330000: uvm_test_top.env.sb [scoreboard] [IRQ #7] @ 2330000
UVM_INFO scoreboard.sv(148) @ 2350000: uvm_test_top.env.sb [scoreboard] [RX] #32: data=0xffffffe0 off=1 size=2 err=1 should_drop=1
UVM_INFO scoreboard.sv(161) @ 2350000: uvm_test_top.env.sb [scoreboard] DROP OK: RX#32 off=1 size=2
UVM_INFO md_componentes.sv(41) @ 2370000: uvm_test_top.env.rx_agt.driver [RX_DRV] [RX] data=0xffffffe0 offset=1 size=2 valid=1 err=0
UVM_INFO md_sequences.sv(144) @ 2370000: uvm_test_top.env.rx_agt.sequencer@@rx_seq [rx_mixed_seq] Enviado ILEGAL: off=1 size=2 data=0xffffffe0
UVM_INFO scoreboard.sv(148) @ 2410000: uvm_test_top.env.sb [scoreboard] [RX] #33: data=0xffffffdf off=2 size=4 err=1 should_drop=1
UVM_INFO scoreboard.sv(161) @ 2410000: uvm_test_top.env.sb [scoreboard] DROP OK: RX#33 off=2 size=4
UVM_INFO md_componentes.sv(41) @ 2430000: uvm_test_top.env.rx_agt.driver [RX_DRV] [RX] data=0xffffffdf offset=2 size=4 valid=1 err=1
UVM_INFO md_sequences.sv(144) @ 2430000: uvm_test_top.env.rx_agt.sequencer@@rx_seq [rx_mixed_seq] Enviado ILEGAL: off=2 size=4 data=0xffffffdf
UVM_INFO scoreboard.sv(148) @ 2470000: uvm_test_top.env.sb [scoreboard] [RX] #34: data=0xffffffde off=0 size=3 err=1 should_drop=1
UVM_INFO scoreboard.sv(161) @ 2470000: uvm_test_top.env.sb [scoreboard] DROP OK: RX#34 off=0 size=3
UVM_INFO md_componentes.sv(41) @ 2490000: uvm_test_top.env.rx_agt.driver [RX_DRV] [RX] data=0xffffffde offset=0 size=3 valid=1 err=0
UVM_INFO md_sequences.sv(144) @ 2490000: uvm_test_top.env.rx_agt.sequencer@@rx_seq [rx_mixed_seq] Enviado ILEGAL: off=0 size=3 data=0xffffffde
UVM_INFO scoreboard.sv(148) @ 2530000: uvm_test_top.env.sb [scoreboard] [RX] #35: data=0xffffffdd off=0 size=3 err=1 should_drop=1
UVM_INFO scoreboard.sv(161) @ 2530000: uvm_test_top.env.sb [scoreboard] DROP OK: RX#35 off=0 size=3
UVM_INFO md_componentes.sv(41) @ 2550000: uvm_test_top.env.rx_agt.driver [RX_DRV] [RX] data=0xffffffdd offset=0 size=3 valid=1 err=0
UVM_INFO md_sequences.sv(144) @ 2550000: uvm_test_top.env.rx_agt.sequencer@@rx_seq [rx_mixed_seq] Enviado ILEGAL: off=0 size=3 data=0xffffffdd
UVM_INFO scoreboard.sv(148) @ 2590000: uvm_test_top.env.sb [scoreboard] [RX] #36: data=0xffffffdc off=2 size=1 err=0 should_drop=0
UVM_INFO md_componentes.sv(41) @ 2610000: uvm_test_top.env.rx_agt.driver [RX_DRV] [RX] data=0xffffffdc offset=2 size=1 valid=1 err=0
UVM_INFO md_sequences.sv(127) @ 2610000: uvm_test_top.env.rx_agt.sequencer@@rx_seq [rx_mixed_seq] Enviado LEGAL: off=2 size=1 data=0xffffffdc
UVM_INFO md_componentes.sv(234) @ 2630000: uvm_test_top.env.irq_mon [IRQ_MON] [IRQ] @ 2630000
