logs/test_3.log
Chronologic VCS simulator copyright 1991-2020
Contains Synopsys proprietary information.
Compiler version R-2020.12-SP2; Runtime version R-2020.12-SP2;  Jun 15 13:26 2026
UVM_INFO /mnt/vol_NFS_rh003/tools/vcs/R-2020.12-SP2/etc/uvm-1.2/base/uvm_root.svh(402) @ 0: reporter [UVM/RELNOTES] 
----------------------------------------------------------------
UVM-1.2.Synopsys
(C) 2007-2014 Mentor Graphics Corporation
(C) 2007-2014 Cadence Design Systems, Inc.
(C) 2006-2014 Synopsys, Inc.
(C) 2011-2013 Cypress Semiconductor Corp.
(C) 2013-2014 NVIDIA Corporation
----------------------------------------------------------------

  ***********       IMPORTANT RELEASE NOTES         ************

  You are using a version of the UVM library that has been compiled
  with `UVM_NO_DEPRECATED undefined.
  See http://www.eda.org/svdb/view.php?id=3313 for more details.

  You are using a version of the UVM library that has been compiled
  with `UVM_OBJECT_DO_NOT_NEED_CONSTRUCTOR undefined.
  See http://www.eda.org/svdb/view.php?id=3770 for more details.

      (Specify +UVM_NO_RELNOTES to turn off this notice)

UVM_INFO tb_top.sv(133) @ 0: reporter [TB_TOP] All interfaces set in config_db
UVM_INFO tb_top.sv(146) @ 0: reporter [TB_TOP] RAL model created and set in config_db
UVM_INFO @ 0: reporter [RNTST] Running test test_general...
UVM_INFO aligner_env.sv(74) @ 0: uvm_test_top.env [aligner_env] Environment connected
UVM_INFO aligner_env.sv(78) @ 0: uvm_test_top.env [aligner_env] Simulation started
-------------------------------------------------------------------------------------------
Name                     Type                      Size  Value                             
-------------------------------------------------------------------------------------------
regmodel                 cfs_aligner_regs          -     @367                              
  ctrl                   cfs_aligner_regs__ctrl    -     @370                              
    size                 uvm_reg_field             ...    RW ctrl[2:0]=3'h1                
    reserved0            uvm_reg_field             ...    RO ctrl[7:3]=5'h00               
    offset               uvm_reg_field             ...    RW ctrl[9:8]=2'h0                
    reserved1            uvm_reg_field             ...    RO ctrl[15:10]=6'h00             
    clr                  uvm_reg_field             ...    WO ctrl[16:16]=1'h0              
    reserved2            uvm_reg_field             ...    RO ctrl[31:17]=15'h0000          
  status                 cfs_aligner_regs__status  -     @378                              
    cnt_drop             uvm_reg_field             ...    RO status[7:0]=8'h00             
    rx_lvl               uvm_reg_field             ...    RO status[11:8]=4'h0             
    reserved0            uvm_reg_field             ...    RO status[15:12]=4'h0            
    tx_lvl               uvm_reg_field             ...    RO status[19:16]=4'h0            
    reserved1            uvm_reg_field             ...    RO status[31:20]=12'h000         
  irqen                  cfs_aligner_regs__irqen   -     @385                              
    rx_fifo_empty        uvm_reg_field             ...    RW irqen[0:0]=1'h1               
    rx_fifo_full         uvm_reg_field             ...    RW irqen[1:1]=1'h1               
    tx_fifo_empty        uvm_reg_field             ...    RW irqen[2:2]=1'h1               
    tx_fifo_full         uvm_reg_field             ...    RW irqen[3:3]=1'h1               
    max_drop             uvm_reg_field             ...    RW irqen[4:4]=1'h1               
    reserved             uvm_reg_field             ...    RO irqen[31:5]=27'h0000000       
  irq                    cfs_aligner_regs__irq     -     @393                              
    rx_fifo_empty        uvm_reg_field             ...    W1C irq[0:0]=1'h0                
    rx_fifo_full         uvm_reg_field             ...    W1C irq[1:1]=1'h0                
    tx_fifo_empty        uvm_reg_field             ...    W1C irq[2:2]=1'h0                
    tx_fifo_full         uvm_reg_field             ...    W1C irq[3:3]=1'h0                
    max_drop             uvm_reg_field             ...    W1C irq[4:4]=1'h0                
    reserved             uvm_reg_field             ...    RO irq[31:5]=27'h0000000         
  reg_map                uvm_reg_map               -     @369                              
    endian                                         ...   UVM_NO_ENDIAN                     
    effective sequencer  apb_sequencer             ...   uvm_test_top.env.apb_agt.sequencer
    ctrl                 cfs_aligner_regs__ctrl    ...   @370 +'h0                         
    status               cfs_aligner_regs__status  ...   @378 +'hc                         
    irqen                cfs_aligner_regs__irqen   ...   @385 +'hf0                        
    irq                  cfs_aligner_regs__irq     ...   @393 +'hf4                        
-------------------------------------------------------------------------------------------
UVM_INFO test_general.sv(331) @ 0: uvm_test_top [test_general] 
==================================================
  TEST GENERAL CONFIGURATION
==================================================
  SEMILLA            = 509404628
  TEST_MODE          = APB_ONLY
  APB_NUM_TRANS      = 450
  MD_NUM_PKTS        = 88
  MD_PESO_LEGAL      = 48%
  CTRL_SIZE          = 3
  CTRL_OFFSET        = 2
  MD_PATRON          = ONES
  TIMEOUT_MS         = 290
==================================================
UVM_INFO tb_top.sv(116) @ 190000: reporter [TB_TOP] Reset deasserted
UVM_INFO md_componentes.sv(31) @ 210000: uvm_test_top.env.rx_agt.driver [RX_DRV] Reset liberado
UVM_INFO scoreboard.sv(126) @ 270000: uvm_test_top.env.sb [scoreboard] Config actualizada: offset=2 size=3 (pending_bytes=0 flushed, expected_tx_queue=0 flushed)
UVM_INFO test_general.sv(118) @ 270000: uvm_test_top [test_general] CTRL configurado: size=3 offset=2
UVM_INFO test_general.sv(131) @ 350000: uvm_test_top [test_general] IRQEN configurado (todas las interrupciones habilitadas)
UVM_INFO test_general.sv(144) @ 350000: uvm_test_top [test_general] Drenando pipeline del DUT...
UVM_INFO test_general.sv(154) @ 430000: uvm_test_top [test_general] Pipeline drenado OK
UVM_INFO scoreboard.sv(121) @ 430000: uvm_test_top.env.sb [scoreboard] Scoreboard ARMADO — verificación activa
UVM_INFO test_general.sv(166) @ 430000: uvm_test_top [test_general] Iniciando 450 transacciones APB
UVM_INFO scoreboard.sv(126) @ 850000: uvm_test_top.env.sb [scoreboard] Config actualizada: offset=0 size=2 (pending_bytes=0 flushed, expected_tx_queue=0 flushed)
UVM_INFO scoreboard.sv(126) @ 1110000: uvm_test_top.env.sb [scoreboard] Config actualizada: offset=1 size=1 (pending_bytes=0 flushed, expected_tx_queue=0 flushed)
UVM_WARNING apb_componentes.sv(142) @ 1690000: uvm_test_top.env.apb_agt.driver [apb_driver] APB WRITE at addr 0x0 returned error (pslverr=1)
UVM_INFO scoreboard.sv(126) @ 1950000: uvm_test_top.env.sb [scoreboard] Config actualizada: offset=2 size=1 (pending_bytes=0 flushed, expected_tx_queue=0 flushed)
UVM_INFO scoreboard.sv(126) @ 2370000: uvm_test_top.env.sb [scoreboard] Config actualizada: offset=0 size=2 (pending_bytes=0 flushed, expected_tx_queue=0 flushed)
UVM_INFO scoreboard.sv(126) @ 2870000: uvm_test_top.env.sb [scoreboard] Config actualizada: offset=2 size=1 (pending_bytes=0 flushed, expected_tx_queue=0 flushed)
UVM_INFO scoreboard.sv(126) @ 3850000: uvm_test_top.env.sb [scoreboard] Config actualizada: offset=0 size=4 (pending_bytes=0 flushed, expected_tx_queue=0 flushed)
UVM_INFO scoreboard.sv(126) @ 4350000: uvm_test_top.env.sb [scoreboard] Config actualizada: offset=0 size=1 (pending_bytes=0 flushed, expected_tx_queue=0 flushed)
UVM_INFO scoreboard.sv(126) @ 4610000: uvm_test_top.env.sb [scoreboard] Config actualizada: offset=3 size=1 (pending_bytes=0 flushed, expected_tx_queue=0 flushed)
UVM_WARNING apb_componentes.sv(142) @ 5190000: uvm_test_top.env.apb_agt.driver [apb_driver] APB WRITE at addr 0x0 returned error (pslverr=1)
UVM_INFO scoreboard.sv(126) @ 5530000: uvm_test_top.env.sb [scoreboard] Config actualizada: offset=2 size=2 (pending_bytes=0 flushed, expected_tx_queue=0 flushed)
UVM_WARNING apb_componentes.sv(142) @ 6270000: uvm_test_top.env.apb_agt.driver [apb_driver] APB WRITE at addr 0x0 returned error (pslverr=1)
UVM_INFO scoreboard.sv(126) @ 7370000: uvm_test_top.env.sb [scoreboard] Config actualizada: offset=0 size=4 (pending_bytes=0 flushed, expected_tx_queue=0 flushed)
UVM_WARNING apb_componentes.sv(142) @ 7470000: uvm_test_top.env.apb_agt.driver [apb_driver] APB WRITE at addr 0x0 returned error (pslverr=1)
UVM_INFO scoreboard.sv(126) @ 7970000: uvm_test_top.env.sb [scoreboard] Config actualizada: offset=0 size=2 (pending_bytes=0 flushed, expected_tx_queue=0 flushed)
UVM_INFO scoreboard.sv(126) @ 8230000: uvm_test_top.env.sb [scoreboard] Config actualizada: offset=2 size=1 (pending_bytes=0 flushed, expected_tx_queue=0 flushed)
UVM_INFO scoreboard.sv(126) @ 8570000: uvm_test_top.env.sb [scoreboard] Config actualizada: offset=0 size=2 (pending_bytes=0 flushed, expected_tx_queue=0 flushed)
UVM_WARNING apb_componentes.sv(142) @ 8910000: uvm_test_top.env.apb_agt.driver [apb_driver] APB WRITE at addr 0x0 returned error (pslverr=1)
UVM_INFO scoreboard.sv(126) @ 9170000: uvm_test_top.env.sb [scoreboard] Config actualizada: offset=1 size=1 (pending_bytes=0 flushed, expected_tx_queue=0 flushed)
UVM_INFO scoreboard.sv(126) @ 9510000: uvm_test_top.env.sb [scoreboard] Config actualizada: offset=3 size=1 (pending_bytes=0 flushed, expected_tx_queue=0 flushed)
UVM_INFO scoreboard.sv(126) @ 9770000: uvm_test_top.env.sb [scoreboard] Config actualizada: offset=2 size=3 (pending_bytes=0 flushed, expected_tx_queue=0 flushed)
UVM_WARNING apb_componentes.sv(142) @ 10190000: uvm_test_top.env.apb_agt.driver [apb_driver] APB WRITE at addr 0x0 returned error (pslverr=1)
UVM_INFO scoreboard.sv(126) @ 10450000: uvm_test_top.env.sb [scoreboard] Config actualizada: offset=0 size=4 (pending_bytes=0 flushed, expected_tx_queue=0 flushed)
UVM_WARNING apb_componentes.sv(142) @ 11030000: uvm_test_top.env.apb_agt.driver [apb_driver] APB WRITE at addr 0x0 returned error (pslverr=1)
UVM_WARNING apb_componentes.sv(142) @ 11290000: uvm_test_top.env.apb_agt.driver [apb_driver] APB WRITE at addr 0x0 returned error (pslverr=1)
UVM_INFO scoreboard.sv(126) @ 11630000: uvm_test_top.env.sb [scoreboard] Config actualizada: offset=2 size=2 (pending_bytes=0 flushed, expected_tx_queue=0 flushed)
UVM_INFO scoreboard.sv(126) @ 12370000: uvm_test_top.env.sb [scoreboard] Config actualizada: offset=2 size=3 (pending_bytes=0 flushed, expected_tx_queue=0 flushed)
UVM_INFO scoreboard.sv(126) @ 13370000: uvm_test_top.env.sb [scoreboard] Config actualizada: offset=2 size=1 (pending_bytes=0 flushed, expected_tx_queue=0 flushed)
UVM_INFO scoreboard.sv(126) @ 13630000: uvm_test_top.env.sb [scoreboard] Config actualizada: offset=3 size=1 (pending_bytes=0 flushed, expected_tx_queue=0 flushed)
UVM_INFO scoreboard.sv(126) @ 14130000: uvm_test_top.env.sb [scoreboard] Config actualizada: offset=0 size=1 (pending_bytes=0 flushed, expected_tx_queue=0 flushed)
UVM_INFO scoreboard.sv(126) @ 14630000: uvm_test_top.env.sb [scoreboard] Config actualizada: offset=0 size=4 (pending_bytes=0 flushed, expected_tx_queue=0 flushed)
UVM_WARNING apb_componentes.sv(142) @ 14810000: uvm_test_top.env.apb_agt.driver [apb_driver] APB WRITE at addr 0x0 returned error (pslverr=1)
UVM_WARNING apb_componentes.sv(142) @ 15390000: uvm_test_top.env.apb_agt.driver [apb_driver] APB WRITE at addr 0x0 returned error (pslverr=1)
UVM_INFO scoreboard.sv(126) @ 15650000: uvm_test_top.env.sb [scoreboard] Config actualizada: offset=2 size=3 (pending_bytes=0 flushed, expected_tx_queue=0 flushed)
UVM_INFO scoreboard.sv(126) @ 15990000: uvm_test_top.env.sb [scoreboard] Config actualizada: offset=2 size=1 (pending_bytes=0 flushed, expected_tx_queue=0 flushed)
UVM_INFO scoreboard.sv(126) @ 16570000: uvm_test_top.env.sb [scoreboard] Config actualizada: offset=2 size=3 (pending_bytes=0 flushed, expected_tx_queue=0 flushed)
UVM_INFO scoreboard.sv(126) @ 16990000: uvm_test_top.env.sb [scoreboard] Config actualizada: offset=2 size=2 (pending_bytes=0 flushed, expected_tx_queue=0 flushed)
UVM_INFO scoreboard.sv(126) @ 17730000: uvm_test_top.env.sb [scoreboard] Config actualizada: offset=3 size=1 (pending_bytes=0 flushed, expected_tx_queue=0 flushed)
UVM_INFO scoreboard.sv(126) @ 17990000: uvm_test_top.env.sb [scoreboard] Config actualizada: offset=1 size=1 (pending_bytes=0 flushed, expected_tx_queue=0 flushed)
UVM_WARNING apb_componentes.sv(142) @ 18250000: uvm_test_top.env.apb_agt.driver [apb_driver] APB WRITE at addr 0x0 returned error (pslverr=1)
UVM_INFO scoreboard.sv(126) @ 18510000: uvm_test_top.env.sb [scoreboard] Config actualizada: offset=2 size=1 (pending_bytes=0 flushed, expected_tx_queue=0 flushed)
UVM_INFO scoreboard.sv(126) @ 19090000: uvm_test_top.env.sb [scoreboard] Config actualizada: offset=0 size=1 (pending_bytes=0 flushed, expected_tx_queue=0 flushed)
UVM_INFO scoreboard.sv(126) @ 19510000: uvm_test_top.env.sb [scoreboard] Config actualizada: offset=0 size=2 (pending_bytes=0 flushed, expected_tx_queue=0 flushed)
UVM_INFO scoreboard.sv(126) @ 19770000: uvm_test_top.env.sb [scoreboard] Config actualizada: offset=2 size=2 (pending_bytes=0 flushed, expected_tx_queue=0 flushed)
UVM_INFO scoreboard.sv(126) @ 20670000: uvm_test_top.env.sb [scoreboard] Config actualizada: offset=2 size=1 (pending_bytes=0 flushed, expected_tx_queue=0 flushed)
UVM_INFO scoreboard.sv(126) @ 20930000: uvm_test_top.env.sb [scoreboard] Config actualizada: offset=0 size=2 (pending_bytes=0 flushed, expected_tx_queue=0 flushed)
UVM_INFO scoreboard.sv(126) @ 22010000: uvm_test_top.env.sb [scoreboard] Config actualizada: offset=2 size=2 (pending_bytes=0 flushed, expected_tx_queue=0 flushed)
UVM_INFO scoreboard.sv(126) @ 23810000: uvm_test_top.env.sb [scoreboard] Config actualizada: offset=2 size=3 (pending_bytes=0 flushed, expected_tx_queue=0 flushed)
UVM_INFO scoreboard.sv(126) @ 24230000: uvm_test_top.env.sb [scoreboard] Config actualizada: offset=2 size=1 (pending_bytes=0 flushed, expected_tx_queue=0 flushed)
UVM_INFO scoreboard.sv(126) @ 24810000: uvm_test_top.env.sb [scoreboard] Config actualizada: offset=1 size=1 (pending_bytes=0 flushed, expected_tx_queue=0 flushed)
UVM_INFO scoreboard.sv(126) @ 25070000: uvm_test_top.env.sb [scoreboard] Config actualizada: offset=2 size=1 (pending_bytes=0 flushed, expected_tx_queue=0 flushed)
UVM_WARNING apb_componentes.sv(142) @ 26410000: uvm_test_top.env.apb_agt.driver [apb_driver] APB WRITE at addr 0x0 returned error (pslverr=1)
UVM_INFO scoreboard.sv(126) @ 26830000: uvm_test_top.env.sb [scoreboard] Config actualizada: offset=2 size=2 (pending_bytes=0 flushed, expected_tx_queue=0 flushed)
UVM_INFO scoreboard.sv(126) @ 27570000: uvm_test_top.env.sb [scoreboard] Config actualizada: offset=1 size=1 (pending_bytes=0 flushed, expected_tx_queue=0 flushed)
UVM_WARNING apb_componentes.sv(142) @ 27670000: uvm_test_top.env.apb_agt.driver [apb_driver] APB WRITE at addr 0x0 returned error (pslverr=1)
UVM_WARNING apb_componentes.sv(142) @ 27770000: uvm_test_top.env.apb_agt.driver [apb_driver] APB WRITE at addr 0x0 returned error (pslverr=1)
UVM_INFO scoreboard.sv(126) @ 28030000: uvm_test_top.env.sb [scoreboard] Config actualizada: offset=2 size=2 (pending_bytes=0 flushed, expected_tx_queue=0 flushed)
UVM_WARNING apb_componentes.sv(142) @ 28450000: uvm_test_top.env.apb_agt.driver [apb_driver] APB WRITE at addr 0x0 returned error (pslverr=1)
UVM_WARNING apb_componentes.sv(142) @ 28630000: uvm_test_top.env.apb_agt.driver [apb_driver] APB WRITE at addr 0x0 returned error (pslverr=1)
UVM_INFO scoreboard.sv(126) @ 28970000: uvm_test_top.env.sb [scoreboard] Config actualizada: offset=3 size=1 (pending_bytes=0 flushed, expected_tx_queue=0 flushed)
UVM_WARNING apb_componentes.sv(142) @ 29150000: uvm_test_top.env.apb_agt.driver [apb_driver] APB WRITE at addr 0x0 returned error (pslverr=1)
UVM_INFO scoreboard.sv(126) @ 30050000: uvm_test_top.env.sb [scoreboard] Config actualizada: offset=2 size=2 (pending_bytes=0 flushed, expected_tx_queue=0 flushed)
UVM_WARNING apb_componentes.sv(142) @ 30150000: uvm_test_top.env.apb_agt.driver [apb_driver] APB WRITE at addr 0x0 returned error (pslverr=1)
UVM_WARNING apb_componentes.sv(142) @ 30410000: uvm_test_top.env.apb_agt.driver [apb_driver] APB WRITE at addr 0x0 returned error (pslverr=1)
UVM_INFO scoreboard.sv(126) @ 31090000: uvm_test_top.env.sb [scoreboard] Config actualizada: offset=0 size=1 (pending_bytes=0 flushed, expected_tx_queue=0 flushed)
UVM_WARNING apb_componentes.sv(142) @ 31430000: uvm_test_top.env.apb_agt.driver [apb_driver] APB WRITE at addr 0x0 returned error (pslverr=1)
UVM_INFO scoreboard.sv(126) @ 31690000: uvm_test_top.env.sb [scoreboard] Config actualizada: offset=3 size=1 (pending_bytes=0 flushed, expected_tx_queue=0 flushed)
UVM_INFO scoreboard.sv(126) @ 31950000: uvm_test_top.env.sb [scoreboard] Config actualizada: offset=0 size=2 (pending_bytes=0 flushed, expected_tx_queue=0 flushed)
UVM_WARNING apb_componentes.sv(142) @ 32130000: uvm_test_top.env.apb_agt.driver [apb_driver] APB WRITE at addr 0x0 returned error (pslverr=1)
UVM_INFO scoreboard.sv(126) @ 33770000: uvm_test_top.env.sb [scoreboard] Config actualizada: offset=0 size=4 (pending_bytes=0 flushed, expected_tx_queue=0 flushed)
UVM_INFO scoreboard.sv(126) @ 34350000: uvm_test_top.env.sb [scoreboard] Config actualizada: offset=3 size=1 (pending_bytes=0 flushed, expected_tx_queue=0 flushed)
UVM_INFO scoreboard.sv(126) @ 35270000: uvm_test_top.env.sb [scoreboard] Config actualizada: offset=1 size=1 (pending_bytes=0 flushed, expected_tx_queue=0 flushed)
UVM_INFO scoreboard.sv(126) @ 35530000: uvm_test_top.env.sb [scoreboard] Config actualizada: offset=3 size=1 (pending_bytes=0 flushed, expected_tx_queue=0 flushed)
UVM_INFO scoreboard.sv(126) @ 35790000: uvm_test_top.env.sb [scoreboard] Config actualizada: offset=2 size=3 (pending_bytes=0 flushed, expected_tx_queue=0 flushed)
UVM_INFO scoreboard.sv(126) @ 36370000: uvm_test_top.env.sb [scoreboard] Config actualizada: offset=2 size=2 (pending_bytes=0 flushed, expected_tx_queue=0 flushed)
UVM_INFO scoreboard.sv(126) @ 36950000: uvm_test_top.env.sb [scoreboard] Config actualizada: offset=0 size=2 (pending_bytes=0 flushed, expected_tx_queue=0 flushed)
UVM_INFO scoreboard.sv(126) @ 37290000: uvm_test_top.env.sb [scoreboard] Config actualizada: offset=1 size=1 (pending_bytes=0 flushed, expected_tx_queue=0 flushed)
UVM_INFO scoreboard.sv(126) @ 37550000: uvm_test_top.env.sb [scoreboard] Config actualizada: offset=0 size=2 (pending_bytes=0 flushed, expected_tx_queue=0 flushed)
UVM_WARNING apb_componentes.sv(142) @ 37730000: uvm_test_top.env.apb_agt.driver [apb_driver] APB WRITE at addr 0x0 returned error (pslverr=1)
UVM_INFO scoreboard.sv(126) @ 38070000: uvm_test_top.env.sb [scoreboard] Config actualizada: offset=2 size=1 (pending_bytes=0 flushed, expected_tx_queue=0 flushed)
UVM_WARNING apb_componentes.sv(142) @ 38890000: uvm_test_top.env.apb_agt.driver [apb_driver] APB WRITE at addr 0x0 returned error (pslverr=1)
UVM_INFO scoreboard.sv(126) @ 39150000: uvm_test_top.env.sb [scoreboard] Config actualizada: offset=0 size=1 (pending_bytes=0 flushed, expected_tx_queue=0 flushed)
UVM_WARNING apb_componentes.sv(142) @ 39570000: uvm_test_top.env.apb_agt.driver [apb_driver] APB WRITE at addr 0x0 returned error (pslverr=1)
UVM_WARNING apb_componentes.sv(142) @ 39670000: uvm_test_top.env.apb_agt.driver [apb_driver] APB WRITE at addr 0x0 returned error (pslverr=1)
UVM_INFO scoreboard.sv(126) @ 40330000: uvm_test_top.env.sb [scoreboard] Config actualizada: offset=1 size=1 (pending_bytes=0 flushed, expected_tx_queue=0 flushed)
UVM_WARNING apb_componentes.sv(142) @ 40510000: uvm_test_top.env.apb_agt.driver [apb_driver] APB WRITE at addr 0x0 returned error (pslverr=1)
UVM_INFO scoreboard.sv(126) @ 41090000: uvm_test_top.env.sb [scoreboard] Config actualizada: offset=2 size=3 (pending_bytes=0 flushed, expected_tx_queue=0 flushed)
UVM_INFO scoreboard.sv(126) @ 41430000: uvm_test_top.env.sb [scoreboard] Config actualizada: offset=0 size=2 (pending_bytes=0 flushed, expected_tx_queue=0 flushed)
UVM_WARNING apb_componentes.sv(142) @ 41850000: uvm_test_top.env.apb_agt.driver [apb_driver] APB WRITE at addr 0x0 returned error (pslverr=1)
UVM_INFO scoreboard.sv(126) @ 42450000: uvm_test_top.env.sb [scoreboard] Config actualizada: offset=2 size=2 (pending_bytes=0 flushed, expected_tx_queue=0 flushed)
UVM_INFO scoreboard.sv(126) @ 42950000: uvm_test_top.env.sb [scoreboard] Config actualizada: offset=1 size=1 (pending_bytes=0 flushed, expected_tx_queue=0 flushed)
UVM_WARNING apb_componentes.sv(142) @ 43530000: uvm_test_top.env.apb_agt.driver [apb_driver] APB WRITE at addr 0x0 returned error (pslverr=1)
UVM_WARNING apb_componentes.sv(142) @ 43630000: uvm_test_top.env.apb_agt.driver [apb_driver] APB WRITE at addr 0x0 returned error (pslverr=1)
UVM_INFO scoreboard.sv(126) @ 44050000: uvm_test_top.env.sb [scoreboard] Config actualizada: offset=2 size=3 (pending_bytes=0 flushed, expected_tx_queue=0 flushed)
UVM_WARNING apb_componentes.sv(142) @ 44310000: uvm_test_top.env.apb_agt.driver [apb_driver] APB WRITE at addr 0x0 returned error (pslverr=1)
UVM_WARNING apb_componentes.sv(142) @ 44410000: uvm_test_top.env.apb_agt.driver [apb_driver] APB WRITE at addr 0x0 returned error (pslverr=1)
UVM_INFO scoreboard.sv(126) @ 44670000: uvm_test_top.env.sb [scoreboard] Config actualizada: offset=0 size=1 (pending_bytes=0 flushed, expected_tx_queue=0 flushed)
UVM_INFO scoreboard.sv(126) @ 44930000: uvm_test_top.env.sb [scoreboard] Config actualizada: offset=0 size=2 (pending_bytes=0 flushed, expected_tx_queue=0 flushed)
UVM_INFO scoreboard.sv(126) @ 46250000: uvm_test_top.env.sb [scoreboard] Config actualizada: offset=1 size=1 (pending_bytes=0 flushed, expected_tx_queue=0 flushed)
UVM_INFO scoreboard.sv(126) @ 46850000: uvm_test_top.env.sb [scoreboard] Config actualizada: offset=2 size=1 (pending_bytes=0 flushed, expected_tx_queue=0 flushed)
UVM_WARNING apb_componentes.sv(142) @ 47030000: uvm_test_top.env.apb_agt.driver [apb_driver] APB WRITE at addr 0x0 returned error (pslverr=1)
UVM_WARNING apb_componentes.sv(142) @ 47130000: uvm_test_top.env.apb_agt.driver [apb_driver] APB WRITE at addr 0x0 returned error (pslverr=1)
UVM_INFO scoreboard.sv(126) @ 47390000: uvm_test_top.env.sb [scoreboard] Config actualizada: offset=2 size=3 (pending_bytes=0 flushed, expected_tx_queue=0 flushed)
UVM_WARNING apb_componentes.sv(142) @ 47490000: uvm_test_top.env.apb_agt.driver [apb_driver] APB WRITE at addr 0x0 returned error (pslverr=1)
UVM_INFO scoreboard.sv(126) @ 47830000: uvm_test_top.env.sb [scoreboard] Config actualizada: offset=0 size=2 (pending_bytes=0 flushed, expected_tx_queue=0 flushed)
UVM_INFO scoreboard.sv(126) @ 48170000: uvm_test_top.env.sb [scoreboard] Config actualizada: offset=3 size=1 (pending_bytes=0 flushed, expected_tx_queue=0 flushed)
UVM_WARNING apb_componentes.sv(142) @ 48270000: uvm_test_top.env.apb_agt.driver [apb_driver] APB WRITE at addr 0x0 returned error (pslverr=1)
UVM_INFO scoreboard.sv(126) @ 49170000: uvm_test_top.env.sb [scoreboard] Config actualizada: offset=2 size=3 (pending_bytes=0 flushed, expected_tx_queue=0 flushed)
UVM_INFO scoreboard.sv(126) @ 49510000: uvm_test_top.env.sb [scoreboard] Config actualizada: offset=2 size=2 (pending_bytes=0 flushed, expected_tx_queue=0 flushed)
UVM_WARNING apb_componentes.sv(142) @ 50030000: uvm_test_top.env.apb_agt.driver [apb_driver] APB WRITE at addr 0x0 returned error (pslverr=1)
UVM_INFO scoreboard.sv(126) @ 51490000: uvm_test_top.env.sb [scoreboard] Config actualizada: offset=0 size=1 (pending_bytes=0 flushed, expected_tx_queue=0 flushed)
UVM_WARNING apb_componentes.sv(142) @ 51830000: uvm_test_top.env.apb_agt.driver [apb_driver] APB WRITE at addr 0x0 returned error (pslverr=1)
UVM_WARNING apb_componentes.sv(142) @ 51930000: uvm_test_top.env.apb_agt.driver [apb_driver] APB WRITE at addr 0x0 returned error (pslverr=1)
UVM_INFO scoreboard.sv(126) @ 52830000: uvm_test_top.env.sb [scoreboard] Config actualizada: offset=2 size=3 (pending_bytes=0 flushed, expected_tx_queue=0 flushed)
UVM_WARNING apb_componentes.sv(142) @ 53250000: uvm_test_top.env.apb_agt.driver [apb_driver] APB WRITE at addr 0x0 returned error (pslverr=1)
UVM_INFO test_general.sv(242) @ 53595000: uvm_test_top [test_general] APB test completado: exitosas=91 ilegales=39
UVM_INFO scoreboard.sv(274) @ 56170000: uvm_test_top.env.sb [scoreboard] CNT_DROP OK: 0
UVM_INFO test_general.sv(321) @ 56170000: uvm_test_top [test_general] STATUS final: cnt_drop=0, rx_lvl=0, tx_lvl=0
UVM_INFO scoreboard.sv(341) @ 56170000: uvm_test_top.env.sb [scoreboard] MODEL STATUS: pending_bytes=0, tx_generated=0, rx_consumed=0
UVM_INFO /mnt/vol_NFS_rh003/tools/vcs/R-2020.12-SP2/etc/uvm-1.2/base/uvm_objection.svh(1276) @ 56170000: reporter [TEST_DONE] 'run' phase is ready to proceed to the 'extract' phase
UVM_INFO scoreboard.sv(309) @ 56170000: uvm_test_top.env.sb [scoreboard] 
==========================================
  RESUMEN SCOREBOARD
==========================================
  RX packets recibidos:   0
  Drops esperados:        0
  Drops reales (CNT_DROP):0
  TX generados (modelo):  0
  TX recibidos:           0
  TX correctos:           0
  TX incorrectos:         0
  IRQs recibidas:         0
  Errores totales:        0
==========================================
UVM_INFO scoreboard.sv(324) @ 56170000: uvm_test_top.env.sb [scoreboard] TEST PASADO
UVM_INFO /mnt/vol_NFS_rh003/tools/vcs/R-2020.12-SP2/etc/uvm-1.2/base/uvm_report_server.svh(901) @ 56170000: reporter [UVM/REPORT/SERVER] 
--- UVM Report Summary ---

** Report counts by severity
UVM_INFO :   99
UVM_WARNING :   39
UVM_ERROR :    0
UVM_FATAL :    0
** Report counts by id
[RNTST]     1
[RX_DRV]     1
[TB_TOP]     3
[TEST_DONE]     1
[UVM/RELNOTES]     1
[aligner_env]     2
[apb_driver]    39
[scoreboard]    82
[test_general]     8

$finish called from file "/mnt/vol_NFS_rh003/tools/vcs/R-2020.12-SP2/etc/uvm-1.2/base/uvm_root.svh", line 527.
$finish at simulation time             56170000
           V C S   S i m u l a t i o n   R e p o r t 
Time: 56170000 ps
CPU Time:      1.380 seconds;       Data structure size:   0.2Mb
Mon Jun 15 13:26:23 2026
