logs/test_2.log
Chronologic VCS simulator copyright 1991-2020
Contains Synopsys proprietary information.
Compiler version R-2020.12-SP2; Runtime version R-2020.12-SP2;  Jun 15 12:05 2026
UVM_INFO /mnt/vol_NFS_rh003/tools/vcs/R-2020.12-SP2/etc/uvm-1.2/base/uvm_root.svh(402) @ 0: reporter [UVM/RELNOTES] 
----------------------------------------------------------------
UVM-1.2.Synopsys
(C) 2007-2014 Mentor Graphics Corporation
(C) 2007-2014 Cadence Design Systems, Inc.
(C) 2006-2014 Synopsys, Inc.
(C) 2011-2013 Cypress Semiconductor Corp.
(C) 2013-2014 NVIDIA Corporation
----------------------------------------------------------------

  ***********       IMPORTANT RELEASE NOTES         ************

  You are using a version of the UVM library that has been compiled
  with `UVM_NO_DEPRECATED undefined.
  See http://www.eda.org/svdb/view.php?id=3313 for more details.

  You are using a version of the UVM library that has been compiled
  with `UVM_OBJECT_DO_NOT_NEED_CONSTRUCTOR undefined.
  See http://www.eda.org/svdb/view.php?id=3770 for more details.

      (Specify +UVM_NO_RELNOTES to turn off this notice)

UVM_INFO tb_top.sv(133) @ 0: reporter [TB_TOP] All interfaces set in config_db
UVM_INFO tb_top.sv(146) @ 0: reporter [TB_TOP] RAL model created and set in config_db
UVM_INFO @ 0: reporter [RNTST] Running test test_general...
UVM_INFO aligner_env.sv(74) @ 0: uvm_test_top.env [aligner_env] Environment connected
UVM_INFO aligner_env.sv(78) @ 0: uvm_test_top.env [aligner_env] Simulation started
-------------------------------------------------------------------------------------------
Name                     Type                      Size  Value                             
-------------------------------------------------------------------------------------------
regmodel                 cfs_aligner_regs          -     @367                              
  ctrl                   cfs_aligner_regs__ctrl    -     @370                              
    size                 uvm_reg_field             ...    RW ctrl[2:0]=3'h1                
    reserved0            uvm_reg_field             ...    RO ctrl[7:3]=5'h00               
    offset               uvm_reg_field             ...    RW ctrl[9:8]=2'h0                
    reserved1            uvm_reg_field             ...    RO ctrl[15:10]=6'h00             
    clr                  uvm_reg_field             ...    WO ctrl[16:16]=1'h0              
    reserved2            uvm_reg_field             ...    RO ctrl[31:17]=15'h0000          
  status                 cfs_aligner_regs__status  -     @378                              
    cnt_drop             uvm_reg_field             ...    RO status[7:0]=8'h00             
    rx_lvl               uvm_reg_field             ...    RO status[11:8]=4'h0             
    reserved0            uvm_reg_field             ...    RO status[15:12]=4'h0            
    tx_lvl               uvm_reg_field             ...    RO status[19:16]=4'h0            
    reserved1            uvm_reg_field             ...    RO status[31:20]=12'h000         
  irqen                  cfs_aligner_regs__irqen   -     @385                              
    rx_fifo_empty        uvm_reg_field             ...    RW irqen[0:0]=1'h1               
    rx_fifo_full         uvm_reg_field             ...    RW irqen[1:1]=1'h1               
    tx_fifo_empty        uvm_reg_field             ...    RW irqen[2:2]=1'h1               
    tx_fifo_full         uvm_reg_field             ...    RW irqen[3:3]=1'h1               
    max_drop             uvm_reg_field             ...    RW irqen[4:4]=1'h1               
    reserved             uvm_reg_field             ...    RO irqen[31:5]=27'h0000000       
  irq                    cfs_aligner_regs__irq     -     @393                              
    rx_fifo_empty        uvm_reg_field             ...    W1C irq[0:0]=1'h0                
    rx_fifo_full         uvm_reg_field             ...    W1C irq[1:1]=1'h0                
    tx_fifo_empty        uvm_reg_field             ...    W1C irq[2:2]=1'h0                
    tx_fifo_full         uvm_reg_field             ...    W1C irq[3:3]=1'h0                
    max_drop             uvm_reg_field             ...    W1C irq[4:4]=1'h0                
    reserved             uvm_reg_field             ...    RO irq[31:5]=27'h0000000         
  reg_map                uvm_reg_map               -     @369                              
    endian                                         ...   UVM_NO_ENDIAN                     
    effective sequencer  apb_sequencer             ...   uvm_test_top.env.apb_agt.sequencer
    ctrl                 cfs_aligner_regs__ctrl    ...   @370 +'h0                         
    status               cfs_aligner_regs__status  ...   @378 +'hc                         
    irqen                cfs_aligner_regs__irqen   ...   @385 +'hf0                        
    irq                  cfs_aligner_regs__irq     ...   @393 +'hf4                        
-------------------------------------------------------------------------------------------
UVM_INFO test_general.sv(316) @ 0: uvm_test_top [test_general] 
==================================================
  TEST GENERAL CONFIGURATION
==================================================
  SEMILLA            = 142003590
  TEST_MODE          = MD_ONLY
  APB_NUM_TRANS      = 90
  MD_NUM_PKTS        = 60
  MD_PESO_LEGAL      = 51%
  CTRL_SIZE          = 1
  CTRL_OFFSET        = 0
  MD_PATRON          = INCR
  TIMEOUT_MS         = 191
==================================================
UVM_INFO tb_top.sv(116) @ 190000: reporter [TB_TOP] Reset deasserted
UVM_INFO md_componentes.sv(31) @ 210000: uvm_test_top.env.rx_agt.driver [RX_DRV] Reset liberado
UVM_INFO scoreboard.sv(127) @ 270000: uvm_test_top.env.sb [scoreboard] Config actualizada: offset=0 size=1 (pending_bytes=0 flushed, expected_tx_queue=0 flushed)
UVM_INFO test_general.sv(118) @ 270000: uvm_test_top [test_general] CTRL configurado: size=1 offset=0
UVM_INFO test_general.sv(131) @ 350000: uvm_test_top [test_general] IRQEN configurado (todas las interrupciones habilitadas)
UVM_INFO test_general.sv(144) @ 350000: uvm_test_top [test_general] Drenando pipeline del DUT...
UVM_INFO test_general.sv(154) @ 430000: uvm_test_top [test_general] Pipeline drenado OK
UVM_INFO scoreboard.sv(122) @ 430000: uvm_test_top.env.sb [scoreboard] Scoreboard ARMADO — verificación activa
UVM_INFO test_general.sv(251) @ 430000: uvm_test_top [test_general] Iniciando MD: 30 legales, 30 ilegales, patrón=INCR
UVM_INFO scoreboard.sv(148) @ 450000: uvm_test_top.env.sb [scoreboard] [RX] #1: data=0x00000000 off=2 size=1 err=0 should_drop=0
UVM_INFO md_componentes.sv(41) @ 470000: uvm_test_top.env.rx_agt.driver [RX_DRV] [RX] data=0x00000000 offset=2 size=1 valid=1 err=1
UVM_INFO md_sequences.sv(127) @ 470000: uvm_test_top.env.rx_agt.sequencer@@rx_seq [rx_mixed_seq] Enviado LEGAL: off=2 size=1 data=0x00000000
UVM_INFO md_componentes.sv(234) @ 490000: uvm_test_top.env.irq_mon [IRQ_MON] [IRQ] @ 490000
UVM_INFO scoreboard.sv(228) @ 490000: uvm_test_top.env.sb [scoreboard] [IRQ #1] @ 490000
UVM_INFO scoreboard.sv(148) @ 510000: uvm_test_top.env.sb [scoreboard] [RX] #2: data=0x00000001 off=0 size=2 err=0 should_drop=0
UVM_INFO scoreboard.sv(192) @ 510000: uvm_test_top.env.sb [scoreboard] [TX] data=0x00000000 off=0 size=1
UVM_INFO scoreboard.sv(219) @ 510000: uvm_test_top.env.sb [scoreboard] TX MATCH OK: data=0x00000000 size=1
UVM_INFO md_componentes.sv(234) @ 530000: uvm_test_top.env.irq_mon [IRQ_MON] [IRQ] @ 530000
UVM_INFO scoreboard.sv(228) @ 530000: uvm_test_top.env.sb [scoreboard] [IRQ #2] @ 530000
UVM_INFO md_componentes.sv(41) @ 530000: uvm_test_top.env.rx_agt.driver [RX_DRV] [RX] data=0x00000001 offset=0 size=2 valid=1 err=1
UVM_INFO md_sequences.sv(127) @ 530000: uvm_test_top.env.rx_agt.sequencer@@rx_seq [rx_mixed_seq] Enviado LEGAL: off=0 size=2 data=0x00000001
UVM_INFO scoreboard.sv(148) @ 570000: uvm_test_top.env.sb [scoreboard] [RX] #3: data=0x00000002 off=0 size=4 err=0 should_drop=0
UVM_INFO scoreboard.sv(192) @ 570000: uvm_test_top.env.sb [scoreboard] [TX] data=0x00000001 off=0 size=1
UVM_INFO scoreboard.sv(219) @ 570000: uvm_test_top.env.sb [scoreboard] TX MATCH OK: data=0x00000001 size=1
UVM_INFO scoreboard.sv(192) @ 590000: uvm_test_top.env.sb [scoreboard] [TX] data=0x00000000 off=0 size=1
UVM_INFO scoreboard.sv(219) @ 590000: uvm_test_top.env.sb [scoreboard] TX MATCH OK: data=0x00000000 size=1
UVM_INFO md_componentes.sv(41) @ 590000: uvm_test_top.env.rx_agt.driver [RX_DRV] [RX] data=0x00000002 offset=0 size=4 valid=1 err=0
UVM_INFO md_sequences.sv(127) @ 590000: uvm_test_top.env.rx_agt.sequencer@@rx_seq [rx_mixed_seq] Enviado LEGAL: off=0 size=4 data=0x00000002
UVM_INFO md_componentes.sv(234) @ 610000: uvm_test_top.env.irq_mon [IRQ_MON] [IRQ] @ 610000
UVM_INFO scoreboard.sv(228) @ 610000: uvm_test_top.env.sb [scoreboard] [IRQ #3] @ 610000
UVM_INFO scoreboard.sv(148) @ 630000: uvm_test_top.env.sb [scoreboard] [RX] #4: data=0x00000003 off=2 size=3 err=0 should_drop=0
UVM_INFO scoreboard.sv(192) @ 630000: uvm_test_top.env.sb [scoreboard] [TX] data=0x00000002 off=0 size=1
UVM_INFO scoreboard.sv(219) @ 630000: uvm_test_top.env.sb [scoreboard] TX MATCH OK: data=0x00000002 size=1
UVM_INFO scoreboard.sv(192) @ 650000: uvm_test_top.env.sb [scoreboard] [TX] data=0x00000000 off=0 size=1
UVM_INFO scoreboard.sv(219) @ 650000: uvm_test_top.env.sb [scoreboard] TX MATCH OK: data=0x00000000 size=1
UVM_INFO md_componentes.sv(41) @ 650000: uvm_test_top.env.rx_agt.driver [RX_DRV] [RX] data=0x00000003 offset=2 size=3 valid=1 err=1
UVM_INFO md_sequences.sv(127) @ 650000: uvm_test_top.env.rx_agt.sequencer@@rx_seq [rx_mixed_seq] Enviado LEGAL: off=2 size=3 data=0x00000003
UVM_INFO scoreboard.sv(192) @ 670000: uvm_test_top.env.sb [scoreboard] [TX] data=0x00000000 off=0 size=1
UVM_INFO scoreboard.sv(219) @ 670000: uvm_test_top.env.sb [scoreboard] TX MATCH OK: data=0x00000000 size=1
UVM_INFO md_componentes.sv(234) @ 690000: uvm_test_top.env.irq_mon [IRQ_MON] [IRQ] @ 690000
UVM_INFO scoreboard.sv(228) @ 690000: uvm_test_top.env.sb [scoreboard] [IRQ #4] @ 690000
UVM_INFO scoreboard.sv(148) @ 690000: uvm_test_top.env.sb [scoreboard] [RX] #5: data=0x00000004 off=0 size=3 err=1 should_drop=1
UVM_INFO scoreboard.sv(161) @ 690000: uvm_test_top.env.sb [scoreboard] DROP OK: RX#5 off=0 size=3
UVM_INFO scoreboard.sv(192) @ 690000: uvm_test_top.env.sb [scoreboard] [TX] data=0x00000000 off=0 size=1
UVM_INFO scoreboard.sv(219) @ 690000: uvm_test_top.env.sb [scoreboard] TX MATCH OK: data=0x00000000 size=1
UVM_INFO scoreboard.sv(192) @ 710000: uvm_test_top.env.sb [scoreboard] [TX] data=0x00000000 off=0 size=1
UVM_INFO scoreboard.sv(219) @ 710000: uvm_test_top.env.sb [scoreboard] TX MATCH OK: data=0x00000000 size=1
UVM_INFO md_componentes.sv(41) @ 710000: uvm_test_top.env.rx_agt.driver [RX_DRV] [RX] data=0x00000004 offset=0 size=3 valid=1 err=1
UVM_INFO md_sequences.sv(144) @ 710000: uvm_test_top.env.rx_agt.sequencer@@rx_seq [rx_mixed_seq] Enviado ILEGAL: off=0 size=3 data=0x00000004
UVM_INFO scoreboard.sv(192) @ 730000: uvm_test_top.env.sb [scoreboard] [TX] data=0x00000000 off=0 size=1
UVM_INFO scoreboard.sv(219) @ 730000: uvm_test_top.env.sb [scoreboard] TX MATCH OK: data=0x00000000 size=1
UVM_INFO scoreboard.sv(148) @ 750000: uvm_test_top.env.sb [scoreboard] [RX] #6: data=0x00000005 off=0 size=3 err=1 should_drop=1
UVM_INFO scoreboard.sv(161) @ 750000: uvm_test_top.env.sb [scoreboard] DROP OK: RX#6 off=0 size=3
UVM_INFO scoreboard.sv(192) @ 750000: uvm_test_top.env.sb [scoreboard] [TX] data=0x00000000 off=0 size=1
UVM_WARNING scoreboard.sv(198) @ 750000: uvm_test_top.env.sb [scoreboard] TX sin esperado en cola (residual de cambio CTRL): data=0x00000000 size=1 — ignorado
UVM_INFO md_componentes.sv(234) @ 770000: uvm_test_top.env.irq_mon [IRQ_MON] [IRQ] @ 770000
UVM_INFO scoreboard.sv(228) @ 770000: uvm_test_top.env.sb [scoreboard] [IRQ #5] @ 770000
UVM_INFO md_componentes.sv(41) @ 770000: uvm_test_top.env.rx_agt.driver [RX_DRV] [RX] data=0x00000005 offset=0 size=3 valid=1 err=1
UVM_INFO md_sequences.sv(144) @ 770000: uvm_test_top.env.rx_agt.sequencer@@rx_seq [rx_mixed_seq] Enviado ILEGAL: off=0 size=3 data=0x00000005
UVM_INFO md_componentes.sv(41) @ 810000: uvm_test_top.env.rx_agt.driver [RX_DRV] [RX] data=0x00000006 offset=0 size=3 valid=0 err=1
UVM_INFO md_sequences.sv(144) @ 810000: uvm_test_top.env.rx_agt.sequencer@@rx_seq [rx_mixed_seq] Enviado ILEGAL: off=0 size=3 data=0x00000006
UVM_INFO scoreboard.sv(148) @ 850000: uvm_test_top.env.sb [scoreboard] [RX] #7: data=0x00000007 off=0 size=4 err=0 should_drop=0
UVM_INFO md_componentes.sv(41) @ 870000: uvm_test_top.env.rx_agt.driver [RX_DRV] [RX] data=0x00000007 offset=0 size=4 valid=1 err=0
UVM_INFO md_sequences.sv(127) @ 870000: uvm_test_top.env.rx_agt.sequencer@@rx_seq [rx_mixed_seq] Enviado LEGAL: off=0 size=4 data=0x00000007
UVM_INFO md_componentes.sv(234) @ 890000: uvm_test_top.env.irq_mon [IRQ_MON] [IRQ] @ 890000
UVM_INFO scoreboard.sv(228) @ 890000: uvm_test_top.env.sb [scoreboard] [IRQ #6] @ 890000
UVM_INFO scoreboard.sv(148) @ 910000: uvm_test_top.env.sb [scoreboard] [RX] #8: data=0x00000008 off=2 size=4 err=1 should_drop=1
UVM_INFO scoreboard.sv(161) @ 910000: uvm_test_top.env.sb [scoreboard] DROP OK: RX#8 off=2 size=4
UVM_INFO scoreboard.sv(192) @ 910000: uvm_test_top.env.sb [scoreboard] [TX] data=0x00000007 off=0 size=1
UVM_INFO scoreboard.sv(219) @ 910000: uvm_test_top.env.sb [scoreboard] TX MATCH OK: data=0x00000007 size=1
UVM_INFO scoreboard.sv(192) @ 930000: uvm_test_top.env.sb [scoreboard] [TX] data=0x00000000 off=0 size=1
UVM_INFO scoreboard.sv(219) @ 930000: uvm_test_top.env.sb [scoreboard] TX MATCH OK: data=0x00000000 size=1
UVM_INFO md_componentes.sv(41) @ 930000: uvm_test_top.env.rx_agt.driver [RX_DRV] [RX] data=0x00000008 offset=2 size=4 valid=1 err=0
UVM_INFO md_sequences.sv(144) @ 930000: uvm_test_top.env.rx_agt.sequencer@@rx_seq [rx_mixed_seq] Enviado ILEGAL: off=2 size=4 data=0x00000008
UVM_INFO scoreboard.sv(192) @ 950000: uvm_test_top.env.sb [scoreboard] [TX] data=0x00000000 off=0 size=1
UVM_INFO scoreboard.sv(219) @ 950000: uvm_test_top.env.sb [scoreboard] TX MATCH OK: data=0x00000000 size=1
UVM_INFO scoreboard.sv(148) @ 970000: uvm_test_top.env.sb [scoreboard] [RX] #9: data=0x00000009 off=1 size=2 err=1 should_drop=1
UVM_INFO scoreboard.sv(161) @ 970000: uvm_test_top.env.sb [scoreboard] DROP OK: RX#9 off=1 size=2
UVM_INFO scoreboard.sv(192) @ 970000: uvm_test_top.env.sb [scoreboard] [TX] data=0x00000000 off=0 size=1
UVM_INFO scoreboard.sv(219) @ 970000: uvm_test_top.env.sb [scoreboard] TX MATCH OK: data=0x00000000 size=1
UVM_INFO md_componentes.sv(234) @ 990000: uvm_test_top.env.irq_mon [IRQ_MON] [IRQ] @ 990000
UVM_INFO scoreboard.sv(228) @ 990000: uvm_test_top.env.sb [scoreboard] [IRQ #7] @ 990000
UVM_INFO md_componentes.sv(41) @ 990000: uvm_test_top.env.rx_agt.driver [RX_DRV] [RX] data=0x00000009 offset=1 size=2 valid=1 err=0
UVM_INFO md_sequences.sv(144) @ 990000: uvm_test_top.env.rx_agt.sequencer@@rx_seq [rx_mixed_seq] Enviado ILEGAL: off=1 size=2 data=0x00000009
UVM_INFO scoreboard.sv(148) @ 1030000: uvm_test_top.env.sb [scoreboard] [RX] #10: data=0x0000000a off=2 size=1 err=0 should_drop=0
UVM_INFO md_componentes.sv(41) @ 1050000: uvm_test_top.env.rx_agt.driver [RX_DRV] [RX] data=0x0000000a offset=2 size=1 valid=1 err=0
UVM_INFO md_sequences.sv(127) @ 1050000: uvm_test_top.env.rx_agt.sequencer@@rx_seq [rx_mixed_seq] Enviado LEGAL: off=2 size=1 data=0x0000000a
UVM_INFO md_componentes.sv(234) @ 1070000: uvm_test_top.env.irq_mon [IRQ_MON] [IRQ] @ 1070000
UVM_INFO scoreboard.sv(228) @ 1070000: uvm_test_top.env.sb [scoreboard] [IRQ #8] @ 1070000
UVM_INFO scoreboard.sv(148) @ 1090000: uvm_test_top.env.sb [scoreboard] [RX] #11: data=0x0000000b off=3 size=1 err=0 should_drop=0
UVM_INFO scoreboard.sv(192) @ 1090000: uvm_test_top.env.sb [scoreboard] [TX] data=0x00000000 off=0 size=1
UVM_INFO scoreboard.sv(219) @ 1090000: uvm_test_top.env.sb [scoreboard] TX MATCH OK: data=0x00000000 size=1
UVM_INFO md_componentes.sv(234) @ 1110000: uvm_test_top.env.irq_mon [IRQ_MON] [IRQ] @ 1110000
UVM_INFO scoreboard.sv(228) @ 1110000: uvm_test_top.env.sb [scoreboard] [IRQ #9] @ 1110000
UVM_INFO md_componentes.sv(41) @ 1110000: uvm_test_top.env.rx_agt.driver [RX_DRV] [RX] data=0x0000000b offset=3 size=1 valid=1 err=0
UVM_INFO md_sequences.sv(127) @ 1110000: uvm_test_top.env.rx_agt.sequencer@@rx_seq [rx_mixed_seq] Enviado LEGAL: off=3 size=1 data=0x0000000b
UVM_INFO scoreboard.sv(148) @ 1150000: uvm_test_top.env.sb [scoreboard] [RX] #12: data=0x0000000c off=2 size=3 err=0 should_drop=0
UVM_INFO scoreboard.sv(192) @ 1150000: uvm_test_top.env.sb [scoreboard] [TX] data=0x00000000 off=0 size=1
UVM_INFO scoreboard.sv(219) @ 1150000: uvm_test_top.env.sb [scoreboard] TX MATCH OK: data=0x00000000 size=1
UVM_INFO md_componentes.sv(234) @ 1170000: uvm_test_top.env.irq_mon [IRQ_MON] [IRQ] @ 1170000
UVM_INFO scoreboard.sv(228) @ 1170000: uvm_test_top.env.sb [scoreboard] [IRQ #10] @ 1170000
UVM_INFO md_componentes.sv(41) @ 1170000: uvm_test_top.env.rx_agt.driver [RX_DRV] [RX] data=0x0000000c offset=2 size=3 valid=1 err=1
UVM_INFO md_sequences.sv(127) @ 1170000: uvm_test_top.env.rx_agt.sequencer@@rx_seq [rx_mixed_seq] Enviado LEGAL: off=2 size=3 data=0x0000000c
UVM_INFO scoreboard.sv(148) @ 1210000: uvm_test_top.env.sb [scoreboard] [RX] #13: data=0x0000000d off=2 size=1 err=0 should_drop=0
UVM_INFO scoreboard.sv(192) @ 1210000: uvm_test_top.env.sb [scoreboard] [TX] data=0x00000000 off=0 size=1
UVM_INFO scoreboard.sv(219) @ 1210000: uvm_test_top.env.sb [scoreboard] TX MATCH OK: data=0x00000000 size=1
UVM_INFO scoreboard.sv(192) @ 1230000: uvm_test_top.env.sb [scoreboard] [TX] data=0x00000000 off=0 size=1
UVM_INFO scoreboard.sv(219) @ 1230000: uvm_test_top.env.sb [scoreboard] TX MATCH OK: data=0x00000000 size=1
UVM_INFO md_componentes.sv(41) @ 1230000: uvm_test_top.env.rx_agt.driver [RX_DRV] [RX] data=0x0000000d offset=2 size=1 valid=1 err=0
UVM_INFO md_sequences.sv(127) @ 1230000: uvm_test_top.env.rx_agt.sequencer@@rx_seq [rx_mixed_seq] Enviado LEGAL: off=2 size=1 data=0x0000000d
UVM_INFO md_componentes.sv(234) @ 1250000: uvm_test_top.env.irq_mon [IRQ_MON] [IRQ] @ 1250000
UVM_INFO scoreboard.sv(228) @ 1250000: uvm_test_top.env.sb [scoreboard] [IRQ #11] @ 1250000
UVM_INFO scoreboard.sv(192) @ 1250000: uvm_test_top.env.sb [scoreboard] [TX] data=0x00000000 off=0 size=1
UVM_INFO scoreboard.sv(219) @ 1250000: uvm_test_top.env.sb [scoreboard] TX MATCH OK: data=0x00000000 size=1
UVM_INFO scoreboard.sv(148) @ 1270000: uvm_test_top.env.sb [scoreboard] [RX] #14: data=0x0000000e off=3 size=4 err=1 should_drop=1
UVM_INFO scoreboard.sv(161) @ 1270000: uvm_test_top.env.sb [scoreboard] DROP OK: RX#14 off=3 size=4
UVM_INFO scoreboard.sv(192) @ 1270000: uvm_test_top.env.sb [scoreboard] [TX] data=0x00000000 off=0 size=1
UVM_WARNING scoreboard.sv(198) @ 1270000: uvm_test_top.env.sb [scoreboard] TX sin esperado en cola (residual de cambio CTRL): data=0x00000000 size=1 — ignorado
UVM_INFO md_componentes.sv(234) @ 1290000: uvm_test_top.env.irq_mon [IRQ_MON] [IRQ] @ 1290000
UVM_INFO scoreboard.sv(228) @ 1290000: uvm_test_top.env.sb [scoreboard] [IRQ #12] @ 1290000
UVM_INFO md_componentes.sv(41) @ 1290000: uvm_test_top.env.rx_agt.driver [RX_DRV] [RX] data=0x0000000e offset=3 size=4 valid=1 err=1
UVM_INFO md_sequences.sv(144) @ 1290000: uvm_test_top.env.rx_agt.sequencer@@rx_seq [rx_mixed_seq] Enviado ILEGAL: off=3 size=4 data=0x0000000e
UVM_INFO scoreboard.sv(148) @ 1330000: uvm_test_top.env.sb [scoreboard] [RX] #15: data=0x0000000f off=1 size=1 err=0 should_drop=0
UVM_INFO md_componentes.sv(41) @ 1350000: uvm_test_top.env.rx_agt.driver [RX_DRV] [RX] data=0x0000000f offset=1 size=1 valid=1 err=0
UVM_INFO md_sequences.sv(127) @ 1350000: uvm_test_top.env.rx_agt.sequencer@@rx_seq [rx_mixed_seq] Enviado LEGAL: off=1 size=1 data=0x0000000f
UVM_INFO md_componentes.sv(234) @ 1370000: uvm_test_top.env.irq_mon [IRQ_MON] [IRQ] @ 1370000
UVM_INFO scoreboard.sv(228) @ 1370000: uvm_test_top.env.sb [scoreboard] [IRQ #13] @ 1370000
UVM_INFO scoreboard.sv(148) @ 1390000: uvm_test_top.env.sb [scoreboard] [RX] #16: data=0x00000010 off=3 size=1 err=0 should_drop=0
UVM_INFO scoreboard.sv(192) @ 1390000: uvm_test_top.env.sb [scoreboard] [TX] data=0x00000000 off=0 size=1
UVM_INFO scoreboard.sv(219) @ 1390000: uvm_test_top.env.sb [scoreboard] TX MATCH OK: data=0x00000000 size=1
UVM_INFO md_componentes.sv(234) @ 1410000: uvm_test_top.env.irq_mon [IRQ_MON] [IRQ] @ 1410000
UVM_INFO scoreboard.sv(228) @ 1410000: uvm_test_top.env.sb [scoreboard] [IRQ #14] @ 1410000
UVM_INFO md_componentes.sv(41) @ 1410000: uvm_test_top.env.rx_agt.driver [RX_DRV] [RX] data=0x00000010 offset=3 size=1 valid=1 err=0
UVM_INFO md_sequences.sv(127) @ 1410000: uvm_test_top.env.rx_agt.sequencer@@rx_seq [rx_mixed_seq] Enviado LEGAL: off=3 size=1 data=0x00000010
UVM_INFO scoreboard.sv(148) @ 1450000: uvm_test_top.env.sb [scoreboard] [RX] #17: data=0x00000011 off=0 size=3 err=1 should_drop=1
UVM_INFO scoreboard.sv(161) @ 1450000: uvm_test_top.env.sb [scoreboard] DROP OK: RX#17 off=0 size=3
UVM_INFO scoreboard.sv(192) @ 1450000: uvm_test_top.env.sb [scoreboard] [TX] data=0x00000000 off=0 size=1
UVM_INFO scoreboard.sv(219) @ 1450000: uvm_test_top.env.sb [scoreboard] TX MATCH OK: data=0x00000000 size=1
UVM_INFO md_componentes.sv(234) @ 1470000: uvm_test_top.env.irq_mon [IRQ_MON] [IRQ] @ 1470000
UVM_INFO scoreboard.sv(228) @ 1470000: uvm_test_top.env.sb [scoreboard] [IRQ #15] @ 1470000
UVM_INFO md_componentes.sv(41) @ 1470000: uvm_test_top.env.rx_agt.driver [RX_DRV] [RX] data=0x00000011 offset=0 size=3 valid=1 err=0
UVM_INFO md_sequences.sv(144) @ 1470000: uvm_test_top.env.rx_agt.sequencer@@rx_seq [rx_mixed_seq] Enviado ILEGAL: off=0 size=3 data=0x00000011
UVM_INFO scoreboard.sv(148) @ 1510000: uvm_test_top.env.sb [scoreboard] [RX] #18: data=0x00000012 off=2 size=2 err=0 should_drop=0
UVM_INFO md_componentes.sv(41) @ 1530000: uvm_test_top.env.rx_agt.driver [RX_DRV] [RX] data=0x00000012 offset=2 size=2 valid=1 err=1
UVM_INFO md_sequences.sv(127) @ 1530000: uvm_test_top.env.rx_agt.sequencer@@rx_seq [rx_mixed_seq] Enviado LEGAL: off=2 size=2 data=0x00000012
UVM_INFO md_componentes.sv(234) @ 1550000: uvm_test_top.env.irq_mon [IRQ_MON] [IRQ] @ 1550000
UVM_INFO scoreboard.sv(228) @ 1550000: uvm_test_top.env.sb [scoreboard] [IRQ #16] @ 1550000
UVM_INFO scoreboard.sv(148) @ 1570000: uvm_test_top.env.sb [scoreboard] [RX] #19: data=0x00000013 off=0 size=4 err=0 should_drop=0
UVM_INFO scoreboard.sv(192) @ 1570000: uvm_test_top.env.sb [scoreboard] [TX] data=0x00000000 off=0 size=1
UVM_INFO scoreboard.sv(219) @ 1570000: uvm_test_top.env.sb [scoreboard] TX MATCH OK: data=0x00000000 size=1
UVM_INFO scoreboard.sv(192) @ 1590000: uvm_test_top.env.sb [scoreboard] [TX] data=0x00000000 off=0 size=1
UVM_INFO scoreboard.sv(219) @ 1590000: uvm_test_top.env.sb [scoreboard] TX MATCH OK: data=0x00000000 size=1
UVM_INFO md_componentes.sv(41) @ 1590000: uvm_test_top.env.rx_agt.driver [RX_DRV] [RX] data=0x00000013 offset=0 size=4 valid=1 err=0
UVM_INFO md_sequences.sv(127) @ 1590000: uvm_test_top.env.rx_agt.sequencer@@rx_seq [rx_mixed_seq] Enviado LEGAL: off=0 size=4 data=0x00000013
UVM_INFO md_componentes.sv(234) @ 1610000: uvm_test_top.env.irq_mon [IRQ_MON] [IRQ] @ 1610000
UVM_INFO scoreboard.sv(228) @ 1610000: uvm_test_top.env.sb [scoreboard] [IRQ #17] @ 1610000
UVM_INFO scoreboard.sv(148) @ 1630000: uvm_test_top.env.sb [scoreboard] [RX] #20: data=0x00000014 off=2 size=3 err=0 should_drop=0
UVM_INFO scoreboard.sv(192) @ 1630000: uvm_test_top.env.sb [scoreboard] [TX] data=0x00000013 off=0 size=1
UVM_INFO scoreboard.sv(219) @ 1630000: uvm_test_top.env.sb [scoreboard] TX MATCH OK: data=0x00000013 size=1
UVM_INFO scoreboard.sv(192) @ 1650000: uvm_test_top.env.sb [scoreboard] [TX] data=0x00000000 off=0 size=1
UVM_INFO scoreboard.sv(219) @ 1650000: uvm_test_top.env.sb [scoreboard] TX MATCH OK: data=0x00000000 size=1
UVM_INFO md_componentes.sv(41) @ 1650000: uvm_test_top.env.rx_agt.driver [RX_DRV] [RX] data=0x00000014 offset=2 size=3 valid=1 err=0
UVM_INFO md_sequences.sv(127) @ 1650000: uvm_test_top.env.rx_agt.sequencer@@rx_seq [rx_mixed_seq] Enviado LEGAL: off=2 size=3 data=0x00000014
UVM_INFO scoreboard.sv(192) @ 1670000: uvm_test_top.env.sb [scoreboard] [TX] data=0x00000000 off=0 size=1
UVM_INFO scoreboard.sv(219) @ 1670000: uvm_test_top.env.sb [scoreboard] TX MATCH OK: data=0x00000000 size=1
UVM_INFO md_componentes.sv(234) @ 1690000: uvm_test_top.env.irq_mon [IRQ_MON] [IRQ] @ 1690000
UVM_INFO scoreboard.sv(228) @ 1690000: uvm_test_top.env.sb [scoreboard] [IRQ #18] @ 1690000
UVM_INFO scoreboard.sv(148) @ 1690000: uvm_test_top.env.sb [scoreboard] [RX] #21: data=0x00000015 off=1 size=2 err=1 should_drop=1
UVM_INFO scoreboard.sv(161) @ 1690000: uvm_test_top.env.sb [scoreboard] DROP OK: RX#21 off=1 size=2
UVM_INFO scoreboard.sv(192) @ 1690000: uvm_test_top.env.sb [scoreboard] [TX] data=0x00000000 off=0 size=1
UVM_INFO scoreboard.sv(219) @ 1690000: uvm_test_top.env.sb [scoreboard] TX MATCH OK: data=0x00000000 size=1
UVM_INFO scoreboard.sv(192) @ 1710000: uvm_test_top.env.sb [scoreboard] [TX] data=0x00000000 off=0 size=1
UVM_INFO scoreboard.sv(219) @ 1710000: uvm_test_top.env.sb [scoreboard] TX MATCH OK: data=0x00000000 size=1
UVM_INFO md_componentes.sv(41) @ 1710000: uvm_test_top.env.rx_agt.driver [RX_DRV] [RX] data=0x00000015 offset=1 size=2 valid=1 err=0
UVM_INFO md_sequences.sv(144) @ 1710000: uvm_test_top.env.rx_agt.sequencer@@rx_seq [rx_mixed_seq] Enviado ILEGAL: off=1 size=2 data=0x00000015
UVM_INFO scoreboard.sv(192) @ 1730000: uvm_test_top.env.sb [scoreboard] [TX] data=0x00000000 off=0 size=1
UVM_INFO scoreboard.sv(219) @ 1730000: uvm_test_top.env.sb [scoreboard] TX MATCH OK: data=0x00000000 size=1
UVM_INFO scoreboard.sv(148) @ 1750000: uvm_test_top.env.sb [scoreboard] [RX] #22: data=0x00000016 off=0 size=3 err=1 should_drop=1
UVM_INFO scoreboard.sv(161) @ 1750000: uvm_test_top.env.sb [scoreboard] DROP OK: RX#22 off=0 size=3
UVM_INFO scoreboard.sv(192) @ 1750000: uvm_test_top.env.sb [scoreboard] [TX] data=0x00000000 off=0 size=1
UVM_WARNING scoreboard.sv(198) @ 1750000: uvm_test_top.env.sb [scoreboard] TX sin esperado en cola (residual de cambio CTRL): data=0x00000000 size=1 — ignorado
UVM_INFO md_componentes.sv(234) @ 1770000: uvm_test_top.env.irq_mon [IRQ_MON] [IRQ] @ 1770000
UVM_INFO scoreboard.sv(228) @ 1770000: uvm_test_top.env.sb [scoreboard] [IRQ #19] @ 1770000
