logs/test_2.log
Chronologic VCS simulator copyright 1991-2020
Contains Synopsys proprietary information.
Compiler version R-2020.12-SP2; Runtime version R-2020.12-SP2;  Jun 15 13:36 2026
UVM_INFO /mnt/vol_NFS_rh003/tools/vcs/R-2020.12-SP2/etc/uvm-1.2/base/uvm_root.svh(402) @ 0: reporter [UVM/RELNOTES] 
----------------------------------------------------------------
UVM-1.2.Synopsys
(C) 2007-2014 Mentor Graphics Corporation
(C) 2007-2014 Cadence Design Systems, Inc.
(C) 2006-2014 Synopsys, Inc.
(C) 2011-2013 Cypress Semiconductor Corp.
(C) 2013-2014 NVIDIA Corporation
----------------------------------------------------------------

  ***********       IMPORTANT RELEASE NOTES         ************

  You are using a version of the UVM library that has been compiled
  with `UVM_NO_DEPRECATED undefined.
  See http://www.eda.org/svdb/view.php?id=3313 for more details.

  You are using a version of the UVM library that has been compiled
  with `UVM_OBJECT_DO_NOT_NEED_CONSTRUCTOR undefined.
  See http://www.eda.org/svdb/view.php?id=3770 for more details.

      (Specify +UVM_NO_RELNOTES to turn off this notice)

UVM_INFO tb_top.sv(133) @ 0: reporter [TB_TOP] All interfaces set in config_db
UVM_INFO tb_top.sv(146) @ 0: reporter [TB_TOP] RAL model created and set in config_db
UVM_INFO @ 0: reporter [RNTST] Running test test_general...
UVM_INFO aligner_env.sv(74) @ 0: uvm_test_top.env [aligner_env] Environment connected
UVM_INFO aligner_env.sv(78) @ 0: uvm_test_top.env [aligner_env] Simulation started
-------------------------------------------------------------------------------------------
Name                     Type                      Size  Value                             
-------------------------------------------------------------------------------------------
regmodel                 cfs_aligner_regs          -     @367                              
  ctrl                   cfs_aligner_regs__ctrl    -     @370                              
    size                 uvm_reg_field             ...    RW ctrl[2:0]=3'h1                
    reserved0            uvm_reg_field             ...    RO ctrl[7:3]=5'h00               
    offset               uvm_reg_field             ...    RW ctrl[9:8]=2'h0                
    reserved1            uvm_reg_field             ...    RO ctrl[15:10]=6'h00             
    clr                  uvm_reg_field             ...    WO ctrl[16:16]=1'h0              
    reserved2            uvm_reg_field             ...    RO ctrl[31:17]=15'h0000          
  status                 cfs_aligner_regs__status  -     @378                              
    cnt_drop             uvm_reg_field             ...    RO status[7:0]=8'h00             
    rx_lvl               uvm_reg_field             ...    RO status[11:8]=4'h0             
    reserved0            uvm_reg_field             ...    RO status[15:12]=4'h0            
    tx_lvl               uvm_reg_field             ...    RO status[19:16]=4'h0            
    reserved1            uvm_reg_field             ...    RO status[31:20]=12'h000         
  irqen                  cfs_aligner_regs__irqen   -     @385                              
    rx_fifo_empty        uvm_reg_field             ...    RW irqen[0:0]=1'h1               
    rx_fifo_full         uvm_reg_field             ...    RW irqen[1:1]=1'h1               
    tx_fifo_empty        uvm_reg_field             ...    RW irqen[2:2]=1'h1               
    tx_fifo_full         uvm_reg_field             ...    RW irqen[3:3]=1'h1               
    max_drop             uvm_reg_field             ...    RW irqen[4:4]=1'h1               
    reserved             uvm_reg_field             ...    RO irqen[31:5]=27'h0000000       
  irq                    cfs_aligner_regs__irq     -     @393                              
    rx_fifo_empty        uvm_reg_field             ...    W1C irq[0:0]=1'h0                
    rx_fifo_full         uvm_reg_field             ...    W1C irq[1:1]=1'h0                
    tx_fifo_empty        uvm_reg_field             ...    W1C irq[2:2]=1'h0                
    tx_fifo_full         uvm_reg_field             ...    W1C irq[3:3]=1'h0                
    max_drop             uvm_reg_field             ...    W1C irq[4:4]=1'h0                
    reserved             uvm_reg_field             ...    RO irq[31:5]=27'h0000000         
  reg_map                uvm_reg_map               -     @369                              
    endian                                         ...   UVM_NO_ENDIAN                     
    effective sequencer  apb_sequencer             ...   uvm_test_top.env.apb_agt.sequencer
    ctrl                 cfs_aligner_regs__ctrl    ...   @370 +'h0                         
    status               cfs_aligner_regs__status  ...   @378 +'hc                         
    irqen                cfs_aligner_regs__irqen   ...   @385 +'hf0                        
    irq                  cfs_aligner_regs__irq     ...   @393 +'hf4                        
-------------------------------------------------------------------------------------------
UVM_INFO test_general.sv(333) @ 0: uvm_test_top [test_general] 
==================================================
  TEST GENERAL CONFIGURATION
==================================================
  SEMILLA            = 317252423
  TEST_MODE          = APB_ONLY
  APB_NUM_TRANS      = 193
  MD_NUM_PKTS        = 105
  MD_PESO_LEGAL      = 42%
  CTRL_SIZE          = 1
  CTRL_OFFSET        = 0
  MD_PATRON          = DECR
  TIMEOUT_MS         = 480
==================================================
UVM_INFO tb_top.sv(116) @ 190000: reporter [TB_TOP] Reset deasserted
UVM_INFO md_componentes.sv(31) @ 210000: uvm_test_top.env.rx_agt.driver [RX_DRV] Reset liberado
UVM_INFO scoreboard.sv(126) @ 270000: uvm_test_top.env.sb [scoreboard] Config actualizada: offset=0 size=1 (pending_bytes=0 flushed, expected_tx_queue=0 flushed)
UVM_INFO test_general.sv(118) @ 270000: uvm_test_top [test_general] CTRL configurado: size=1 offset=0
UVM_INFO test_general.sv(131) @ 350000: uvm_test_top [test_general] IRQEN configurado (todas las interrupciones habilitadas)
UVM_INFO test_general.sv(144) @ 350000: uvm_test_top [test_general] Drenando pipeline del DUT...
UVM_INFO test_general.sv(154) @ 430000: uvm_test_top [test_general] Pipeline drenado OK
UVM_INFO scoreboard.sv(121) @ 430000: uvm_test_top.env.sb [scoreboard] Scoreboard ARMADO — verificación activa
UVM_INFO test_general.sv(166) @ 430000: uvm_test_top [test_general] Iniciando 193 transacciones APB
UVM_INFO scoreboard.sv(126) @ 950000: uvm_test_top.env.sb [scoreboard] Config actualizada: offset=3 size=1 (pending_bytes=0 flushed, expected_tx_queue=0 flushed)
UVM_INFO scoreboard.sv(126) @ 1290000: uvm_test_top.env.sb [scoreboard] Config actualizada: offset=1 size=1 (pending_bytes=0 flushed, expected_tx_queue=0 flushed)
UVM_INFO scoreboard.sv(126) @ 1630000: uvm_test_top.env.sb [scoreboard] Config actualizada: offset=0 size=2 (pending_bytes=0 flushed, expected_tx_queue=0 flushed)
UVM_WARNING apb_componentes.sv(142) @ 2690000: uvm_test_top.env.apb_agt.driver [apb_driver] APB WRITE at addr 0x0 returned error (pslverr=1)
UVM_INFO scoreboard.sv(126) @ 3030000: uvm_test_top.env.sb [scoreboard] Config actualizada: offset=1 size=1 (pending_bytes=0 flushed, expected_tx_queue=0 flushed)
UVM_INFO scoreboard.sv(126) @ 3290000: uvm_test_top.env.sb [scoreboard] Config actualizada: offset=0 size=4 (pending_bytes=0 flushed, expected_tx_queue=0 flushed)
UVM_WARNING apb_componentes.sv(142) @ 3470000: uvm_test_top.env.apb_agt.driver [apb_driver] APB WRITE at addr 0x0 returned error (pslverr=1)
UVM_WARNING apb_componentes.sv(142) @ 3570000: uvm_test_top.env.apb_agt.driver [apb_driver] APB WRITE at addr 0x0 returned error (pslverr=1)
UVM_WARNING apb_componentes.sv(142) @ 3670000: uvm_test_top.env.apb_agt.driver [apb_driver] APB WRITE at addr 0x0 returned error (pslverr=1)
UVM_WARNING apb_componentes.sv(142) @ 3770000: uvm_test_top.env.apb_agt.driver [apb_driver] APB WRITE at addr 0x0 returned error (pslverr=1)
UVM_WARNING apb_componentes.sv(142) @ 3870000: uvm_test_top.env.apb_agt.driver [apb_driver] APB WRITE at addr 0x0 returned error (pslverr=1)
UVM_INFO scoreboard.sv(126) @ 4610000: uvm_test_top.env.sb [scoreboard] Config actualizada: offset=0 size=2 (pending_bytes=0 flushed, expected_tx_queue=0 flushed)
UVM_WARNING apb_componentes.sv(142) @ 4870000: uvm_test_top.env.apb_agt.driver [apb_driver] APB WRITE at addr 0x0 returned error (pslverr=1)
UVM_WARNING apb_componentes.sv(142) @ 5130000: uvm_test_top.env.apb_agt.driver [apb_driver] APB WRITE at addr 0x0 returned error (pslverr=1)
UVM_INFO scoreboard.sv(126) @ 5550000: uvm_test_top.env.sb [scoreboard] Config actualizada: offset=2 size=1 (pending_bytes=0 flushed, expected_tx_queue=0 flushed)
UVM_WARNING apb_componentes.sv(142) @ 6630000: uvm_test_top.env.apb_agt.driver [apb_driver] APB WRITE at addr 0x0 returned error (pslverr=1)
UVM_WARNING apb_componentes.sv(142) @ 6970000: uvm_test_top.env.apb_agt.driver [apb_driver] APB WRITE at addr 0x0 returned error (pslverr=1)
UVM_WARNING apb_componentes.sv(142) @ 7150000: uvm_test_top.env.apb_agt.driver [apb_driver] APB WRITE at addr 0x0 returned error (pslverr=1)
UVM_WARNING apb_componentes.sv(142) @ 7490000: uvm_test_top.env.apb_agt.driver [apb_driver] APB WRITE at addr 0x0 returned error (pslverr=1)
UVM_WARNING apb_componentes.sv(142) @ 7750000: uvm_test_top.env.apb_agt.driver [apb_driver] APB WRITE at addr 0x0 returned error (pslverr=1)
UVM_WARNING apb_componentes.sv(142) @ 8190000: uvm_test_top.env.apb_agt.driver [apb_driver] APB WRITE at addr 0x0 returned error (pslverr=1)
UVM_INFO scoreboard.sv(126) @ 8690000: uvm_test_top.env.sb [scoreboard] Config actualizada: offset=1 size=1 (pending_bytes=0 flushed, expected_tx_queue=0 flushed)
UVM_INFO scoreboard.sv(126) @ 8950000: uvm_test_top.env.sb [scoreboard] Config actualizada: offset=2 size=2 (pending_bytes=0 flushed, expected_tx_queue=0 flushed)
UVM_WARNING apb_componentes.sv(142) @ 9290000: uvm_test_top.env.apb_agt.driver [apb_driver] APB WRITE at addr 0x0 returned error (pslverr=1)
UVM_WARNING apb_componentes.sv(142) @ 9390000: uvm_test_top.env.apb_agt.driver [apb_driver] APB WRITE at addr 0x0 returned error (pslverr=1)
UVM_WARNING apb_componentes.sv(142) @ 9570000: uvm_test_top.env.apb_agt.driver [apb_driver] APB WRITE at addr 0x0 returned error (pslverr=1)
UVM_INFO scoreboard.sv(126) @ 10310000: uvm_test_top.env.sb [scoreboard] Config actualizada: offset=0 size=2 (pending_bytes=0 flushed, expected_tx_queue=0 flushed)
UVM_INFO scoreboard.sv(126) @ 10570000: uvm_test_top.env.sb [scoreboard] Config actualizada: offset=0 size=1 (pending_bytes=0 flushed, expected_tx_queue=0 flushed)
UVM_INFO scoreboard.sv(126) @ 10990000: uvm_test_top.env.sb [scoreboard] Config actualizada: offset=0 size=2 (pending_bytes=0 flushed, expected_tx_queue=0 flushed)
UVM_INFO scoreboard.sv(126) @ 11570000: uvm_test_top.env.sb [scoreboard] Config actualizada: offset=2 size=2 (pending_bytes=0 flushed, expected_tx_queue=0 flushed)
UVM_INFO scoreboard.sv(126) @ 12470000: uvm_test_top.env.sb [scoreboard] Config actualizada: offset=1 size=1 (pending_bytes=0 flushed, expected_tx_queue=0 flushed)
UVM_WARNING apb_componentes.sv(142) @ 13210000: uvm_test_top.env.apb_agt.driver [apb_driver] APB WRITE at addr 0x0 returned error (pslverr=1)
UVM_INFO scoreboard.sv(126) @ 13630000: uvm_test_top.env.sb [scoreboard] Config actualizada: offset=0 size=4 (pending_bytes=0 flushed, expected_tx_queue=0 flushed)
UVM_INFO scoreboard.sv(126) @ 14130000: uvm_test_top.env.sb [scoreboard] Config actualizada: offset=3 size=1 (pending_bytes=0 flushed, expected_tx_queue=0 flushed)
UVM_INFO scoreboard.sv(126) @ 14630000: uvm_test_top.env.sb [scoreboard] Config actualizada: offset=0 size=1 (pending_bytes=0 flushed, expected_tx_queue=0 flushed)
UVM_WARNING apb_componentes.sv(142) @ 15290000: uvm_test_top.env.apb_agt.driver [apb_driver] APB WRITE at addr 0x0 returned error (pslverr=1)
UVM_INFO scoreboard.sv(126) @ 15550000: uvm_test_top.env.sb [scoreboard] Config actualizada: offset=0 size=4 (pending_bytes=0 flushed, expected_tx_queue=0 flushed)
UVM_WARNING apb_componentes.sv(142) @ 16150000: uvm_test_top.env.apb_agt.driver [apb_driver] APB WRITE at addr 0x0 returned error (pslverr=1)
UVM_INFO scoreboard.sv(126) @ 17450000: uvm_test_top.env.sb [scoreboard] Config actualizada: offset=2 size=1 (pending_bytes=0 flushed, expected_tx_queue=0 flushed)
UVM_INFO scoreboard.sv(126) @ 17710000: uvm_test_top.env.sb [scoreboard] Config actualizada: offset=0 size=1 (pending_bytes=0 flushed, expected_tx_queue=0 flushed)
UVM_INFO scoreboard.sv(126) @ 18050000: uvm_test_top.env.sb [scoreboard] Config actualizada: offset=2 size=2 (pending_bytes=0 flushed, expected_tx_queue=0 flushed)
UVM_WARNING apb_componentes.sv(142) @ 18150000: uvm_test_top.env.apb_agt.driver [apb_driver] APB WRITE at addr 0x0 returned error (pslverr=1)
UVM_INFO scoreboard.sv(126) @ 18490000: uvm_test_top.env.sb [scoreboard] Config actualizada: offset=1 size=1 (pending_bytes=0 flushed, expected_tx_queue=0 flushed)
UVM_INFO scoreboard.sv(126) @ 18830000: uvm_test_top.env.sb [scoreboard] Config actualizada: offset=2 size=1 (pending_bytes=0 flushed, expected_tx_queue=0 flushed)
UVM_INFO scoreboard.sv(126) @ 19410000: uvm_test_top.env.sb [scoreboard] Config actualizada: offset=3 size=1 (pending_bytes=0 flushed, expected_tx_queue=0 flushed)
UVM_WARNING apb_componentes.sv(142) @ 20390000: uvm_test_top.env.apb_agt.driver [apb_driver] APB WRITE at addr 0x0 returned error (pslverr=1)
UVM_WARNING apb_componentes.sv(142) @ 20570000: uvm_test_top.env.apb_agt.driver [apb_driver] APB WRITE at addr 0x0 returned error (pslverr=1)
UVM_INFO scoreboard.sv(126) @ 20830000: uvm_test_top.env.sb [scoreboard] Config actualizada: offset=0 size=1 (pending_bytes=0 flushed, expected_tx_queue=0 flushed)
UVM_INFO scoreboard.sv(126) @ 21170000: uvm_test_top.env.sb [scoreboard] Config actualizada: offset=3 size=1 (pending_bytes=0 flushed, expected_tx_queue=0 flushed)
UVM_INFO scoreboard.sv(126) @ 21430000: uvm_test_top.env.sb [scoreboard] Config actualizada: offset=1 size=1 (pending_bytes=0 flushed, expected_tx_queue=0 flushed)
UVM_INFO scoreboard.sv(126) @ 21690000: uvm_test_top.env.sb [scoreboard] Config actualizada: offset=2 size=3 (pending_bytes=0 flushed, expected_tx_queue=0 flushed)
UVM_WARNING apb_componentes.sv(142) @ 21870000: uvm_test_top.env.apb_agt.driver [apb_driver] APB WRITE at addr 0x0 returned error (pslverr=1)
UVM_INFO test_general.sv(244) @ 22115000: uvm_test_top [test_general] APB test completado: exitosas=32 ilegales=24
UVM_INFO scoreboard.sv(274) @ 24690000: uvm_test_top.env.sb [scoreboard] CNT_DROP OK: 0
UVM_INFO test_general.sv(323) @ 24690000: uvm_test_top [test_general] STATUS final: cnt_drop=0, rx_lvl=0, tx_lvl=0
UVM_INFO scoreboard.sv(341) @ 24690000: uvm_test_top.env.sb [scoreboard] MODEL STATUS: pending_bytes=0, tx_generated=0, rx_consumed=0
UVM_INFO /mnt/vol_NFS_rh003/tools/vcs/R-2020.12-SP2/etc/uvm-1.2/base/uvm_objection.svh(1276) @ 24690000: reporter [TEST_DONE] 'run' phase is ready to proceed to the 'extract' phase
UVM_INFO scoreboard.sv(309) @ 24690000: uvm_test_top.env.sb [scoreboard] 
==========================================
  RESUMEN SCOREBOARD
==========================================
  RX packets recibidos:   0
  Drops esperados:        0
  Drops reales (CNT_DROP):0
  TX generados (modelo):  0
  TX recibidos:           0
  TX correctos:           0
  TX incorrectos:         0
  IRQs recibidas:         0
  Errores totales:        0
==========================================
UVM_INFO scoreboard.sv(324) @ 24690000: uvm_test_top.env.sb [scoreboard] TEST PASADO
UVM_INFO /mnt/vol_NFS_rh003/tools/vcs/R-2020.12-SP2/etc/uvm-1.2/base/uvm_report_server.svh(901) @ 24690000: reporter [UVM/REPORT/SERVER] 
--- UVM Report Summary ---

** Report counts by severity
UVM_INFO :   51
UVM_WARNING :   24
UVM_ERROR :    0
UVM_FATAL :    0
** Report counts by id
[RNTST]     1
[RX_DRV]     1
[TB_TOP]     3
[TEST_DONE]     1
[UVM/RELNOTES]     1
[aligner_env]     2
[apb_driver]    24
[scoreboard]    34
[test_general]     8

$finish called from file "/mnt/vol_NFS_rh003/tools/vcs/R-2020.12-SP2/etc/uvm-1.2/base/uvm_root.svh", line 527.
$finish at simulation time             24690000
           V C S   S i m u l a t i o n   R e p o r t 
Time: 24690000 ps
CPU Time:      1.200 seconds;       Data structure size:   0.2Mb
Mon Jun 15 13:36:59 2026
